0 1 62 
0 1 59 
3 3 36 34 7 
0 1 28 
0 1 55 
0 1 35 
2 2 43 42 
3 4 53 43 22 18 
2 2 39 34 
2 2 49 46 
0 1 60 
2 2 47 44 
2 2 52 49 
0 1 43 
2 2 59 53 
0 1 59 
0 1 41 
0 1 75 
0 1 73 
0 1 42 
2 2 63 60 
0 1 78 
0 1 59 
0 1 64 
2 2 35 31 
0 1 33 
2 2 43 45 
2 2 56 56 
0 1 36 
0 1 32 
3 3 42 39 4 
2 2 41 39 
0 1 36 
1 2 38 14 
2 2 40 40 
0 1 54 
0 1 70 
0 1 63 
2 2 37 39 
0 1 61 
0 1 29 
0 1 31 
0 1 55 
0 1 32 
0 1 46 
0 1 77 
0 1 78 
0 1 71 
0 1 58 
0 1 25 
0 1 36 
0 1 76 
1 2 27 2 
0 1 48 
0 1 42 
0 1 49 
3 4 50 51 21 24 
0 1 50 
2 2 37 35 
2 2 32 26 
0 1 31 
2 2 35 24 
0 1 58 
0 1 51 
0 1 38 
2 2 30 30 
0 1 38 
0 1 26 
0 1 74 
0 1 58 
2 2 61 61 
0 1 66 
0 1 23 
2 2 27 27 
0 1 57 
3 3 31 24 1 
0 1 56 
2 2 30 27 
0 1 26 
0 1 39 
0 1 26 
0 1 29 
2 2 28 27 
0 1 26 
0 1 39 
2 2 39 39 
0 1 57 
0 1 66 
0 1 31 
0 1 57 
0 1 30 
0 1 28 
0 1 89 
0 1 89 
0 1 83 
0 1 17 
0 1 86 
0 1 23 
0 1 20 
0 1 88 
0 1 86 
0 1 29 
3 3 29 29 3 
0 1 89 
0 1 80 
0 1 17 
0 1 81 
0 1 17 
0 1 81 
0 1 19 
0 1 19 
0 1 19 
4 3 15 13 12 
4 5 8 6 5 4 3 
4 5 16 13 11 11 4 
4 6 14 14 14 14 11 10 
4 1 13 
4 3 16 13 10 
4 4 92 91 15 0 
4 3 16 15 4 
4 5 90 15 6 3 3 
4 3 13 11 10 
4 2 93 5 
