0 1 20 
2 2 63 61 
0 1 43 
0 1 68 
3 4 39 36 7 4 
2 2 42 35 
0 1 28 
0 1 34 
0 1 55 
0 1 35 
0 1 79 
1 2 33 0 
2 2 36 29 
0 1 24 
2 2 51 50 
0 1 42 
2 2 37 38 
0 1 59 
2 2 59 53 
0 1 59 
2 2 44 41 
0 1 57 
0 1 41 
0 1 52 
0 1 40 
0 1 48 
0 1 27 
0 1 64 
2 2 35 31 
0 1 33 
2 2 56 56 
0 1 50 
0 1 36 
0 1 32 
3 3 42 39 4 
0 1 51 
2 2 49 46 
0 1 26 
3 3 43 42 16 
0 1 70 
0 1 66 
0 1 49 
0 1 38 
0 1 82 
0 1 43 
2 2 55 52 
0 1 89 
2 2 22 19 
2 2 26 23 
2 2 30 27 
0 1 39 
0 1 60 
0 1 28 
0 1 47 
0 1 25 
0 1 78 
0 1 34 
0 1 31 
0 1 76 
1 2 34 3 
0 1 26 
0 1 30 
0 1 58 
0 1 31 
0 1 26 
0 1 43 
0 1 31 
0 1 39 
0 1 29 
1 2 39 4 
0 1 30 
0 1 55 
0 1 29 
0 1 39 
0 1 23 
0 1 22 
0 1 39 
0 1 47 
0 1 57 
0 1 30 
0 1 81 
0 1 79 
0 1 47 
0 1 47 
0 1 22 
0 1 30 
0 1 83 
0 1 17 
0 1 87 
0 1 80 
0 1 22 
0 1 81 
0 1 21 
0 1 21 
0 1 22 
0 1 81 
0 1 80 
0 1 19 
0 1 19 
0 1 17 
4 4 92 16 15 8 
4 4 14 11 6 6 
4 4 13 11 9 6 
4 6 15 14 13 12 11 2 
4 4 7 6 5 3 
4 3 14 13 7 
4 2 6 6 
4 4 13 11 4 3 
