#Age;#Probability to go on retirement;;;
30;0.002035352
31;0.002035352
32;0.002035352
33;0.002035352
34;0.002035352
35;0.001849247
36;0.001849247
37;0.001849247
38;0.001849247
39;0.001849247
40;0.001642669
41;0.001642669
42;0.001642669
43;0.001642669
44;0.001642669
45;0.003576739
46;0.003576739
47;0.003576739
48;0.003576739
49;0.003576739
50;0.012960429
51;0.012960429
52;0.012960429
53;0.012960429
54;0.012960429
55;0.068589642
56;0.068589642
57;0.068589642
58;0.068589642
59;0.068589642
60;0.419577987
61;0.419577987
62;0.419577987
63;0.419577987
64;0.419577987
65;0.802958428
66;0.802958428
67;0.802958428
68;0.802958428
69;0.802958428
70;0.721953028
71;0.721953028
72;0.721953028
73;0.721953028
74;0.721953028
75;0.587483178
76;0.587483178
77;0.587483178
78;0.587483178
79;0.587483178
80;0.541059887
81;0.541059887
82;0.541059887
83;0.541059887
84;0.541059887
85;1


