0 1 46 
2 2 43 42 
3 4 53 43 22 18 
2 2 39 34 
0 1 60 
2 2 47 44 
2 2 52 49 
0 1 43 
2 2 31 27 
0 1 54 
0 1 89 
0 1 79 
0 1 23 
2 2 42 40 
0 1 79 
0 1 59 
2 2 69 69 
2 2 34 37 
0 1 58 
2 2 56 54 
0 1 39 
0 1 57 
1 2 38 7 
2 2 53 51 
0 1 32 
0 1 28 
2 2 51 41 
2 2 49 57 
0 1 38 
0 1 54 
2 2 68 69 
2 2 66 64 
0 1 77 
1 4 33 4 0 6 
0 1 33 
0 1 45 
2 2 40 37 
0 1 70 
2 2 31 29 
1 3 41 6 15 
0 1 38 
2 2 75 69 
2 2 31 27 
2 2 42 41 
2 2 70 70 
2 2 42 37 
0 1 26 
0 1 31 
0 1 77 
0 1 78 
2 2 24 20 
0 1 63 
0 1 38 
0 1 35 
0 1 32 
1 3 26 2 5 
2 2 26 23 
2 2 30 26 
2 2 75 71 
0 1 88 
2 2 36 36 
1 2 49 16 
1 2 35 5 
2 2 40 33 
0 1 65 
1 2 57 24 
0 1 37 
0 1 73 
1 3 35 10 7 
0 1 37 
0 1 55 
0 1 55 
2 2 20 18 
0 1 64 
2 2 21 20 
1 2 37 20 
0 1 22 
3 3 36 32 8 
0 1 38 
0 1 41 
0 1 57 
2 2 26 19 
0 1 78 
0 1 62 
2 2 48 45 
2 2 43 38 
0 1 47 
2 2 79 80 
0 1 73 
0 1 48 
0 1 45 
0 1 72 
0 1 62 
2 2 36 32 
1 3 36 3 4 
2 2 38 32 
0 1 62 
2 2 48 45 
0 1 36 
2 2 45 41 
0 1 41 
0 1 45 
0 1 28 
2 2 45 44 
0 1 58 
0 1 73 
1 2 43 10 
0 1 65 
0 1 74 
0 1 55 
0 1 23 
0 1 65 
0 1 64 
2 2 71 73 
1 2 33 11 
0 1 75 
0 1 53 
3 3 41 39 11 
0 1 21 
0 1 40 
3 3 30 22 1 
0 1 30 
0 1 63 
0 1 56 
2 2 39 37 
0 1 74 
1 3 41 13 11 
2 2 35 24 
0 1 27 
0 1 56 
0 1 27 
0 1 33 
0 1 65 
0 1 63 
1 2 36 4 
0 1 26 
0 1 39 
0 1 65 
0 1 27 
0 1 39 
0 1 30 
0 1 40 
0 1 41 
0 1 48 
0 1 73 
0 1 28 
0 1 87 
1 2 26 7 
0 1 63 
0 1 29 
0 1 56 
0 1 25 
0 1 56 
0 1 39 
0 1 56 
0 1 25 
3 3 39 39 11 
2 2 83 87 
3 4 29 28 6 8 
0 1 26 
0 1 28 
2 2 28 29 
0 1 40 
0 1 86 
2 2 85 81 
0 1 81 
0 1 48 
0 1 29 
0 1 82 
0 1 86 
0 1 29 
0 1 29 
0 1 19 
0 1 89 
0 1 84 
2 2 89 88 
0 1 88 
0 1 18 
0 1 88 
0 1 88 
0 1 88 
0 1 88 
0 1 17 
0 1 19 
0 1 17 
0 1 17 
0 1 17 
4 6 93 92 16 16 14 3 
4 6 16 14 10 10 9 5 
4 4 90 14 12 10 
4 2 91 4 
4 3 92 15 12 
4 2 91 12 
4 2 16 10 
4 5 15 15 13 3 2 
4 5 15 10 9 6 0 
4 4 91 15 13 10 
4 6 92 15 13 10 8 4 
4 6 93 16 16 14 12 3 
4 3 91 15 14 
4 2 14 13 
