0 1 72 
2 2 65 60 
0 1 89 
0 1 23 
2 2 42 40 
0 1 59 
2 2 34 37 
0 1 58 
2 2 56 54 
0 1 46 
0 1 39 
0 1 57 
1 2 38 7 
0 1 67 
2 2 53 51 
2 2 44 45 
3 3 32 31 1 
1 2 35 8 
0 1 44 
0 1 64 
2 2 72 70 
0 1 28 
2 2 51 41 
2 2 49 57 
2 2 49 46 
2 2 42 36 
0 1 48 
0 1 63 
0 1 69 
2 2 43 39 
0 1 30 
0 1 31 
0 1 55 
2 2 64 59 
2 2 31 29 
0 1 63 
0 1 45 
0 1 36 
2 2 39 35 
0 1 42 
2 2 33 35 
2 2 47 41 
0 1 78 
2 2 42 37 
0 1 51 
3 3 67 60 24 
0 1 73 
1 2 36 4 
0 1 67 
0 1 67 
3 4 39 33 10 3 
1 3 26 2 5 
2 2 50 48 
2 2 61 54 
0 1 33 
0 1 50 
2 2 37 35 
0 1 65 
0 1 46 
2 2 32 26 
1 2 35 5 
2 2 48 47 
0 1 31 
2 2 46 46 
0 1 59 
0 1 40 
0 1 74 
2 2 57 55 
0 1 35 
0 1 44 
1 2 45 14 
2 2 36 40 
0 1 75 
0 1 63 
1 2 53 27 
1 2 37 20 
0 1 22 
3 3 36 32 8 
3 4 49 44 23 12 
2 2 38 37 
0 1 30 
0 1 78 
2 2 41 39 
0 1 63 
0 1 30 
3 3 55 49 16 
3 3 55 53 24 
0 1 61 
2 2 42 39 
2 2 30 30 
0 1 76 
2 2 58 58 
2 2 43 38 
0 1 47 
0 1 74 
2 2 63 56 
0 1 54 
0 1 74 
0 1 60 
0 1 37 
2 2 72 71 
1 2 47 12 
2 2 36 32 
3 3 42 40 20 
3 3 33 32 2 
0 1 58 
0 1 34 
2 2 38 32 
2 2 55 53 
0 1 58 
0 1 74 
2 2 43 41 
2 2 59 58 
0 1 61 
0 1 72 
2 2 45 41 
1 3 51 21 18 
0 1 58 
3 3 50 49 13 
0 1 27 
0 1 43 
3 3 39 38 7 
1 2 38 8 
0 1 86 
2 2 62 52 
3 3 58 52 23 
0 1 48 
0 1 86 
1 2 36 13 
0 1 25 
0 1 33 
2 2 77 73 
2 2 55 50 
2 2 25 26 
0 1 44 
3 4 41 36 14 7 
2 2 56 55 
0 1 36 
0 1 75 
0 1 53 
3 3 41 39 11 
0 1 62 
2 2 73 71 
3 3 43 38 19 
2 2 64 62 
0 1 25 
0 1 41 
3 3 42 40 5 
2 2 53 54 
0 1 47 
0 1 27 
0 1 47 
0 1 38 
0 1 29 
0 1 74 
2 2 41 43 
2 2 36 34 
0 1 46 
0 1 85 
0 1 27 
0 1 23 
0 1 33 
1 2 47 10 
0 1 61 
0 1 86 
0 1 33 
2 2 64 60 
0 1 74 
0 1 45 
2 2 41 36 
3 4 49 48 12 16 
2 2 29 29 
0 1 61 
0 1 63 
1 2 34 10 
0 1 34 
0 1 51 
2 2 37 37 
0 1 57 
2 2 21 18 
0 1 35 
2 2 41 37 
0 1 54 
1 2 45 14 
0 1 22 
1 3 51 18 17 
0 1 37 
0 1 52 
0 1 36 
0 1 39 
2 2 45 45 
3 3 45 45 9 
0 1 38 
1 2 38 14 
2 2 33 27 
0 1 84 
2 2 66 61 
0 1 38 
0 1 27 
0 1 49 
2 2 52 38 
1 2 40 13 
0 1 76 
2 2 21 23 
1 2 43 11 
2 2 28 25 
0 1 73 
0 1 48 
2 2 53 45 
2 2 22 18 
0 1 45 
0 1 66 
0 1 28 
0 1 63 
0 1 74 
0 1 56 
0 1 25 
0 1 74 
0 1 19 
0 1 88 
0 1 60 
0 1 35 
0 1 51 
0 1 76 
0 1 48 
0 1 25 
0 1 28 
1 2 35 2 
0 1 22 
0 1 51 
0 1 82 
0 1 28 
0 1 76 
0 1 49 
0 1 53 
0 1 43 
0 1 37 
0 1 28 
0 1 25 
0 1 48 
0 1 52 
2 2 20 18 
2 2 52 43 
0 1 25 
0 1 43 
2 2 26 29 
0 1 73 
2 2 25 25 
2 2 77 77 
0 1 77 
0 1 29 
0 1 48 
0 1 82 
0 1 26 
0 1 89 
0 1 48 
0 1 28 
0 1 85 
0 1 21 
2 2 49 48 
2 2 49 49 
1 2 28 0 
0 1 23 
0 1 85 
0 1 81 
0 1 84 
0 1 22 
0 1 20 
0 1 60 
0 1 73 
0 1 48 
2 2 48 49 
0 1 60 
1 2 28 9 
0 1 29 
0 1 77 
0 1 28 
1 3 29 10 3 
0 1 22 
0 1 29 
0 1 26 
0 1 28 
0 1 23 
2 2 18 19 
0 1 23 
0 1 77 
0 1 80 
0 1 84 
2 2 23 20 
0 1 88 
0 1 23 
0 1 82 
0 1 20 
0 1 26 
0 1 84 
0 1 28 
0 1 26 
0 1 84 
0 1 84 
2 2 19 19 
0 1 81 
0 1 17 
0 1 80 
2 2 17 18 
0 1 81 
0 1 80 
0 1 19 
0 1 19 
0 1 81 
0 1 19 
0 1 81 
0 1 81 
0 1 18 
4 2 15 0 
4 5 15 15 15 4 4 
4 2 13 4 
4 1 12 
4 1 12 
4 4 93 93 92 16 
4 2 15 3 
4 5 92 16 15 9 7 
4 5 93 92 91 15 10 
4 2 12 11 
4 4 94 94 91 10 
4 3 16 11 3 
4 1 90 
4 3 16 16 4 
4 1 10 
4 5 15 15 10 10 0 
4 6 16 15 14 12 12 11 
4 5 91 11 4 3 0 
4 1 14 
