2 2 34 34 
2 2 36 29 
0 1 49 
2 2 29 22 
0 1 33 
1 2 29 1 
3 3 43 37 12 
3 3 36 36 0 
2 2 61 58 
2 2 69 65 
0 1 23 
2 2 29 25 
3 3 51 44 14 
0 1 38 
3 3 52 51 22 
2 2 62 58 
0 1 54 
2 2 65 60 
0 1 79 
0 1 23 
2 2 42 40 
0 1 79 
0 1 59 
0 1 68 
0 1 64 
2 2 35 31 
1 2 43 22 
2 2 43 45 
2 2 59 57 
2 2 49 40 
0 1 24 
0 1 42 
0 1 39 
0 1 50 
3 4 45 40 20 10 
0 1 59 
2 2 38 37 
0 1 39 
0 1 77 
1 4 33 4 0 6 
0 1 33 
0 1 66 
0 1 45 
0 1 49 
0 1 42 
0 1 46 
0 1 77 
2 2 43 41 
2 2 39 35 
2 2 33 35 
2 2 47 41 
0 1 62 
2 2 61 53 
3 3 56 57 24 
0 1 37 
0 1 78 
0 1 43 
0 1 21 
0 1 62 
0 1 47 
0 1 55 
0 1 60 
2 2 44 33 
0 1 49 
0 1 46 
2 2 35 30 
0 1 36 
1 3 37 9 11 
0 1 19 
2 2 70 72 
2 2 32 26 
1 2 35 5 
0 1 31 
0 1 59 
0 1 74 
2 2 57 55 
2 2 20 18 
2 2 21 20 
1 2 37 20 
0 1 22 
0 1 38 
0 1 66 
0 1 54 
2 2 57 54 
2 2 46 47 
0 1 65 
3 3 34 31 10 
0 1 26 
0 1 34 
2 2 26 27 
0 1 26 
3 3 43 38 4 
0 1 31 
0 1 75 
0 1 60 
2 2 65 60 
0 1 74 
2 2 63 65 
0 1 62 
0 1 36 
0 1 41 
0 1 32 
0 1 27 
0 1 43 
0 1 86 
0 1 86 
1 2 36 13 
0 1 25 
0 1 29 
0 1 29 
0 1 58 
3 3 36 30 2 
0 1 86 
0 1 48 
1 2 36 12 
0 1 63 
0 1 39 
0 1 32 
0 1 36 
0 1 38 
0 1 41 
2 2 28 27 
0 1 26 
0 1 56 
0 1 75 
0 1 73 
0 1 73 
0 1 48 
0 1 85 
0 1 30 
2 2 63 57 
0 1 41 
0 1 48 
1 2 32 6 
0 1 53 
0 1 63 
2 2 41 41 
0 1 39 
0 1 73 
0 1 58 
0 1 28 
0 1 48 
0 1 48 
0 1 27 
0 1 30 
0 1 56 
0 1 30 
3 3 39 39 11 
0 1 78 
0 1 26 
0 1 28 
0 1 56 
0 1 78 
0 1 39 
0 1 84 
0 1 39 
0 1 48 
0 1 86 
0 1 88 
0 1 88 
0 1 87 
0 1 88 
0 1 88 
0 1 18 
0 1 17 
0 1 19 
0 1 17 
0 1 19 
0 1 19 
0 1 17 
0 1 17 
4 5 16 15 11 10 3 
4 3 15 12 10 
4 2 15 10 
4 5 92 16 13 4 4 
4 1 14 
4 5 92 13 11 5 3 
4 1 13 
4 5 15 15 13 4 2 
4 6 94 92 14 5 4 3 
4 1 10 
4 1 14 
4 2 15 15 
4 2 14 0 
4 1 16 
4 1 16 
4 2 14 3 
