3 3 40 39 7 
0 1 50 
2 2 43 42 
3 4 53 43 22 18 
2 2 39 34 
2 2 49 46 
0 1 60 
2 2 47 44 
2 2 52 49 
0 1 43 
2 2 31 27 
0 1 41 
0 1 52 
2 2 54 44 
0 1 56 
1 2 37 16 
3 3 42 43 10 
2 2 60 58 
3 4 40 39 10 5 
0 1 57 
2 2 84 77 
1 2 38 7 
2 2 53 51 
0 1 73 
0 1 36 
0 1 32 
0 1 28 
2 2 51 41 
2 2 49 57 
0 1 69 
0 1 54 
0 1 70 
0 1 63 
2 2 43 39 
0 1 30 
0 1 31 
0 1 55 
2 2 64 59 
2 2 31 29 
1 3 41 6 15 
0 1 38 
2 2 31 27 
2 2 60 60 
2 2 43 38 
0 1 39 
0 1 63 
3 3 46 48 29 
2 2 34 33 
0 1 62 
0 1 73 
0 1 65 
0 1 32 
0 1 45 
0 1 79 
2 2 38 37 
0 1 61 
2 2 65 59 
3 3 30 32 2 
0 1 65 
0 1 73 
1 2 39 10 
2 2 46 49 
2 2 65 59 
2 2 61 62 
0 1 66 
0 1 47 
0 1 59 
0 1 40 
0 1 74 
2 2 57 55 
0 1 35 
1 2 45 14 
0 1 75 
0 1 63 
1 2 53 27 
1 2 37 20 
0 1 22 
3 3 36 32 8 
0 1 38 
0 1 77 
0 1 56 
0 1 66 
0 1 54 
0 1 33 
2 2 30 30 
0 1 21 
0 1 39 
1 2 35 7 
0 1 47 
0 1 48 
0 1 45 
0 1 57 
0 1 46 
0 1 74 
2 2 87 88 
0 1 70 
0 1 41 
0 1 45 
0 1 49 
0 1 34 
0 1 61 
2 2 62 63 
0 1 45 
1 2 34 16 
0 1 86 
0 1 86 
1 2 36 13 
0 1 29 
0 1 29 
0 1 36 
0 1 29 
1 2 39 4 
0 1 78 
0 1 71 
2 2 62 53 
1 3 56 36 16 
0 1 30 
0 1 63 
0 1 36 
0 1 38 
0 1 71 
0 1 62 
0 1 61 
0 1 86 
0 1 33 
1 2 36 4 
0 1 26 
0 1 56 
0 1 75 
0 1 36 
0 1 57 
2 2 78 75 
0 1 82 
0 1 79 
0 1 53 
0 1 48 
2 2 28 26 
0 1 23 
1 3 48 22 19 
0 1 37 
0 1 88 
0 1 48 
0 1 58 
0 1 25 
2 2 23 22 
2 2 23 23 
0 1 35 
3 3 35 35 3 
0 1 48 
0 1 27 
0 1 57 
0 1 56 
0 1 25 
0 1 28 
0 1 39 
0 1 56 
0 1 19 
0 1 88 
2 2 24 18 
0 1 26 
0 1 61 
0 1 48 
0 1 27 
0 1 26 
2 2 20 18 
2 2 21 17 
0 1 85 
0 1 88 
0 1 20 
0 1 26 
0 1 58 
0 1 26 
2 2 58 58 
2 2 17 17 
0 1 78 
0 1 78 
0 1 20 
0 1 24 
0 1 24 
0 1 89 
2 2 19 19 
0 1 24 
0 1 24 
0 1 19 
4 1 94 
4 3 92 14 11 
4 6 14 13 12 11 6 4 
4 6 92 16 15 12 3 0 
4 3 15 11 6 
4 4 13 13 10 6 
4 5 93 92 91 13 11 
4 3 14 14 4 
4 4 15 12 9 3 
