0 1 62 
0 1 59 
2 2 56 54 
1 2 38 9 
0 1 28 
0 1 55 
0 1 35 
0 1 68 
0 1 79 
2 2 73 67 
3 3 40 39 7 
2 2 33 30 
0 1 49 
2 2 29 22 
0 1 33 
0 1 30 
0 1 48 
0 1 45 
2 2 65 64 
0 1 44 
0 1 20 
0 1 30 
0 1 27 
0 1 59 
2 2 34 37 
0 1 58 
0 1 46 
0 1 50 
0 1 32 
0 1 59 
2 2 42 42 
2 2 68 69 
0 1 68 
0 1 66 
0 1 50 
0 1 46 
0 1 72 
0 1 47 
0 1 78 
3 3 37 37 10 
0 1 82 
0 1 77 
2 2 24 20 
0 1 76 
1 2 27 2 
0 1 37 
0 1 87 
0 1 59 
0 1 27 
0 1 31 
0 1 76 
0 1 41 
2 2 63 66 
0 1 56 
0 1 74 
0 1 31 
0 1 59 
0 1 47 
2 2 31 23 
0 1 29 
0 1 29 
0 1 19 
0 1 20 
0 1 63 
0 1 89 
0 1 22 
0 1 89 
0 1 83 
0 1 26 
0 1 80 
0 1 82 
0 1 82 
0 1 81 
0 1 20 
0 1 17 
0 1 17 
4 1 9 
4 3 93 13 10 
4 5 15 10 4 4 3 
4 1 14 
4 5 90 12 11 7 0 
4 1 12 
4 5 16 15 14 9 4 
4 6 91 91 13 6 5 4 
4 1 15 
4 1 16 
