0 1 45 
0 1 50 
0 1 31 
0 1 56 
0 1 52 
0 1 68 
0 1 63 
0 1 42 
2 2 37 38 
2 2 38 38 
0 1 62 
3 3 51 44 14 
0 1 38 
3 3 52 51 22 
2 2 62 58 
2 2 61 69 
0 1 57 
0 1 41 
0 1 52 
2 2 54 44 
0 1 56 
1 2 37 16 
3 3 42 43 10 
2 2 60 58 
3 4 40 39 10 5 
0 1 57 
2 2 84 77 
1 2 38 7 
0 1 73 
0 1 84 
0 1 36 
0 1 32 
0 1 28 
0 1 25 
0 1 86 
0 1 59 
0 1 69 
0 1 54 
2 2 68 69 
2 2 37 39 
0 1 61 
2 2 43 42 
0 1 45 
2 2 40 37 
2 2 64 59 
2 2 31 29 
1 3 41 6 15 
0 1 38 
2 2 75 69 
2 2 31 27 
2 2 60 60 
2 2 43 38 
2 2 65 55 
3 3 46 48 29 
2 2 34 33 
0 1 72 
0 1 62 
0 1 73 
2 2 55 52 
0 1 65 
0 1 32 
0 1 45 
0 1 79 
0 1 50 
2 2 61 54 
0 1 33 
2 2 37 35 
0 1 40 
2 2 36 35 
0 1 64 
0 1 74 
0 1 59 
0 1 53 
0 1 27 
0 1 59 
0 1 40 
2 2 57 55 
0 1 35 
1 2 45 14 
2 2 36 40 
0 1 75 
0 1 63 
0 1 34 
1 2 53 27 
1 2 37 20 
0 1 22 
3 3 36 32 8 
0 1 56 
1 3 32 2 0 
0 1 33 
0 1 40 
3 4 52 35 9 1 
0 1 45 
1 2 45 5 
2 2 26 27 
0 1 26 
0 1 76 
1 2 36 5 
1 2 55 19 
2 2 23 22 
0 1 55 
2 2 47 46 
2 2 48 45 
0 1 36 
0 1 61 
0 1 41 
2 2 62 63 
0 1 28 
2 2 33 30 
0 1 66 
0 1 65 
0 1 55 
0 1 23 
0 1 29 
1 2 39 4 
0 1 25 
1 2 27 3 
2 2 28 24 
0 1 55 
0 1 41 
0 1 26 
0 1 29 
2 2 55 53 
0 1 47 
0 1 48 
0 1 85 
0 1 71 
0 1 30 
1 2 47 10 
0 1 33 
2 2 41 36 
3 4 49 48 12 16 
1 2 30 10 
0 1 58 
0 1 39 
0 1 47 
2 2 39 39 
0 1 37 
0 1 55 
2 2 28 26 
0 1 23 
0 1 30 
0 1 75 
0 1 49 
0 1 85 
0 1 36 
2 2 49 48 
0 1 88 
2 2 29 25 
0 1 73 
0 1 58 
0 1 28 
0 1 87 
0 1 79 
0 1 49 
0 1 41 
0 1 29 
0 1 56 
1 3 39 14 15 
0 1 56 
2 2 63 56 
0 1 63 
0 1 58 
0 1 63 
0 1 28 
1 2 49 19 
3 3 39 39 11 
0 1 37 
2 2 78 64 
0 1 17 
0 1 29 
0 1 58 
0 1 63 
0 1 48 
0 1 41 
0 1 63 
0 1 53 
0 1 64 
0 1 37 
0 1 48 
0 1 48 
2 2 41 20 
0 1 33 
0 1 75 
1 2 48 19 
0 1 21 
0 1 29 
0 1 82 
0 1 26 
0 1 89 
0 1 58 
2 2 26 19 
2 2 20 18 
2 2 21 17 
0 1 21 
0 1 82 
0 1 83 
0 1 20 
0 1 88 
0 1 78 
0 1 19 
0 1 83 
0 1 81 
0 1 23 
2 2 18 19 
0 1 23 
0 1 24 
0 1 26 
0 1 83 
0 1 81 
0 1 24 
2 2 24 17 
0 1 81 
0 1 80 
0 1 80 
0 1 19 
0 1 18 
0 1 18 
0 1 18 
4 4 94 14 13 12 
4 2 15 4 
4 3 16 13 12 
4 5 16 13 11 10 3 
4 3 15 9 6 
4 4 15 7 3 2 
4 2 13 9 
4 6 91 12 6 4 4 0 
4 2 10 8 
4 4 90 15 14 8 
4 3 16 10 7 
4 1 3 
4 5 90 15 14 11 6 
4 5 90 90 15 11 10 
4 5 91 16 13 10 4 
4 1 16 
