0 1 55 
2 2 20 18 
2 2 61 60 
2 2 38 33 
1 3 43 8 15 
1 2 37 20 
0 1 22 
3 3 36 32 8 
3 4 49 44 23 12 
2 2 54 61 
2 2 69 68 
0 1 58 
0 1 48 
1 2 40 15 
0 1 42 
2 2 36 34 
2 2 40 39 
0 1 68 
0 1 76 
0 1 69 
3 3 34 31 10 
2 2 45 42 
2 2 37 37 
2 2 40 35 
0 1 45 
0 1 44 
0 1 34 
0 1 72 
0 1 44 
0 1 74 
3 3 45 43 18 
2 2 38 31 
0 1 62 
0 1 52 
2 2 21 19 
1 2 55 19 
2 2 23 22 
0 1 55 
1 4 43 13 19 7 
2 2 71 72 
2 2 55 53 
0 1 34 
0 1 47 
0 1 61 
3 3 42 39 17 
0 1 56 
0 1 41 
0 1 40 
0 1 56 
0 1 58 
3 3 50 49 13 
0 1 27 
0 1 43 
0 1 55 
0 1 67 
0 1 28 
2 2 45 44 
0 1 66 
0 1 58 
0 1 54 
0 1 73 
0 1 52 
3 3 58 52 23 
0 1 48 
0 1 86 
2 2 65 61 
2 2 24 23 
0 1 62 
0 1 65 
0 1 29 
2 2 55 50 
0 1 49 
0 1 59 
0 1 42 
0 1 33 
1 4 38 10 6 8 
0 1 60 
3 3 31 24 1 
1 2 34 4 
0 1 30 
0 1 72 
2 2 55 56 
0 1 48 
3 3 30 22 1 
3 3 66 59 35 
0 1 56 
2 2 47 44 
3 3 52 45 18 
0 1 67 
0 1 61 
0 1 56 
2 2 60 61 
0 1 74 
1 2 44 14 
2 2 41 43 
0 1 32 
2 2 37 35 
0 1 36 
0 1 38 
2 2 58 60 
0 1 74 
0 1 63 
1 2 38 8 
0 1 27 
2 2 29 31 
0 1 23 
0 1 33 
0 1 71 
1 2 47 10 
0 1 65 
0 1 71 
0 1 61 
2 2 64 60 
0 1 62 
2 2 67 68 
2 2 50 48 
3 3 32 30 1 
0 1 73 
2 2 61 58 
0 1 89 
0 1 61 
0 1 72 
2 2 52 53 
2 2 46 44 
1 2 34 10 
2 2 59 53 
1 3 44 14 15 
1 2 31 9 
0 1 60 
2 2 28 26 
2 2 39 47 
0 1 49 
0 1 73 
2 2 36 33 
2 2 37 37 
0 1 57 
2 2 21 18 
0 1 35 
2 2 41 37 
2 2 38 34 
2 2 35 34 
0 1 54 
0 1 62 
1 2 45 14 
0 1 22 
0 1 62 
2 2 53 47 
1 2 32 6 
1 4 49 14 17 15 
2 2 49 46 
0 1 31 
0 1 52 
3 3 51 46 20 
0 1 59 
2 2 64 63 
2 2 38 30 
0 1 36 
2 2 45 45 
0 1 58 
3 3 45 45 9 
2 2 64 60 
0 1 40 
0 1 25 
2 2 23 22 
2 2 58 57 
0 1 66 
1 2 40 3 
2 2 46 43 
2 2 63 62 
2 2 64 60 
2 2 62 62 
1 3 49 16 13 
0 1 48 
0 1 41 
0 1 48 
0 1 33 
2 2 44 45 
0 1 49 
0 1 34 
1 2 46 17 
2 2 67 63 
0 1 60 
0 1 72 
3 3 63 60 26 
2 2 27 21 
1 3 52 24 20 
0 1 49 
0 1 59 
2 2 52 38 
1 2 46 15 
0 1 55 
0 1 43 
2 2 51 48 
1 2 40 13 
2 2 49 47 
0 1 76 
2 2 72 71 
2 2 30 24 
0 1 40 
0 1 78 
3 3 32 28 6 
0 1 63 
2 2 45 51 
0 1 68 
2 2 38 33 
0 1 33 
0 1 42 
0 1 51 
3 5 39 38 14 15 12 
0 1 68 
2 2 32 28 
0 1 83 
3 3 63 59 26 
1 2 25 2 
0 1 62 
2 2 57 51 
2 2 29 22 
2 2 22 18 
2 2 72 71 
3 3 54 52 19 
0 1 30 
2 2 65 61 
0 1 56 
2 2 33 32 
1 2 49 19 
2 2 54 54 
2 2 35 29 
2 2 39 43 
0 1 47 
0 1 69 
2 2 49 47 
2 2 48 43 
0 1 54 
2 2 49 49 
1 3 53 19 16 
2 2 54 51 
0 1 50 
2 2 59 55 
2 2 35 34 
2 2 58 55 
0 1 52 
0 1 67 
0 1 43 
2 2 44 44 
2 2 64 62 
0 1 64 
0 1 60 
0 1 61 
0 1 57 
2 2 36 30 
0 1 22 
0 1 69 
2 2 64 63 
3 3 42 41 3 
0 1 72 
2 2 69 70 
2 2 43 38 
2 2 46 43 
0 1 54 
0 1 73 
3 3 37 40 17 
0 1 39 
0 1 70 
0 1 70 
0 1 28 
3 3 40 48 12 
0 1 73 
0 1 56 
2 2 58 57 
2 2 73 77 
0 1 53 
3 3 34 33 8 
0 1 74 
1 2 33 8 
2 2 37 40 
0 1 70 
2 2 35 33 
2 2 34 32 
0 1 49 
2 2 72 76 
2 2 35 31 
0 1 67 
2 2 42 41 
2 2 43 42 
0 1 42 
2 2 34 33 
0 1 73 
0 1 40 
0 1 76 
0 1 47 
0 1 47 
0 1 47 
0 1 49 
2 2 47 46 
0 1 39 
2 2 72 61 
0 1 35 
2 2 37 36 
2 2 30 33 
2 2 42 41 
2 2 67 61 
1 2 46 8 
2 2 55 51 
0 1 46 
2 2 56 54 
1 2 34 15 
0 1 42 
0 1 29 
0 1 56 
0 1 76 
0 1 69 
3 6 46 39 3 12 9 5 
2 2 49 48 
0 1 85 
0 1 37 
2 2 26 29 
0 1 75 
2 2 49 50 
2 2 45 38 
0 1 72 
2 2 42 44 
0 1 36 
0 1 48 
0 1 46 
1 2 34 5 
2 2 57 56 
0 1 36 
0 1 56 
2 2 39 38 
1 2 42 19 
0 1 36 
2 2 54 53 
0 1 70 
2 2 31 27 
2 2 44 41 
0 1 50 
0 1 50 
0 1 49 
3 3 56 51 21 
0 1 41 
1 2 37 7 
2 2 50 52 
0 1 59 
0 1 47 
0 1 57 
3 3 43 40 8 
1 2 43 9 
2 2 34 23 
2 2 61 58 
0 1 55 
2 2 32 32 
2 2 45 38 
1 2 30 2 
1 2 32 4 
0 1 59 
2 2 62 60 
2 2 63 60 
2 2 30 27 
2 2 58 57 
2 2 35 31 
0 1 60 
1 2 33 1 
1 2 45 15 
2 2 64 63 
2 2 51 48 
3 3 39 39 5 
0 1 28 
0 1 28 
0 1 41 
0 1 58 
3 3 70 69 39 
3 4 36 39 12 4 
2 2 26 27 
0 1 40 
3 3 70 62 24 
0 1 63 
2 2 37 35 
2 2 43 43 
2 2 39 40 
2 2 37 36 
0 1 65 
1 2 47 16 
0 1 50 
0 1 51 
3 3 33 30 2 
1 2 53 26 
3 4 47 46 14 15 
0 1 20 
0 1 53 
0 1 37 
0 1 45 
2 2 48 41 
0 1 42 
2 2 43 36 
0 1 41 
0 1 32 
2 2 29 32 
0 1 63 
0 1 64 
0 1 79 
2 2 30 25 
0 1 32 
0 1 65 
2 2 21 17 
0 1 47 
0 1 64 
2 2 53 46 
0 1 30 
0 1 57 
2 2 61 61 
3 3 30 31 3 
2 2 36 31 
0 1 41 
0 1 58 
2 2 48 47 
0 1 36 
2 2 52 50 
0 1 64 
0 1 41 
2 2 62 60 
0 1 56 
2 2 32 34 
2 2 50 39 
0 1 52 
2 2 57 54 
0 1 34 
2 2 27 26 
0 1 62 
3 3 50 46 15 
0 1 39 
0 1 30 
0 1 22 
0 1 33 
2 2 39 36 
0 1 44 
0 1 44 
2 2 53 53 
2 2 42 37 
0 1 55 
0 1 46 
0 1 57 
2 2 58 59 
2 2 76 76 
0 1 40 
0 1 31 
0 1 25 
0 1 20 
0 1 65 
2 2 59 62 
0 1 42 
2 2 64 65 
1 4 41 12 8 14 
0 1 50 
0 1 34 
2 2 37 34 
2 2 58 55 
2 2 36 29 
2 2 53 54 
2 2 51 56 
0 1 60 
0 1 50 
1 2 40 20 
2 2 48 47 
0 1 56 
2 2 25 24 
0 1 65 
0 1 56 
2 2 65 59 
0 1 58 
0 1 35 
0 1 36 
2 2 60 59 
0 1 76 
1 2 39 13 
0 1 46 
3 3 59 57 28 
2 2 79 77 
0 1 56 
0 1 32 
0 1 33 
1 2 46 12 
2 2 31 27 
2 2 69 60 
0 1 50 
2 2 58 57 
0 1 55 
0 1 52 
0 1 29 
0 1 32 
0 1 44 
0 1 41 
0 1 29 
0 1 46 
0 1 41 
0 1 70 
2 2 60 58 
0 1 65 
1 2 48 15 
0 1 64 
1 2 31 3 
0 1 32 
2 2 74 71 
0 1 47 
0 1 89 
0 1 34 
3 3 52 40 11 
2 2 63 52 
2 2 64 63 
2 2 36 30 
0 1 52 
0 1 69 
0 1 34 
0 1 88 
0 1 22 
0 1 41 
0 1 48 
3 3 83 83 52 
2 2 30 24 
1 2 36 8 
1 2 34 15 
0 1 36 
0 1 34 
0 1 26 
2 2 48 46 
1 2 47 14 
0 1 53 
1 2 34 2 
0 1 17 
0 1 47 
0 1 31 
0 1 25 
0 1 53 
2 2 50 47 
2 2 32 32 
3 3 29 29 3 
0 1 53 
0 1 37 
0 1 33 
2 2 39 35 
0 1 78 
2 2 39 37 
0 1 55 
0 1 34 
1 2 48 10 
3 3 41 35 7 
0 1 83 
0 1 48 
0 1 64 
0 1 47 
0 1 54 
0 1 41 
0 1 54 
0 1 53 
0 1 53 
0 1 48 
0 1 25 
0 1 84 
3 4 50 44 12 14 
0 1 82 
0 1 55 
1 2 48 16 
2 2 37 30 
0 1 89 
1 2 44 12 
0 1 35 
0 1 57 
2 2 82 77 
1 2 41 11 
2 2 30 24 
1 2 40 16 
2 2 53 52 
2 2 56 53 
0 1 57 
0 1 51 
2 2 59 56 
0 1 51 
0 1 27 
0 1 27 
0 1 25 
0 1 53 
2 2 57 50 
2 2 23 21 
0 1 57 
2 2 51 51 
1 2 44 17 
2 2 59 54 
0 1 74 
2 2 31 29 
2 2 21 19 
2 2 31 29 
2 2 27 17 
0 1 82 
0 1 54 
0 1 86 
0 1 48 
0 1 75 
0 1 77 
0 1 64 
0 1 83 
0 1 28 
0 1 80 
0 1 83 
0 1 50 
0 1 64 
1 2 32 2 
2 2 57 57 
0 1 44 
0 1 51 
0 1 27 
2 2 74 74 
2 2 47 50 
0 1 88 
0 1 48 
2 2 29 27 
2 2 26 22 
0 1 48 
2 2 25 18 
0 1 57 
0 1 70 
1 2 33 5 
0 1 25 
0 1 63 
0 1 41 
0 1 85 
0 1 78 
0 1 26 
0 1 55 
0 1 80 
3 3 48 41 8 
0 1 47 
1 2 44 14 
0 1 25 
0 1 78 
0 1 35 
0 1 41 
2 2 26 26 
0 1 79 
0 1 55 
0 1 75 
0 1 55 
2 2 29 26 
0 1 74 
2 2 74 82 
2 2 47 47 
1 3 41 19 8 
0 1 86 
1 2 33 14 
0 1 23 
2 2 27 19 
0 1 54 
3 3 32 29 2 
0 1 70 
0 1 41 
1 2 44 18 
0 1 47 
0 1 55 
0 1 20 
0 1 78 
0 1 55 
0 1 77 
0 1 88 
0 1 47 
0 1 51 
0 1 87 
0 1 79 
0 1 35 
0 1 29 
2 2 63 51 
0 1 35 
0 1 83 
1 3 32 4 12 
1 2 57 24 
0 1 79 
0 1 28 
2 2 25 24 
0 1 25 
0 1 26 
0 1 54 
1 2 51 21 
2 2 24 17 
2 2 24 23 
0 1 23 
2 2 23 22 
2 2 26 24 
0 1 84 
0 1 28 
0 1 24 
0 1 63 
1 2 44 18 
3 3 26 23 0 
0 1 81 
0 1 75 
1 3 35 2 5 
0 1 35 
0 1 20 
1 2 32 1 
0 1 80 
0 1 79 
0 1 51 
0 1 21 
0 1 28 
2 2 44 44 
0 1 77 
0 1 77 
0 1 44 
0 1 63 
0 1 27 
0 1 25 
0 1 29 
0 1 79 
0 1 89 
2 2 27 21 
0 1 84 
2 2 24 20 
0 1 27 
0 1 18 
2 2 32 25 
2 2 24 24 
0 1 80 
0 1 75 
0 1 80 
0 1 75 
0 1 81 
0 1 28 
0 1 32 
0 1 77 
0 1 32 
0 1 25 
0 1 79 
0 1 86 
2 2 44 44 
0 1 21 
0 1 32 
0 1 88 
0 1 88 
0 1 21 
0 1 79 
0 1 27 
0 1 21 
0 1 22 
0 1 28 
0 1 24 
0 1 28 
0 1 86 
0 1 77 
0 1 79 
0 1 82 
0 1 25 
0 1 75 
0 1 86 
0 1 75 
1 2 25 0 
0 1 89 
2 2 20 19 
0 1 83 
2 2 17 18 
0 1 81 
0 1 89 
0 1 51 
0 1 81 
0 1 20 
0 1 75 
0 1 20 
0 1 75 
0 1 22 
0 1 51 
0 1 75 
0 1 82 
0 1 80 
0 1 85 
0 1 81 
0 1 82 
0 1 22 
0 1 20 
2 2 20 19 
1 2 20 0 
0 1 21 
0 1 80 
0 1 22 
0 1 85 
0 1 20 
2 2 22 21 
0 1 86 
0 1 89 
0 1 22 
1 3 22 0 1 
2 2 21 18 
2 2 20 19 
0 1 18 
0 1 17 
0 1 82 
0 1 17 
0 1 20 
0 1 21 
0 1 21 
0 1 21 
0 1 86 
0 1 20 
0 1 20 
0 1 20 
0 1 82 
0 1 85 
0 1 18 
0 1 85 
0 1 19 
0 1 19 
0 1 82 
0 1 86 
0 1 86 
0 1 19 
0 1 86 
0 1 17 
0 1 85 
0 1 85 
0 1 85 
0 1 82 
0 1 85 
0 1 19 
0 1 17 
0 1 19 
0 1 19 
0 1 17 
0 1 17 
0 1 17 
0 1 17 
0 1 17 
0 1 17 
0 1 17 
0 1 17 
0 1 17 
0 1 17 
4 6 94 94 91 16 14 11 
4 5 94 16 13 11 10 
4 4 13 12 11 11 
4 4 92 90 14 13 
4 3 13 7 3 
4 6 14 13 13 12 10 8 
4 3 14 12 3 
4 2 13 11 
4 6 94 91 16 16 15 14 
4 1 7 
4 3 90 11 10 
4 6 90 16 13 10 4 2 
4 4 94 16 13 4 
4 2 92 16 
4 5 94 11 11 10 0 
4 5 12 11 10 7 3 
4 1 7 
4 5 91 14 12 12 10 
4 2 13 10 
4 3 7 5 5 
4 3 90 14 12 
4 5 91 14 10 5 0 
4 2 16 4 
4 6 94 90 15 12 4 0 
4 6 93 16 14 13 11 0 
4 5 92 15 12 11 10 
4 5 92 16 14 14 11 
4 6 16 16 13 10 7 3 
4 2 91 8 
4 3 93 91 8 
4 2 94 10 
4 3 11 7 0 
4 3 94 13 10 
4 1 0 
4 1 14 
4 2 12 12 
4 1 10 
4 6 92 90 16 16 14 13 
4 2 11 4 
4 1 10 
4 4 16 13 5 4 
4 3 16 14 10 
4 4 92 14 13 10 
4 1 15 
4 4 91 13 7 7 
4 5 16 16 10 4 3 
4 4 93 92 16 11 
4 3 14 7 4 
4 3 13 11 5 
4 6 92 90 16 15 11 10 
4 5 92 91 11 9 7 
4 6 94 91 14 11 11 9 
4 5 94 94 13 5 5 
4 5 16 14 12 4 0 
4 2 16 11 
