0 1 68 
3 3 52 49 20 
2 2 38 37 
2 2 64 60 
3 3 44 52 20 
0 1 63 
0 1 69 
2 2 43 39 
2 2 67 61 
2 2 64 59 
2 2 31 29 
1 3 41 6 15 
0 1 38 
0 1 47 
2 2 31 27 
2 2 42 41 
2 2 55 51 
1 2 38 12 
2 2 51 50 
3 3 37 37 10 
2 2 64 69 
2 2 30 28 
0 1 31 
2 2 30 31 
0 1 77 
0 1 78 
2 2 24 20 
0 1 63 
0 1 38 
0 1 35 
3 4 40 42 18 14 
0 1 45 
0 1 79 
0 1 50 
2 2 69 63 
0 1 47 
0 1 61 
2 2 65 59 
0 1 39 
0 1 38 
2 2 64 60 
1 2 49 16 
1 2 35 5 
2 2 48 47 
0 1 31 
2 2 46 46 
0 1 59 
0 1 40 
0 1 74 
3 4 37 35 11 5 
2 2 36 32 
2 2 61 60 
2 2 38 33 
1 3 43 8 15 
1 2 37 20 
0 1 22 
3 3 36 32 8 
3 4 49 44 23 12 
2 2 37 29 
1 2 51 21 
3 3 55 49 16 
3 3 55 53 24 
0 1 61 
2 2 42 39 
2 2 30 30 
0 1 76 
3 3 34 31 10 
2 2 45 42 
2 2 37 37 
2 2 40 35 
0 1 45 
0 1 44 
0 1 34 
0 1 72 
0 1 44 
0 1 74 
3 3 45 43 18 
2 2 38 31 
0 1 62 
0 1 52 
2 2 21 19 
1 2 55 19 
2 2 23 22 
0 1 55 
1 4 43 13 19 7 
2 2 71 72 
2 2 55 53 
0 1 34 
0 1 47 
0 1 61 
3 3 42 39 17 
0 1 56 
0 1 41 
0 1 40 
0 1 56 
0 1 58 
3 3 50 49 13 
0 1 27 
0 1 43 
0 1 55 
0 1 67 
0 1 28 
2 2 45 44 
0 1 66 
0 1 58 
0 1 54 
0 1 73 
0 1 52 
3 3 58 52 23 
0 1 48 
0 1 86 
2 2 65 61 
2 2 24 23 
0 1 62 
3 3 47 36 11 
2 2 31 32 
3 3 47 38 15 
0 1 74 
2 2 36 37 
2 2 61 57 
1 4 38 10 6 8 
0 1 60 
3 3 31 24 1 
1 2 34 4 
0 1 30 
0 1 72 
1 2 36 12 
3 3 66 59 35 
0 1 56 
2 2 47 44 
3 3 52 45 18 
0 1 67 
0 1 61 
0 1 56 
0 1 74 
0 1 72 
2 2 42 38 
0 1 79 
2 2 44 38 
1 2 44 9 
0 1 36 
0 1 38 
2 2 58 60 
0 1 74 
0 1 63 
1 2 38 8 
0 1 27 
2 2 29 31 
0 1 33 
0 1 71 
1 2 47 10 
0 1 71 
0 1 61 
0 1 62 
0 1 74 
0 1 45 
2 2 41 36 
3 4 49 48 12 16 
1 2 30 10 
0 1 58 
0 1 39 
0 1 47 
2 2 39 39 
2 2 49 47 
3 4 44 39 7 9 
0 1 82 
0 1 79 
0 1 53 
0 1 48 
2 2 45 45 
0 1 60 
2 2 28 26 
0 1 49 
0 1 73 
2 2 36 33 
0 1 68 
0 1 35 
2 2 38 34 
2 2 35 34 
0 1 54 
0 1 62 
1 2 45 14 
0 1 22 
0 1 62 
0 1 48 
0 1 71 
1 2 41 12 
2 2 57 53 
0 1 43 
1 2 48 20 
0 1 53 
0 1 20 
0 1 46 
2 2 63 59 
0 1 43 
0 1 38 
0 1 46 
0 1 57 
0 1 36 
0 1 55 
0 1 36 
0 1 34 
2 2 63 59 
1 2 25 5 
2 2 42 39 
0 1 77 
2 2 55 52 
2 2 64 60 
2 2 62 62 
1 3 49 16 13 
0 1 41 
0 1 33 
0 1 56 
0 1 50 
0 1 64 
0 1 38 
0 1 71 
0 1 27 
0 1 79 
0 1 79 
0 1 49 
0 1 59 
1 2 46 15 
0 1 55 
0 1 43 
1 2 40 13 
0 1 76 
2 2 72 71 
0 1 32 
0 1 89 
0 1 49 
2 2 28 25 
0 1 73 
0 1 26 
0 1 62 
0 1 63 
0 1 66 
2 2 68 66 
0 1 61 
0 1 54 
0 1 41 
2 2 33 32 
0 1 25 
0 1 27 
0 1 82 
0 1 79 
0 1 88 
0 1 60 
2 2 78 75 
0 1 22 
0 1 58 
0 1 33 
0 1 29 
0 1 64 
0 1 60 
0 1 68 
0 1 61 
0 1 57 
0 1 29 
0 1 77 
0 1 35 
0 1 59 
0 1 56 
1 3 46 21 11 
0 1 83 
0 1 40 
0 1 33 
2 2 66 64 
0 1 80 
0 1 64 
0 1 82 
0 1 56 
0 1 76 
0 1 53 
1 2 57 25 
2 2 60 51 
0 1 77 
0 1 70 
2 2 35 33 
0 1 57 
1 2 35 0 
2 2 58 58 
2 2 40 41 
0 1 75 
1 3 51 22 19 
0 1 40 
0 1 76 
2 2 52 43 
3 3 50 41 16 
0 1 89 
0 1 75 
1 4 40 17 3 13 
1 3 43 21 9 
0 1 61 
2 2 54 51 
0 1 46 
2 2 26 29 
0 1 75 
0 1 71 
0 1 71 
0 1 33 
0 1 73 
0 1 79 
0 1 53 
2 2 53 46 
0 1 20 
2 2 63 63 
2 2 64 64 
0 1 50 
2 2 63 61 
0 1 50 
0 1 54 
1 2 61 28 
0 1 61 
2 2 26 27 
0 1 29 
2 2 56 52 
3 3 57 54 19 
2 2 35 33 
0 1 70 
2 2 53 50 
1 2 29 5 
0 1 89 
0 1 54 
0 1 54 
0 1 32 
0 1 29 
0 1 29 
0 1 26 
0 1 32 
0 1 32 
0 1 80 
0 1 70 
0 1 28 
1 2 53 26 
0 1 46 
0 1 66 
0 1 63 
0 1 32 
0 1 63 
0 1 64 
0 1 87 
0 1 53 
2 2 26 28 
2 2 21 19 
2 2 89 84 
0 1 85 
2 2 33 35 
0 1 21 
0 1 54 
0 1 79 
0 1 64 
1 2 28 0 
0 1 85 
0 1 81 
2 2 57 54 
2 2 27 26 
1 2 43 12 
0 1 57 
0 1 52 
0 1 57 
0 1 86 
0 1 63 
0 1 27 
0 1 85 
0 1 21 
0 1 29 
0 1 54 
0 1 54 
2 2 35 28 
2 2 25 24 
0 1 35 
3 3 54 54 19 
0 1 54 
0 1 56 
0 1 33 
0 1 57 
0 1 28 
0 1 43 
0 1 52 
2 2 27 28 
0 1 28 
0 1 79 
0 1 70 
0 1 25 
1 3 43 13 11 
2 2 64 64 
0 1 57 
0 1 52 
0 1 88 
1 2 57 24 
0 1 28 
2 2 57 54 
2 2 56 56 
0 1 64 
0 1 25 
0 1 64 
2 2 54 52 
0 1 85 
0 1 83 
0 1 56 
1 2 43 13 
0 1 27 
0 1 25 
0 1 87 
2 2 29 29 
0 1 86 
2 2 85 87 
0 1 28 
2 2 52 52 
2 2 21 19 
0 1 75 
1 2 25 3 
0 1 28 
0 1 20 
0 1 54 
0 1 64 
2 2 25 25 
0 1 88 
0 1 29 
0 1 64 
0 1 64 
0 1 82 
0 1 20 
0 1 84 
0 1 28 
0 1 29 
0 1 54 
0 1 24 
0 1 54 
0 1 86 
0 1 29 
2 2 28 25 
0 1 52 
0 1 24 
0 1 84 
2 2 82 81 
2 2 25 24 
0 1 52 
0 1 21 
0 1 81 
0 1 86 
2 2 28 25 
0 1 75 
0 1 28 
0 1 84 
0 1 18 
0 1 25 
0 1 88 
0 1 89 
0 1 84 
0 1 81 
0 1 25 
0 1 25 
0 1 17 
0 1 25 
0 1 89 
2 2 88 91 
0 1 83 
0 1 80 
0 1 81 
0 1 80 
2 2 88 90 
0 1 17 
0 1 18 
0 1 88 
0 1 18 
0 1 19 
0 1 19 
0 1 19 
0 1 19 
0 1 19 
4 6 91 90 15 14 12 4 
4 4 91 16 11 7 
4 3 91 7 4 
4 6 16 16 16 15 7 5 
4 6 16 10 10 9 6 4 
4 1 4 
4 2 91 6 
4 4 92 90 12 12 
4 3 92 14 12 
4 3 16 11 6 
4 2 14 3 
4 2 9 6 
4 1 14 
4 6 91 16 16 12 10 2 
4 4 90 15 15 0 
4 3 16 16 15 
4 6 94 92 15 13 7 2 
4 2 16 13 
4 6 93 92 16 12 10 3 
4 2 92 0 
4 4 13 13 11 2 
4 6 94 93 14 12 11 3 
4 1 16 
4 4 90 90 13 12 
4 5 91 15 12 9 2 
4 6 16 15 14 11 3 0 
4 3 90 11 4 
4 1 16 
