2 2 43 42 
3 4 53 43 22 18 
2 2 39 34 
2 2 49 46 
0 1 60 
2 2 47 44 
2 2 52 49 
0 1 43 
2 2 31 27 
0 1 41 
0 1 52 
2 2 54 44 
0 1 56 
1 2 37 16 
3 3 42 43 10 
2 2 60 58 
0 1 57 
0 1 33 
2 2 56 55 
0 1 32 
0 1 28 
2 2 51 41 
2 2 49 57 
0 1 69 
0 1 54 
0 1 70 
0 1 63 
2 2 43 39 
0 1 30 
0 1 31 
0 1 55 
2 2 64 59 
2 2 31 29 
0 1 63 
0 1 45 
0 1 36 
2 2 39 35 
0 1 42 
2 2 33 35 
2 2 47 41 
0 1 78 
0 1 39 
0 1 63 
2 2 66 62 
0 1 77 
0 1 78 
2 2 24 20 
0 1 63 
0 1 38 
0 1 35 
0 1 32 
0 1 65 
0 1 26 
3 3 30 32 2 
0 1 65 
0 1 73 
1 2 39 10 
0 1 75 
0 1 31 
2 2 48 47 
0 1 66 
0 1 64 
0 1 74 
0 1 35 
1 2 45 14 
2 2 36 40 
0 1 75 
1 2 53 27 
1 2 37 20 
0 1 22 
3 3 36 32 8 
0 1 38 
0 1 77 
0 1 56 
0 1 54 
0 1 30 
0 1 74 
2 2 40 39 
0 1 30 
2 2 58 58 
0 1 26 
0 1 73 
0 1 48 
0 1 45 
0 1 57 
0 1 62 
0 1 58 
0 1 59 
0 1 35 
0 1 75 
0 1 49 
0 1 34 
0 1 21 
0 1 65 
0 1 70 
1 3 51 21 18 
0 1 45 
1 2 34 16 
0 1 86 
0 1 86 
2 2 24 23 
1 2 38 12 
0 1 65 
0 1 23 
2 2 38 37 
0 1 33 
2 2 37 29 
3 3 41 39 11 
0 1 62 
0 1 41 
0 1 26 
0 1 29 
2 2 33 27 
0 1 56 
0 1 27 
0 1 48 
0 1 71 
0 1 62 
0 1 71 
0 1 34 
0 1 26 
0 1 56 
0 1 36 
2 2 29 29 
0 1 73 
0 1 38 
0 1 23 
3 3 38 37 19 
0 1 79 
1 2 45 14 
0 1 40 
1 2 48 20 
0 1 53 
0 1 20 
1 2 36 4 
0 1 45 
2 2 41 41 
0 1 36 
0 1 39 
0 1 39 
0 1 79 
1 2 40 13 
0 1 29 
0 1 57 
0 1 25 
0 1 33 
0 1 57 
0 1 87 
1 2 36 7 
0 1 25 
0 1 28 
1 3 39 4 8 
0 1 22 
0 1 82 
0 1 41 
2 2 36 36 
0 1 24 
0 1 40 
0 1 78 
0 1 26 
0 1 88 
0 1 41 
0 1 22 
0 1 86 
0 1 28 
0 1 28 
0 1 88 
1 2 28 9 
0 1 21 
0 1 78 
0 1 28 
0 1 22 
0 1 88 
0 1 26 
0 1 88 
0 1 26 
0 1 26 
0 1 19 
0 1 17 
0 1 19 
0 1 19 
0 1 19 
0 1 19 
0 1 17 
0 1 17 
0 1 17 
4 2 15 11 
4 4 92 16 10 9 
4 2 11 10 
4 3 13 13 12 
4 2 14 10 
4 2 93 12 
4 6 94 14 14 13 10 7 
4 6 92 15 15 15 14 10 
4 2 14 9 
4 4 15 15 15 10 
4 4 13 13 12 11 
4 2 15 13 
4 5 92 91 10 10 3 
4 2 16 4 
