0 1 34 
3 3 55 53 21 
0 1 63 
0 1 74 
0 1 32 
3 4 53 43 22 18 
2 2 39 34 
2 2 49 46 
0 1 60 
2 2 47 44 
2 2 52 49 
0 1 43 
2 2 31 27 
0 1 41 
0 1 52 
2 2 54 44 
0 1 56 
1 2 37 16 
3 3 42 43 10 
2 2 60 58 
3 4 40 39 10 5 
0 1 57 
0 1 33 
2 2 43 45 
2 2 59 57 
2 2 49 40 
0 1 36 
0 1 32 
0 1 28 
2 2 51 41 
2 2 49 57 
0 1 69 
0 1 54 
0 1 70 
0 1 63 
2 2 43 39 
0 1 30 
0 1 31 
0 1 55 
2 2 64 59 
2 2 31 29 
1 3 41 6 15 
0 1 38 
2 2 31 27 
2 2 42 41 
1 2 35 9 
2 2 32 26 
1 2 30 6 
2 2 61 53 
2 2 34 33 
0 1 62 
0 1 73 
0 1 36 
0 1 36 
0 1 74 
3 4 39 33 10 3 
1 3 26 2 5 
2 2 50 48 
0 1 89 
0 1 46 
2 2 35 30 
0 1 36 
0 1 65 
0 1 19 
2 2 32 26 
0 1 75 
2 2 48 47 
0 1 59 
0 1 40 
0 1 35 
1 2 45 14 
0 1 75 
0 1 63 
2 2 57 51 
3 3 48 42 13 
0 1 41 
2 2 24 24 
0 1 54 
0 1 63 
0 1 66 
0 1 64 
0 1 78 
0 1 39 
1 2 35 7 
0 1 47 
0 1 73 
0 1 48 
0 1 45 
0 1 57 
3 3 38 39 6 
0 1 46 
2 2 87 88 
0 1 70 
1 2 33 8 
3 3 56 45 10 
0 1 45 
0 1 59 
0 1 34 
0 1 25 
0 1 56 
0 1 41 
2 2 48 41 
0 1 62 
0 1 58 
0 1 58 
0 1 29 
0 1 61 
0 1 28 
0 1 66 
0 1 58 
0 1 73 
0 1 86 
2 2 24 23 
1 2 38 12 
0 1 65 
0 1 29 
1 2 37 12 
2 2 27 27 
0 1 33 
0 1 60 
0 1 78 
0 1 71 
1 3 56 36 16 
0 1 56 
0 1 65 
0 1 25 
1 2 45 18 
0 1 38 
0 1 23 
0 1 71 
1 2 48 12 
0 1 26 
2 2 29 29 
0 1 38 
0 1 65 
0 1 60 
2 2 28 26 
2 2 37 37 
2 2 21 18 
0 1 35 
2 2 78 79 
1 2 36 4 
1 2 36 4 
0 1 88 
2 2 20 20 
0 1 58 
0 1 28 
2 2 82 79 
0 1 37 
0 1 77 
0 1 78 
0 1 39 
0 1 62 
1 3 39 14 15 
0 1 26 
2 2 29 22 
0 1 36 
0 1 65 
0 1 17 
2 2 77 75 
0 1 62 
2 2 20 17 
0 1 23 
0 1 22 
0 1 86 
0 1 24 
0 1 22 
2 2 21 19 
0 1 22 
0 1 19 
0 1 22 
0 1 88 
0 1 20 
0 1 86 
0 1 88 
0 1 22 
0 1 17 
0 1 19 
0 1 19 
0 1 19 
4 2 15 13 
4 6 15 14 11 6 3 3 
4 1 15 
4 1 94 
4 5 93 14 10 4 0 
4 4 16 13 11 3 
4 6 92 92 91 15 13 4 
4 3 15 11 0 
4 4 92 13 6 1 
4 2 16 11 
