0 1 50 
2 2 43 42 
3 4 53 43 22 18 
2 2 39 34 
2 2 49 46 
0 1 60 
2 2 47 44 
2 2 52 49 
0 1 43 
2 2 31 27 
0 1 41 
0 1 52 
0 1 56 
1 2 37 16 
3 3 42 43 10 
2 2 60 58 
3 4 40 39 10 5 
0 1 57 
2 2 84 77 
2 2 53 51 
0 1 73 
0 1 36 
0 1 32 
0 1 28 
2 2 51 41 
2 2 49 57 
0 1 69 
0 1 54 
0 1 70 
0 1 63 
2 2 38 32 
0 1 30 
0 1 31 
0 1 55 
2 2 64 59 
2 2 31 29 
1 3 41 6 15 
0 1 38 
2 2 31 27 
2 2 42 41 
1 2 38 12 
0 1 62 
2 2 61 53 
2 2 34 33 
0 1 62 
0 1 73 
0 1 65 
0 1 32 
0 1 45 
0 1 79 
2 2 38 37 
0 1 61 
2 2 65 59 
3 3 30 32 2 
0 1 65 
0 1 73 
1 2 39 10 
2 2 46 49 
2 2 65 59 
2 2 30 27 
0 1 59 
0 1 40 
0 1 74 
2 2 57 55 
0 1 35 
1 2 45 14 
2 2 36 40 
0 1 75 
0 1 63 
0 1 70 
0 1 41 
2 2 24 24 
0 1 54 
0 1 33 
2 2 57 54 
2 2 46 47 
0 1 65 
2 2 48 45 
2 2 58 58 
0 1 26 
0 1 47 
0 1 48 
0 1 45 
0 1 57 
0 1 65 
3 3 39 37 14 
0 1 62 
0 1 58 
0 1 35 
0 1 58 
3 3 34 35 6 
0 1 37 
0 1 56 
2 2 48 41 
0 1 62 
0 1 29 
1 2 38 8 
0 1 86 
2 2 77 78 
0 1 35 
0 1 33 
0 1 25 
1 2 27 3 
2 2 28 24 
0 1 48 
0 1 85 
0 1 41 
0 1 26 
0 1 29 
0 1 56 
0 1 25 
0 1 74 
0 1 36 
0 1 63 
0 1 71 
0 1 71 
0 1 63 
1 2 36 4 
0 1 26 
0 1 56 
0 1 75 
0 1 36 
2 2 29 29 
2 2 39 39 
0 1 66 
0 1 82 
0 1 79 
0 1 48 
0 1 60 
2 2 28 26 
2 2 60 63 
0 1 21 
2 2 21 18 
2 2 23 22 
0 1 22 
1 3 48 22 19 
0 1 37 
0 1 88 
2 2 20 19 
0 1 39 
0 1 29 
0 1 56 
0 1 33 
0 1 48 
0 1 87 
0 1 87 
3 4 33 23 1 0 
0 1 66 
0 1 39 
0 1 78 
0 1 75 
1 2 36 12 
1 4 36 10 5 3 
0 1 22 
0 1 78 
2 2 26 23 
2 2 20 18 
0 1 22 
2 2 21 19 
0 1 88 
0 1 86 
0 1 86 
0 1 20 
0 1 19 
2 2 17 17 
0 1 78 
2 2 89 88 
0 1 20 
0 1 88 
0 1 20 
0 1 21 
0 1 19 
2 2 20 17 
0 1 88 
0 1 19 
0 1 17 
4 4 13 13 10 9 
4 4 5 4 4 3 
4 6 16 15 14 14 4 0 
4 3 16 15 11 
4 4 92 91 4 3 
4 5 92 16 15 11 11 
4 3 15 11 6 
4 6 94 93 15 14 13 0 
4 6 92 15 14 13 13 10 
4 2 93 2 
