2 2 52 48 
3 3 54 50 24 
0 1 45 
0 1 31 
0 1 56 
0 1 52 
0 1 68 
0 1 63 
0 1 42 
2 2 37 38 
2 2 38 38 
0 1 62 
3 3 51 44 14 
0 1 38 
3 3 52 51 22 
2 2 62 58 
0 1 33 
0 1 58 
0 1 57 
0 1 41 
0 1 52 
0 1 56 
1 2 37 16 
3 3 42 43 10 
2 2 60 58 
3 4 40 39 10 5 
0 1 57 
2 2 84 77 
1 2 38 7 
2 2 56 55 
3 3 41 39 14 
2 2 72 70 
0 1 28 
0 1 25 
0 1 59 
0 1 69 
0 1 54 
0 1 70 
0 1 63 
0 1 69 
2 2 43 39 
0 1 33 
0 1 66 
0 1 45 
2 2 40 37 
2 2 64 59 
2 2 31 29 
1 3 41 6 15 
2 2 75 69 
2 2 31 27 
2 2 42 41 
1 2 24 2 
0 1 43 
0 1 37 
0 1 78 
2 2 24 20 
0 1 63 
0 1 35 
3 4 40 42 18 14 
0 1 45 
0 1 79 
2 2 69 63 
0 1 47 
2 2 65 59 
0 1 46 
0 1 33 
2 2 37 35 
0 1 40 
2 2 36 35 
0 1 64 
0 1 74 
0 1 59 
2 2 48 47 
0 1 31 
0 1 40 
2 2 57 55 
0 1 35 
1 2 45 14 
0 1 75 
0 1 63 
0 1 41 
0 1 28 
0 1 41 
0 1 54 
0 1 33 
3 3 55 53 24 
2 2 46 47 
0 1 65 
0 1 57 
3 3 37 32 5 
0 1 58 
0 1 45 
0 1 34 
1 2 45 5 
2 2 26 27 
0 1 26 
0 1 32 
0 1 34 
2 2 65 60 
2 2 21 19 
1 2 55 19 
2 2 23 22 
0 1 55 
2 2 47 46 
0 1 32 
0 1 58 
1 3 48 21 19 
2 2 45 41 
0 1 45 
0 1 41 
0 1 29 
0 1 29 
0 1 64 
2 2 71 73 
1 2 33 11 
0 1 75 
0 1 53 
3 3 41 39 11 
0 1 62 
0 1 48 
0 1 65 
2 2 73 71 
0 1 43 
0 1 29 
0 1 36 
0 1 30 
0 1 26 
0 1 56 
0 1 75 
0 1 36 
1 2 30 10 
0 1 58 
0 1 39 
0 1 27 
2 2 28 26 
0 1 23 
0 1 30 
0 1 56 
0 1 85 
1 3 48 22 19 
0 1 37 
0 1 88 
2 2 29 25 
0 1 36 
2 2 20 20 
0 1 39 
0 1 83 
1 2 22 2 
0 1 49 
0 1 43 
3 3 30 28 8 
0 1 58 
0 1 49 
0 1 73 
0 1 89 
0 1 64 
0 1 48 
0 1 73 
0 1 56 
3 3 39 39 11 
1 3 53 19 16 
0 1 87 
3 4 29 28 6 8 
0 1 26 
2 2 73 73 
0 1 83 
0 1 80 
0 1 64 
0 1 82 
0 1 56 
0 1 56 
0 1 49 
2 2 36 36 
0 1 49 
0 1 48 
0 1 36 
1 2 49 14 
0 1 20 
0 1 21 
0 1 27 
2 2 26 27 
0 1 89 
0 1 20 
0 1 82 
0 1 88 
0 1 20 
0 1 82 
0 1 81 
0 1 78 
2 2 17 17 
0 1 85 
0 1 78 
0 1 78 
0 1 87 
0 1 23 
0 1 23 
0 1 88 
0 1 23 
0 1 23 
0 1 18 
0 1 18 
0 1 89 
0 1 81 
0 1 17 
0 1 18 
4 4 91 15 4 3 
4 2 93 0 
4 3 15 4 4 
4 5 90 13 10 10 3 
4 4 15 14 10 1 
4 2 93 12 
4 5 91 15 9 8 7 
4 1 3 
4 2 92 4 
4 1 7 
4 4 91 13 10 0 
4 2 13 9 
4 3 16 12 4 
4 1 16 
4 4 91 15 13 3 
4 3 15 13 4 
4 1 0 
4 2 90 12 
