3 3 32 29 0 
1 2 49 20 
2 2 59 53 
0 1 59 
2 2 62 58 
0 1 67 
0 1 57 
0 1 41 
0 1 52 
2 2 54 44 
0 1 56 
2 2 44 40 
2 2 45 46 
0 1 29 
2 2 51 50 
0 1 39 
1 2 38 7 
0 1 67 
2 2 53 51 
2 2 44 45 
3 3 32 31 1 
1 2 35 8 
0 1 44 
0 1 64 
2 2 72 70 
0 1 28 
2 2 51 41 
0 1 54 
0 1 68 
2 2 37 39 
0 1 61 
2 2 43 42 
0 1 45 
2 2 40 37 
0 1 70 
2 2 64 59 
2 2 31 29 
1 3 41 6 15 
0 1 38 
2 2 31 27 
2 2 42 41 
2 2 55 51 
1 2 38 12 
0 1 62 
2 2 61 53 
2 2 34 33 
0 1 72 
0 1 62 
0 1 73 
2 2 55 52 
0 1 65 
0 1 89 
3 3 43 43 15 
1 3 26 2 5 
2 2 50 48 
2 2 60 60 
2 2 30 27 
0 1 46 
2 2 35 30 
0 1 36 
2 2 55 55 
1 3 37 9 11 
0 1 19 
0 1 75 
3 3 49 45 12 
0 1 41 
0 1 59 
2 2 46 49 
3 3 50 50 22 
0 1 53 
0 1 27 
0 1 44 
1 3 36 6 2 
2 2 29 26 
0 1 37 
0 1 86 
0 1 73 
0 1 65 
0 1 88 
0 1 71 
0 1 78 
0 1 37 
0 1 53 
1 2 36 4 
0 1 78 
0 1 53 
1 3 32 12 8 
2 2 52 55 
0 1 42 
2 2 36 34 
2 2 40 39 
0 1 68 
0 1 76 
0 1 30 
2 2 58 58 
2 2 43 38 
2 2 37 36 
0 1 74 
3 3 45 43 18 
2 2 40 19 
0 1 60 
0 1 76 
3 3 38 39 6 
0 1 54 
2 2 36 32 
3 3 42 40 20 
0 1 58 
2 2 84 84 
2 2 63 65 
0 1 52 
0 1 58 
0 1 32 
1 3 50 23 13 
0 1 40 
0 1 29 
0 1 61 
1 2 38 8 
0 1 86 
1 2 43 10 
3 3 28 29 5 
0 1 64 
0 1 42 
0 1 33 
0 1 60 
1 2 33 11 
0 1 75 
2 2 25 23 
0 1 48 
0 1 47 
0 1 63 
0 1 61 
0 1 43 
0 1 49 
1 2 49 24 
0 1 27 
2 2 63 60 
0 1 27 
0 1 23 
0 1 33 
1 2 47 10 
0 1 61 
0 1 86 
0 1 33 
0 1 42 
0 1 63 
0 1 55 
0 1 26 
0 1 36 
2 2 29 29 
0 1 61 
0 1 55 
0 1 38 
1 2 34 10 
0 1 55 
0 1 34 
2 2 28 26 
0 1 49 
2 2 36 33 
2 2 37 37 
2 2 21 18 
0 1 35 
1 2 38 4 
1 2 37 7 
0 1 63 
1 3 68 42 29 
0 1 20 
2 2 49 48 
0 1 38 
0 1 36 
0 1 55 
0 1 36 
0 1 34 
1 2 25 5 
0 1 35 
0 1 76 
0 1 28 
0 1 87 
0 1 84 
0 1 83 
0 1 38 
2 2 36 38 
2 2 21 23 
2 2 28 25 
0 1 48 
1 2 36 9 
0 1 49 
2 2 48 49 
0 1 63 
0 1 39 
0 1 25 
3 3 39 39 11 
0 1 88 
0 1 35 
0 1 25 
0 1 68 
0 1 22 
0 1 39 
0 1 80 
0 1 82 
2 2 61 63 
0 1 28 
0 1 28 
0 1 25 
2 2 20 17 
0 1 28 
0 1 23 
0 1 22 
0 1 61 
2 2 25 25 
0 1 25 
0 1 26 
0 1 89 
0 1 48 
2 2 20 19 
0 1 22 
2 2 21 19 
0 1 88 
0 1 77 
1 3 49 23 19 
0 1 28 
0 1 25 
0 1 85 
0 1 21 
0 1 85 
0 1 87 
0 1 77 
0 1 48 
0 1 48 
1 2 28 9 
0 1 87 
0 1 21 
0 1 21 
0 1 28 
0 1 89 
0 1 22 
0 1 22 
0 1 48 
0 1 21 
0 1 20 
0 1 81 
0 1 85 
0 1 23 
0 1 87 
0 1 26 
0 1 20 
1 2 26 3 
0 1 89 
0 1 26 
0 1 77 
0 1 85 
0 1 19 
2 2 19 19 
0 1 81 
0 1 17 
0 1 85 
0 1 18 
0 1 17 
0 1 18 
0 1 18 
0 1 18 
0 1 18 
0 1 17 
0 1 18 
0 1 17 
4 2 16 9 
4 1 15 
4 4 93 14 6 4 
4 4 93 92 15 11 
4 4 91 16 9 0 
4 2 16 12 
4 2 15 11 
4 6 16 16 13 12 12 10 
4 3 16 12 3 
4 6 91 15 15 15 15 10 
4 4 15 13 12 7 
4 2 9 7 
4 5 91 13 11 10 3 
4 2 16 6 
4 5 16 7 4 3 0 
4 2 10 4 
4 6 94 16 15 14 7 4 
4 1 16 
4 2 12 10 
4 1 15 
4 1 14 
4 1 10 
