3
4
3
4
2 4
4
3
1 15090225 5 3
2 6
3
1 15090445 5 3
3
4
1 12 2 6
4
4
2 6
1 15081135 3 0
1 15081135 3 7
2 0
2 1
1 3 1 1
0
1 15090445 4 5
0
1 15090535 4 1
4
1 15090225 4 6
2 2
1 15090225 5 1
1 15090445 2 1
3
1 15090535 2 6
1 15090535 1 7
0
0
1 15090445 0 6
4
1 15090445 5 5
1 15303 2 6
2 6
2 6
0
0
1 15090535 4 3
1 15090445 5 7
1 15090225 4 4
1 15090225 5 4
1 15090535 5 6
0
1 15090445 5 1
1 15090225 5 1
2 7
0
2 2
4
3
3
2 5
1 12 1 1
1 15090445 5 6
0
1 15090225 1 6
1 15090225 5 0
1 15090535 5 6
1 15090225 5 1
2 1
3
3
3
1 12 3 4
1 15090445 5 6
0
1 15090225 4 6
1 15090225 4 3
1 15090225 5 6
1 15303 5 1
1 15090445 2 6
1 15090225 1 4
4
1 15090445 1 3
1 15081135 5 6
3
2 6
3
1 15090445 2 6
1 15303 5 1
0
1 15090225 4 4
2 6
4
2 4
1 15090225 4 3
0
2 4
0
1 12 5 3
1 15090445 3 6
4
1 15090445 4 6
0
0
0
1 15090225 4 6
1 15081135 2 4
1 15090535 4 3
1 15090225 1 0
4
1 15090445 4 6
1 15090225 3 4
0
2 1
1 15090225 2 6
1 15090445 2 6
2 5
1 15090225 5 2
2 3
1 15090445 1 3
0
0
1 15090445 5 1
2 1
3
1 15090445 5 6
1 15090445 3 1
2 6
3
2 7
1 15090445 2 6
3
1 15090225 4 6
2 2
1 15090225 2 6
2 4
1 15090445 4 6
3
4
4
1 15090445 5 4
1 15090225 5 6
4
4
1 15090225 4 3
1 15090225 3 4
1 15090225 3 7
1 15081135 5 6
4
1 15090445 3 6
1 15081135 1 6
1 15090225 4 0
0
0
0
4
1 15090225 4 6
1 15090535 5 1
0
1 15090225 4 6
0
1 15090445 4 6
2 3
2 3
1 15090445 0 7
1 15090225 4 1
1 15081135 2 6
0
3
4
1 15090535 5 0
2 6
1 15090445 0 2
2 6
1 15090225 4 0
1 12 2 4
1 15090225 5 7
3
4
1 15081135 4 4
4
4
3
1 15090225 0 4
0
1 15090225 0 7
1 15090535 5 6
2 6
1 15090225 4 6
1 15303 3 6
1 15090535 2 0
1 15090225 5 6
4
4
3
4
1 15090225 4 4
0
2 4
1 15090445 1 6
1 15090225 5 6
1 12 2 4
2 6
3
1 15090225 2 6
0
4
3
2 2
4
2 5
4
3
3
2 3
1 15090225 4 0
2 6
1 15090535 1 4
0
3
4
1 15090225 1 6
3
1 15090225 4 2
1 15090225 3 2
1 15090445 0 7
1 15090445 4 6
1 15090225 5 6
2 3
0
2 2
2 3
1 15090225 4 6
0
0
1 15090225 5 4
0
4
1 15090445 4 2
1 15090225 4 3
1 15090225 3 1
1 15090225 3 3
1 3 0 6
3
1 15090535 4 4
1 15090445 2 4
1 15303 3 1
2 5
2 6
2 3
1 15090225 4 1
1 15090445 4 4
1 15090225 0 4
1 15090225 1 6
4
1 15090225 5 6
1 15090445 2 3
1 15090445 3 6
1 15090535 2 6
4
1 15090225 3 6
0
1 15090535 5 3
4
2 6
1 15090445 4 6
2 6
0
2 3
0
0
0
1 15090225 4 6
1 15090445 2 2
1 3 3 6
1 15090445 0 4
2 3
1 3 4 4
1 15090225 1 1
2 6
4
4
4
4
2 3
1 15090225 3 1
1 15090225 5 4
1 15090445 5 4
1 15090225 2 6
2 5
1 15090445 4 6
2 2
1 15090225 5 1
1 15081135 4 6
1 15090445 5 0
1 15090445 2 6
1 15090225 4 5
3
3
2 6
0
2 2
2 4
3
1 15090445 0 6
1 15090445 1 6
2 2
4
4
1 15090445 1 1
1 15090225 3 4
1 15090445 5 6
2 3
1 15090535 4 7
0
3
4
4
4
4
1 15090225 4 5
1 15303 5 6
1 15090225 1 4
2 4
2 6
1 15090225 4 6
2 5
1 15090445 1 6
2 4
1 15090445 5 4
1 15090225 6 7
0
4
1 15081135 5 6
1 3 3 6
2 4
2 7
0
1 15081135 3 7
1 15081135 5 6
3
4
2 0
2 3
1 15090225 4 4
1 15090225 1 3
1 15090225 5 6
0
1 15090225 0 6
1 15090225 6 0
1 15081135 4 0
4
4
2 6
4
3
2 2
2 1
2 4
3
4
1 15090225 4 4
2 4
2 5
1 12 4 6
0
1 15090445 3 4
0
4
2 3
1 15081135 3 4
1 15090445 3 6
2 6
2 6
0
2 6
4
1 15081135 0 4
1 15090445 4 0
2 1
2 2
1 15090225 4 0
2 5
0
1 15081135 2 2
1 15090445 3 6
1 15090535 5 7
4
1 15090445 4 1
4
1 15090225 5 6
2 4
1 15303 1 6
1 15090225 0 6
4
3
1 15090225 4 1
1 15090445 2 4
0
3
4
4
1 15090445 2 6
1 15090225 4 6
1 12 6 5
2 1
1 15090535 4 7
1 15090225 4 4
1 15090225 2 2
2 6
4
1 15090445 4 7
2 3
2 6
3
1 15090225 5 1
1 12 4 6
0
3
2 6
1 3 5 6
3
1 15090445 4 6
4
1 15090225 2 6
1 15090225 6 4
0
0
1 15090225 5 4
1 15090225 2 1
1 3 5 3
1 15090445 2 6
2 6
0
4
2 3
2 3
1 15090535 5 6
4
1 15090445 3 6
3
1 15090445 4 3
1 15090445 4 6
0
2 1
3
3
2 3
2 3
2 0
0
3
4
3
2 7
1 15090225 4 4
1 15090535 3 6
0
3
3
1 15090225 4 3
2 1
1 12 5 6
0
3
1 15090225 4 4
0
1 15081135 2 4
1 15090535 3 6
3
1 3 3 1
1 15090225 5 4
1 15090445 5 7
1 12 4 6
3
2 0
0
1 15090445 5 3
1 15090445 4 4
3
1 15090535 4 1
1 15090225 1 6
1 12 4 4
3
1 15081135 1 3
1 3 5 4
4
0
1 15090225 3 5
0
1 15090445 5 1
1 15090225 4 5
1 3 5 0
1 15090225 5 3
1 15303 4 3
2 6
2 1
1 15090445 5 6
1 15090535 2 4
1 15090225 0 7
1 15090445 0 5
1 15081135 1 1
1 15090445 4 6
3
4
2 1
1 15090225 6 6
3
1 15090535 1 4
2 6
1 15081135 2 6
1 15090225 5 6
2 7
1 15090445 1 6
1 15090535 4 4
2 1
0
0
0
1 15081135 4 6
1 15090225 1 3
0
1 15090225 2 6
2 7
3
4
1 15090225 5 3
2 6
2 4
4
1 15081135 5 6
1 15090535 5 2
4
2 2
1 15090225 2 6
1 15081135 1 3
2 6
0
0
3
3
3
3
4
4
1 15090445 3 2
0
2 6
1 15090225 5 1
1 15090445 5 4
2 1
1 15090225 5 6
2 4
2 3
1 15090445 2 4
0
3
3
1 15090225 4 6
1 12 5 4
4
3
4
1 15090225 4 4
1 15090445 4 6
3
1 15081135 5 3
2 6
3
3
2 6
1 15090445 5 6
1 15090445 5 1
1 15090445 3 2
1 15090445 2 5
1 15090535 4 1
2 4
4
2 4
1 15090445 1 3
1 15090445 4 4
1 15090445 2 6
0
3
1 15090445 1 6
1 15090225 1 4
1 15090445 2 6
1 15090445 4 4
0
3
1 15090225 4 1
1 15090535 4 4
1 15090225 5 5
0
4
4
3
4
1 15090225 2 4
1 15090225 0 0
1 15081135 2 0
2 5
0
2 3
4
1 15090535 2 6
1 12 5 4
1 15090445 4 6
4
2 1
3
4
1 15081135 3 4
1 15303 2 6
1 12 5 3
1 15090225 4 6
1 15090445 5 3
0
2 6
1 15090225 2 6
1 15090445 2 1
1 15081135 5 1
3
3
1 15090535 2 6
1 15090535 4 3
0
1 15303 0 3
1 15090445 3 4
2 6
0
1 3 5 5
4
1 15090445 5 7
1 15090535 5 0
1 15090225 3 4
1 15090225 4 4
4
3
2 6
1 15090225 4 4
1 15090225 4 6
1 15090225 4 6
3
1 15090445 4 4
4
4
1 15090225 5 6
3
3
1 15090225 0 6
1 15090535 5 1
3
3
4
4
1 15090225 1 6
4
1 15090445 2 6
1 15090225 1 7
1 15090445 5 6
1 15303 4 4
2 6
1 15090445 5 6
1 15090535 2 6
1 15090225 3 1
2 4
3
4
1 15090225 1 4
1 15090225 0 6
2 6
0
1 15090535 4 6
2 4
4
2 6
3
2 3
1 15081135 5 0
2 3
3
1 15081135 4 6
1 15090225 4 6
2 4
2 1
4
1 15090445 2 4
0
0
0
1 3 4 6
1 3 4 4
2 4
0
4
3
3
1 15090445 0 3
1 15090225 4 3
4
4
2 6
1 15090445 2 5
1 15081135 2 3
1 15090445 4 4
3
3
1 15090535 5 6
1 15090535 5 2
2 1
1 15090535 2 1
3
1 15090445 4 4
1 15090445 2 4
0
0
1 15090225 5 3
1 15090225 4 1
3
1 15081135 0 4
3
2 6
1 15090535 5 6
3
1 15090445 4 1
2 6
0
1 15090225 5 5
1 15090535 3 3
1 15090445 3 4
2 4
1 15090225 5 7
1 15090445 5 6
0
3
1 15303 4 4
1 15090445 5 6
1 15090225 0 7
2 6
1 15081135 3 6
1 15081135 0 7
1 15090225 2 4
3
1 15090445 4 6
4
4
1 15090535 4 3
1 15090225 4 3
1 15090225 2 3
1 15090225 4 3
2 7
1 12 2 6
3
2 4
1 12 0 4
0
1 15090445 4 3
0
1 15090225 2 1
1 15090225 3 6
1 15090225 0 6
2 6
1 15081135 3 6
1 15090445 5 7
2 0
3
1 15303 5 6
0
1 3 4 3
1 15090445 2 6
3
2 2
2 4
3
3
1 15081135 5 1
2 3
1 15090445 2 2
2 4
1 15090225 1 3
1 15090445 5 3
0
2 2
4
1 15090535 2 2
1 15090445 3 3
3
3
1 15090225 4 3
2 6
1 15090445 2 3
1 15090535 5 5
2 3
2 6
1 15090225 5 1
1 15090445 1 6
1 15090445 0 3
1 15090535 4 4
1 3 5 7
3
3
4
1 15090225 3 3
2 3
4
3
3
4
2 6
0
1 15090445 2 1
1 15303 5 0
2 3
0
1 3 3 3
0
3
1 15090445 2 0
4
1 12 4 7
3
3
3
3
2 6
1 15090225 3 4
4
3
4
3
1 15303 2 4
3
3
3
1 12 2 6
1 15081135 2 6
1 15090445 2 4
0
1 15090225 4 6
3
2 4
0
0
1 15090445 4 3
1 15090445 2 4
0
1 15090445 3 1
3
3
3
1 15090445 4 2
1 15090445 5 1
2 6
1 15090535 4 4
1 15090535 4 6
2 1
1 15090445 5 4
1 15090445 3 6
4
1 15303 5 6
1 15090225 1 6
1 15090445 5 6
1 15090225 4 6
3
1 15090445 6 6
0
2 3
1 15090445 4 6
1 15081135 5 4
3
3
2 6
1 15303 5 6
2 6
1 12 4 3
1 3 3 4
0
3
1 15090535 2 6
3
3
1 15081135 3 4
2 3
2 4
3
3
2 6
1 15090225 5 5
0
1 15090445 4 6
1 15090225 5 4
1 15090445 4 6
1 15090225 2 3
0
3
3
3
1 15090225 3 4
1 15090445 2 4
3
3
1 15090535 1 6
3
3
2 6
3
3
3
3
3
1 3 4 7
1 15090445 4 6
3
1 15090225 2 4
1 15090445 3 4
1 15090225 5 6
0
0
1 15090225 0 6
1 12 4 4
1 15090535 4 1
0
3
3
3
3
3
3
1 12 5 4
1 12 4 5
1 15090445 0 4
3
3
1 15090445 4 6
0
0
0
3
2 6
0
0
0
0
0
0
0
0
0
0
0
0
0
0
0
3
3
0
0
3
3
1 15090445 4 3
0
0
0
0
0
0
0
0
0
3
0
0
0
0
0
0
0
1 15090535 5 4
0
0
0
0
0
0
0
3
3
1 15090225 4 6
0
0
0
0
0
0
0
0
0
0
3
0
0
0
0
3
0
0
0
0
0
0
0
0
0
3
0
0
0
0
3
2 6
0
0
1 15090445 1 6
0
0
0
0
0
0
1 15090445 2 6
0
0
0
0
0
3
1 15090535 6 4
0
0
0
3
0
0
0
3
0
0
0
0
0
0
0
3
0
0
0
3
0
0
0
1 15303 6 4
0
0
3
0
0
