2 2 43 42 
0 1 45 
2 2 40 37 
0 1 70 
2 2 64 59 
2 2 31 29 
1 3 41 6 15 
0 1 38 
0 1 47 
2 2 31 27 
2 2 42 41 
2 2 55 51 
1 2 38 12 
2 2 51 50 
3 3 37 37 10 
2 2 64 69 
2 2 30 28 
0 1 31 
2 2 30 31 
0 1 77 
0 1 78 
2 2 24 20 
0 1 63 
0 1 38 
0 1 35 
3 4 40 42 18 14 
0 1 45 
0 1 79 
0 1 50 
2 2 69 63 
0 1 47 
0 1 61 
2 2 65 59 
0 1 39 
0 1 38 
2 2 64 60 
1 2 49 16 
1 2 35 5 
2 2 35 24 
0 1 58 
2 2 65 61 
0 1 66 
0 1 64 
0 1 69 
2 2 47 43 
3 4 37 35 11 5 
2 2 36 32 
2 2 61 60 
2 2 38 33 
1 3 43 8 15 
1 2 37 20 
0 1 22 
3 3 36 32 8 
3 4 49 44 23 12 
2 2 54 61 
2 2 69 68 
0 1 58 
0 1 48 
1 2 40 15 
0 1 42 
2 2 36 34 
2 2 40 39 
0 1 68 
0 1 76 
0 1 69 
3 3 34 31 10 
2 2 45 42 
2 2 37 37 
2 2 40 35 
0 1 45 
0 1 44 
0 1 34 
2 2 52 50 
2 2 79 79 
0 1 48 
0 1 45 
2 2 72 70 
0 1 54 
0 1 74 
0 1 60 
1 3 40 8 11 
1 2 36 5 
3 4 32 29 4 3 
2 2 60 58 
1 4 43 13 19 7 
2 2 71 72 
2 2 55 53 
3 3 46 42 14 
0 1 36 
0 1 61 
2 2 46 47 
0 1 65 
0 1 70 
1 3 51 21 18 
0 1 58 
3 3 50 49 13 
0 1 27 
0 1 43 
0 1 55 
0 1 67 
0 1 28 
2 2 45 44 
0 1 66 
0 1 58 
0 1 54 
0 1 73 
0 1 52 
3 3 58 52 23 
0 1 48 
0 1 86 
2 2 65 61 
2 2 24 23 
0 1 62 
0 1 74 
0 1 55 
0 1 23 
2 2 31 32 
3 3 47 38 15 
0 1 74 
2 2 36 37 
2 2 61 57 
0 1 60 
3 3 31 24 1 
1 2 34 4 
0 1 30 
0 1 72 
2 2 55 56 
0 1 48 
0 1 30 
0 1 63 
0 1 41 
0 1 69 
2 2 52 57 
0 1 63 
0 1 59 
2 2 49 48 
2 2 41 43 
0 1 32 
2 2 37 35 
0 1 36 
0 1 38 
2 2 58 60 
0 1 74 
0 1 63 
0 1 51 
3 4 43 39 16 14 
2 2 32 34 
1 2 47 10 
0 1 71 
0 1 61 
0 1 62 
2 2 55 53 
2 2 31 33 
2 2 64 60 
0 1 50 
2 2 54 51 
0 1 62 
2 2 62 58 
0 1 56 
3 3 54 53 18 
2 2 50 47 
0 1 67 
2 2 60 59 
0 1 30 
0 1 30 
2 2 52 53 
2 2 46 44 
1 2 34 10 
2 2 59 53 
1 3 44 14 15 
1 2 31 9 
0 1 34 
0 1 51 
2 2 85 79 
0 1 84 
2 2 73 72 
0 1 57 
2 2 21 18 
0 1 35 
2 2 41 37 
2 2 38 34 
2 2 35 34 
0 1 54 
0 1 62 
1 2 45 14 
0 1 22 
0 1 62 
2 2 53 47 
1 3 51 18 17 
0 1 64 
0 1 64 
2 2 49 46 
0 1 31 
0 1 52 
1 2 36 4 
0 1 46 
2 2 49 44 
0 1 55 
2 2 50 56 
3 3 41 41 11 
0 1 46 
0 1 57 
0 1 36 
0 1 55 
2 2 31 27 
0 1 51 
0 1 37 
0 1 39 
0 1 73 
0 1 55 
2 2 47 43 
0 1 54 
3 3 46 41 12 
0 1 44 
2 2 62 62 
1 3 49 16 13 
0 1 48 
0 1 41 
0 1 48 
0 1 33 
2 2 44 45 
0 1 49 
0 1 34 
1 2 46 17 
2 2 67 63 
0 1 60 
0 1 72 
3 3 63 60 26 
2 2 27 21 
1 3 52 24 20 
0 1 63 
2 2 44 44 
2 2 52 38 
1 2 46 15 
0 1 55 
0 1 43 
2 2 51 48 
1 2 40 13 
0 1 76 
2 2 72 71 
2 2 30 24 
0 1 40 
0 1 78 
3 3 32 28 6 
0 1 89 
2 2 39 38 
3 5 39 38 14 15 12 
2 2 32 28 
0 1 83 
3 3 63 59 26 
1 2 25 2 
2 2 52 52 
2 2 59 60 
0 1 58 
2 2 72 71 
3 3 54 52 19 
0 1 30 
0 1 70 
2 2 79 75 
0 1 39 
2 2 54 54 
2 2 35 29 
2 2 39 43 
0 1 25 
0 1 36 
0 1 43 
2 2 49 49 
1 3 53 19 16 
0 1 50 
0 1 44 
0 1 57 
0 1 39 
2 2 35 34 
0 1 33 
2 2 32 33 
0 1 55 
2 2 43 38 
1 2 71 37 
0 1 32 
0 1 86 
0 1 56 
1 3 46 21 11 
2 2 35 34 
0 1 33 
0 1 55 
0 1 57 
1 2 64 35 
2 2 61 63 
0 1 28 
0 1 73 
0 1 49 
0 1 53 
0 1 74 
0 1 78 
2 2 35 33 
2 2 34 32 
0 1 49 
0 1 84 
0 1 79 
0 1 63 
0 1 25 
2 2 33 34 
0 1 29 
0 1 27 
3 3 44 36 9 
0 1 49 
2 2 35 33 
0 1 61 
0 1 41 
0 1 76 
0 1 71 
2 2 32 27 
2 2 38 35 
1 2 29 0 
1 2 54 18 
0 1 35 
0 1 50 
1 2 38 11 
0 1 38 
0 1 28 
1 2 43 14 
0 1 61 
3 4 54 55 26 22 
0 1 50 
0 1 34 
0 1 56 
0 1 25 
0 1 23 
0 1 73 
0 1 20 
2 2 56 56 
0 1 75 
2 2 26 27 
0 1 36 
0 1 73 
0 1 52 
0 1 73 
0 1 35 
1 2 36 11 
0 1 53 
0 1 83 
0 1 33 
2 2 20 19 
2 2 20 20 
2 2 26 28 
2 2 21 19 
2 2 89 84 
2 2 61 61 
0 1 29 
0 1 88 
0 1 64 
0 1 32 
0 1 41 
0 1 64 
0 1 41 
2 2 73 71 
0 1 82 
2 2 20 21 
0 1 84 
0 1 64 
0 1 52 
2 2 23 25 
0 1 57 
2 2 76 76 
0 1 29 
0 1 25 
0 1 20 
0 1 43 
0 1 85 
0 1 21 
0 1 29 
0 1 28 
1 2 32 9 
0 1 86 
3 3 29 33 6 
3 3 61 61 26 
0 1 88 
2 2 56 56 
0 1 56 
0 1 32 
0 1 33 
0 1 64 
0 1 73 
0 1 61 
0 1 75 
0 1 57 
0 1 79 
0 1 52 
0 1 26 
0 1 52 
0 1 26 
0 1 26 
0 1 64 
0 1 25 
1 3 33 12 2 
0 1 64 
0 1 22 
0 1 64 
0 1 21 
0 1 64 
0 1 78 
2 2 26 22 
2 2 23 21 
0 1 57 
2 2 21 19 
0 1 22 
0 1 71 
2 2 28 21 
0 1 75 
1 2 57 27 
0 1 25 
0 1 64 
0 1 84 
0 1 64 
0 1 75 
2 2 29 27 
2 2 25 18 
0 1 57 
0 1 82 
0 1 20 
2 2 80 78 
0 1 28 
0 1 27 
0 1 24 
0 1 75 
3 3 33 29 3 
0 1 22 
0 1 87 
0 1 25 
0 1 33 
0 1 28 
0 1 19 
0 1 89 
2 2 82 81 
0 1 87 
0 1 29 
0 1 21 
2 2 22 22 
3 3 27 29 2 
0 1 88 
0 1 25 
0 1 21 
0 1 20 
2 2 25 29 
0 1 27 
0 1 25 
0 1 88 
0 1 89 
0 1 80 
0 1 83 
0 1 25 
0 1 25 
0 1 82 
0 1 21 
0 1 88 
0 1 88 
0 1 25 
0 1 82 
0 1 81 
0 1 82 
0 1 25 
0 1 25 
0 1 17 
0 1 25 
0 1 28 
1 2 22 0 
1 2 25 0 
0 1 89 
0 1 89 
0 1 28 
0 1 28 
0 1 89 
0 1 22 
0 1 83 
2 2 80 80 
0 1 28 
0 1 22 
0 1 28 
2 2 19 19 
0 1 28 
0 1 28 
0 1 81 
0 1 89 
0 1 28 
0 1 80 
0 1 81 
0 1 28 
0 1 17 
0 1 88 
0 1 89 
2 2 88 90 
0 1 17 
0 1 80 
0 1 83 
2 2 80 81 
0 1 80 
0 1 81 
2 2 81 80 
0 1 22 
0 1 19 
0 1 19 
0 1 19 
0 1 17 
0 1 17 
0 1 19 
4 2 15 15 
4 1 15 
4 4 16 16 13 7 
4 1 14 
4 4 16 15 9 3 
4 4 15 15 10 10 
4 5 91 14 12 7 3 
4 5 91 16 16 16 11 
4 2 91 15 
4 2 92 12 
4 3 16 16 13 
4 3 92 16 14 
4 3 93 12 10 
4 3 94 11 7 
4 2 16 13 
4 4 13 11 10 9 
4 4 16 16 13 10 
4 2 90 3 
4 4 94 15 14 9 
4 4 15 12 11 9 
4 5 16 13 13 11 11 
4 3 93 90 13 
4 6 94 16 16 12 10 7 
4 3 93 92 16 
4 6 91 90 14 11 10 7 
4 3 90 14 7 
4 5 16 14 12 4 0 
4 5 92 91 13 12 12 
4 6 92 91 16 12 11 10 
4 5 92 16 12 10 10 
4 2 10 4 
4 3 94 12 12 
4 3 90 16 13 
4 1 4 
