3 3 37 40 17 
0 1 39 
0 1 70 
0 1 70 
0 1 28 
3 3 40 48 12 
0 1 73 
2 2 66 65 
0 1 56 
0 1 66 
2 2 58 57 
1 2 40 6 
2 2 73 77 
0 1 53 
3 3 34 33 8 
0 1 74 
1 2 33 8 
2 2 37 40 
0 1 70 
2 2 35 33 
2 2 34 32 
0 1 49 
2 2 72 76 
2 2 35 31 
0 1 67 
2 2 42 41 
2 2 43 42 
0 1 42 
2 2 34 33 
0 1 73 
0 1 40 
0 1 76 
0 1 47 
0 1 47 
0 1 47 
0 1 49 
2 2 47 46 
0 1 39 
2 2 72 61 
2 2 59 48 
0 1 60 
2 2 39 39 
2 2 41 20 
0 1 65 
2 2 77 74 
0 1 46 
2 2 56 54 
1 2 34 15 
0 1 42 
0 1 29 
0 1 56 
0 1 76 
0 1 69 
3 6 46 39 3 12 9 5 
2 2 49 48 
0 1 85 
3 3 48 36 6 
0 1 37 
2 2 26 29 
0 1 68 
0 1 75 
2 2 49 50 
2 2 45 38 
0 1 72 
2 2 42 44 
0 1 36 
0 1 48 
0 1 46 
1 2 34 5 
2 2 57 56 
0 1 36 
0 1 56 
2 2 39 38 
1 2 42 19 
0 1 36 
2 2 54 53 
0 1 70 
2 2 31 27 
2 2 44 41 
0 1 52 
0 1 50 
0 1 50 
0 1 49 
3 3 56 51 21 
0 1 41 
2 2 46 51 
2 2 51 45 
3 3 30 31 5 
2 2 50 50 
3 3 35 36 8 
0 1 68 
0 1 68 
0 1 54 
2 2 61 58 
0 1 55 
2 2 67 61 
0 1 77 
2 2 45 38 
1 2 30 2 
1 2 32 4 
0 1 59 
2 2 62 60 
2 2 66 65 
0 1 49 
2 2 30 27 
1 2 47 19 
2 2 56 54 
2 2 62 69 
2 2 40 39 
3 3 38 43 17 
0 1 68 
2 2 56 51 
0 1 69 
0 1 75 
0 1 60 
0 1 48 
2 2 62 56 
3 3 70 69 39 
3 4 36 39 12 4 
2 2 26 27 
2 2 69 69 
0 1 26 
1 2 32 6 
0 1 32 
3 3 39 36 4 
2 2 49 45 
0 1 65 
1 2 47 16 
0 1 50 
0 1 73 
2 2 70 66 
0 1 51 
3 3 33 30 2 
1 2 53 26 
1 2 38 11 
3 3 30 28 4 
0 1 46 
2 2 24 22 
2 2 42 40 
2 2 49 50 
0 1 40 
2 2 52 49 
0 1 33 
2 2 20 19 
0 1 58 
0 1 58 
0 1 74 
0 1 74 
0 1 39 
2 2 35 31 
0 1 74 
0 1 50 
2 2 20 20 
0 1 64 
2 2 49 45 
0 1 65 
2 2 21 17 
0 1 47 
0 1 64 
2 2 53 46 
0 1 30 
2 2 73 71 
3 3 63 60 22 
2 2 40 34 
0 1 47 
0 1 62 
0 1 49 
0 1 61 
2 2 40 38 
0 1 67 
0 1 44 
3 4 41 38 10 15 
2 2 42 41 
0 1 77 
3 3 33 32 5 
1 2 28 0 
2 2 36 34 
2 2 76 74 
0 1 22 
0 1 86 
0 1 55 
0 1 29 
1 3 49 23 19 
3 3 41 40 6 
1 2 60 22 
0 1 41 
2 2 32 28 
1 2 45 17 
0 1 55 
0 1 30 
0 1 70 
2 2 39 39 
0 1 57 
0 1 48 
2 2 53 53 
2 2 42 37 
0 1 55 
0 1 46 
0 1 57 
2 2 43 42 
0 1 49 
3 4 38 40 6 7 
3 3 71 65 36 
2 2 45 48 
1 2 34 6 
0 1 53 
0 1 58 
0 1 25 
2 2 35 34 
0 1 56 
0 1 44 
0 1 38 
2 2 73 68 
0 1 61 
1 2 37 14 
0 1 65 
0 1 45 
0 1 85 
0 1 21 
2 2 66 64 
2 2 65 61 
2 2 57 54 
0 1 50 
1 2 35 9 
0 1 89 
3 3 43 42 6 
0 1 63 
3 3 52 49 22 
0 1 44 
2 2 40 42 
2 2 62 62 
2 2 44 38 
2 2 38 37 
0 1 77 
2 2 66 66 
2 2 65 62 
0 1 35 
0 1 53 
0 1 88 
1 2 67 35 
0 1 76 
2 2 45 45 
0 1 69 
0 1 38 
2 2 55 55 
0 1 53 
3 3 30 25 1 
0 1 65 
0 1 72 
0 1 54 
3 3 49 41 6 
0 1 33 
1 2 46 12 
0 1 68 
2 2 31 27 
0 1 67 
2 2 69 60 
0 1 66 
0 1 73 
0 1 43 
0 1 68 
0 1 50 
2 2 49 48 
2 2 55 56 
0 1 41 
0 1 52 
2 2 27 28 
0 1 33 
3 4 40 37 5 16 
0 1 63 
0 1 77 
2 2 39 38 
0 1 67 
0 1 53 
0 1 53 
1 2 38 13 
2 2 67 67 
3 3 49 46 21 
0 1 73 
2 2 59 58 
2 2 51 50 
3 3 45 36 8 
0 1 60 
0 1 68 
0 1 78 
2 2 64 61 
0 1 64 
1 2 55 26 
0 1 56 
0 1 28 
3 3 54 53 12 
3 3 44 40 13 
0 1 64 
0 1 49 
0 1 31 
0 1 43 
2 2 36 32 
0 1 45 
3 3 52 40 11 
2 2 61 61 
1 2 34 1 
0 1 43 
2 2 64 63 
2 2 36 30 
0 1 52 
0 1 69 
1 3 29 10 3 
3 4 34 31 4 1 
0 1 44 
0 1 33 
3 3 36 38 8 
0 1 69 
0 1 42 
0 1 52 
3 3 58 52 29 
2 2 64 59 
2 2 76 67 
2 2 77 77 
0 1 69 
2 2 35 30 
0 1 61 
0 1 64 
2 2 36 29 
2 2 75 76 
2 2 43 36 
2 2 47 44 
0 1 43 
3 3 48 45 22 
0 1 35 
1 2 40 17 
0 1 66 
2 2 75 71 
0 1 36 
0 1 40 
0 1 49 
0 1 25 
0 1 47 
3 3 40 39 8 
3 3 31 33 3 
1 2 42 2 
0 1 83 
0 1 66 
0 1 43 
2 2 60 59 
0 1 54 
0 1 36 
2 2 63 62 
0 1 37 
2 2 49 46 
0 1 62 
3 3 51 44 17 
1 2 35 5 
0 1 78 
0 1 78 
0 1 61 
2 2 39 37 
3 3 36 34 16 
2 2 36 33 
0 1 69 
3 3 35 31 8 
0 1 36 
0 1 63 
0 1 48 
0 1 64 
0 1 47 
0 1 54 
0 1 41 
0 1 54 
0 1 53 
2 2 46 45 
0 1 61 
0 1 46 
0 1 69 
0 1 32 
1 2 56 34 
0 1 70 
2 2 36 38 
2 2 68 68 
2 2 45 46 
2 2 41 38 
2 2 68 63 
2 2 68 66 
3 3 44 39 12 
1 2 42 13 
1 2 44 12 
0 1 35 
0 1 57 
2 2 82 77 
1 2 41 11 
0 1 53 
0 1 52 
0 1 72 
0 1 72 
0 1 61 
3 3 38 35 7 
2 2 36 34 
1 2 39 16 
0 1 46 
0 1 50 
0 1 56 
0 1 25 
3 3 56 48 21 
0 1 70 
1 3 37 10 8 
3 3 45 39 13 
0 1 48 
2 2 42 36 
2 2 44 43 
0 1 30 
3 4 45 43 14 9 
2 2 36 33 
1 2 29 0 
0 1 55 
0 1 89 
0 1 54 
0 1 28 
2 2 45 47 
0 1 38 
2 2 42 38 
0 1 31 
0 1 39 
0 1 37 
2 2 41 39 
2 2 85 87 
0 1 73 
1 3 40 1 5 
2 2 31 29 
0 1 34 
1 2 38 14 
1 2 59 23 
2 2 89 88 
0 1 79 
2 2 44 41 
0 1 45 
0 1 42 
3 4 63 57 26 29 
0 1 27 
0 1 31 
0 1 41 
0 1 70 
0 1 21 
0 1 45 
2 2 56 55 
2 2 40 36 
2 2 47 44 
0 1 54 
0 1 42 
0 1 71 
2 2 32 31 
0 1 34 
0 1 29 
0 1 72 
0 1 58 
0 1 38 
2 2 44 46 
2 2 72 80 
2 2 57 53 
0 1 67 
2 2 66 58 
0 1 74 
1 3 31 1 2 
0 1 77 
0 1 64 
2 2 61 60 
1 2 25 3 
0 1 28 
2 2 41 38 
0 1 80 
2 2 39 39 
2 2 70 62 
0 1 65 
1 2 57 26 
3 3 36 41 6 
0 1 51 
2 2 63 62 
2 2 60 61 
0 1 49 
0 1 55 
0 1 39 
2 2 40 36 
0 1 67 
0 1 39 
2 2 57 57 
0 1 44 
0 1 51 
0 1 30 
0 1 28 
2 2 53 48 
0 1 37 
0 1 47 
2 2 58 52 
2 2 35 24 
0 1 69 
2 2 78 77 
2 2 42 41 
0 1 57 
0 1 66 
2 2 50 53 
2 2 42 42 
1 2 40 9 
0 1 38 
3 3 48 55 23 
0 1 56 
2 2 41 43 
2 2 54 50 
2 2 73 71 
0 1 29 
0 1 51 
0 1 20 
0 1 28 
0 1 69 
0 1 30 
0 1 43 
2 2 42 45 
0 1 53 
2 2 60 59 
2 2 59 54 
0 1 44 
2 2 40 40 
0 1 65 
0 1 63 
0 1 41 
0 1 85 
2 2 44 42 
0 1 62 
2 2 36 36 
0 1 60 
0 1 38 
0 1 72 
0 1 73 
0 1 51 
2 2 50 52 
0 1 26 
0 1 77 
2 2 46 44 
0 1 30 
0 1 45 
0 1 26 
2 2 60 55 
0 1 53 
0 1 55 
2 2 46 45 
0 1 79 
3 3 42 46 15 
0 1 65 
3 3 47 45 14 
0 1 71 
1 2 67 31 
2 2 39 42 
2 2 76 76 
0 1 78 
0 1 45 
2 2 70 67 
2 2 69 69 
0 1 56 
1 2 47 28 
2 2 33 33 
2 2 61 61 
0 1 44 
1 2 44 16 
2 2 67 64 
0 1 61 
3 3 40 36 1 
1 2 34 2 
0 1 61 
3 3 43 42 8 
2 2 84 81 
0 1 50 
3 3 42 46 20 
2 2 45 35 
0 1 67 
2 2 32 35 
0 1 49 
0 1 62 
0 1 31 
2 2 61 58 
0 1 55 
0 1 55 
0 1 51 
1 3 38 12 13 
2 2 55 50 
2 2 71 65 
0 1 28 
0 1 39 
0 1 33 
3 5 44 41 17 8 6 
3 3 46 43 8 
2 2 34 43 
0 1 59 
0 1 34 
0 1 36 
0 1 65 
2 2 47 45 
0 1 86 
0 1 31 
0 1 68 
1 2 42 15 
0 1 36 
2 2 36 34 
3 3 44 45 17 
3 3 50 44 16 
0 1 58 
3 3 59 52 24 
0 1 61 
0 1 70 
0 1 47 
3 3 47 45 20 
0 1 23 
2 2 27 19 
2 2 60 58 
2 2 24 22 
0 1 49 
2 2 69 66 
0 1 40 
2 2 79 77 
0 1 79 
0 1 20 
3 3 53 53 15 
0 1 68 
0 1 87 
0 1 63 
0 1 49 
0 1 34 
0 1 39 
1 3 48 17 16 
1 2 71 51 
2 2 44 34 
2 2 45 41 
0 1 45 
0 1 66 
2 2 56 54 
0 1 42 
1 2 44 18 
0 1 20 
3 3 47 40 14 
2 2 59 55 
2 2 40 40 
0 1 76 
0 1 64 
2 2 41 41 
0 1 52 
0 1 42 
1 2 26 3 
0 1 32 
2 2 79 75 
0 1 35 
2 2 44 41 
2 2 39 36 
2 2 32 33 
3 4 47 47 9 13 
0 1 39 
2 2 62 58 
0 1 69 
0 1 40 
0 1 45 
2 2 41 36 
0 1 53 
0 1 25 
0 1 58 
2 2 21 22 
0 1 53 
0 1 41 
0 1 37 
0 1 28 
0 1 72 
2 2 50 52 
0 1 39 
0 1 30 
0 1 73 
3 3 33 34 7 
2 2 68 62 
0 1 56 
0 1 77 
0 1 53 
0 1 76 
2 2 75 76 
3 3 38 43 17 
2 2 61 59 
0 1 57 
2 2 51 48 
2 2 67 71 
2 2 68 67 
0 1 79 
0 1 28 
0 1 30 
0 1 40 
2 2 69 64 
0 1 57 
1 2 30 1 
2 2 25 24 
3 3 47 40 15 
0 1 32 
0 1 59 
0 1 44 
3 3 27 29 2 
1 2 41 13 
0 1 68 
0 1 58 
2 2 44 44 
0 1 71 
1 3 39 9 6 
0 1 39 
1 4 37 8 0 2 
0 1 39 
2 2 56 45 
2 2 69 76 
0 1 40 
0 1 69 
0 1 41 
3 3 37 36 11 
0 1 24 
0 1 38 
2 2 70 67 
2 2 43 40 
1 2 43 11 
0 1 29 
0 1 32 
1 2 39 9 
0 1 62 
0 1 73 
0 1 65 
0 1 49 
2 2 64 66 
2 2 60 58 
0 1 62 
0 1 79 
1 2 53 21 
0 1 37 
2 2 72 70 
1 2 38 14 
1 2 44 21 
0 1 34 
0 1 87 
2 2 62 64 
2 2 75 73 
0 1 36 
0 1 30 
2 2 50 47 
1 2 37 8 
0 1 51 
3 3 51 47 19 
0 1 57 
0 1 78 
0 1 51 
3 4 42 34 10 11 
1 2 45 19 
0 1 44 
2 2 48 48 
1 2 36 8 
2 2 52 50 
1 2 33 13 
0 1 85 
0 1 43 
0 1 65 
0 1 65 
0 1 74 
0 1 46 
1 2 38 5 
0 1 39 
0 1 43 
0 1 33 
2 2 78 68 
1 3 31 4 7 
2 2 65 63 
2 2 54 53 
0 1 26 
2 2 54 56 
0 1 54 
0 1 56 
0 1 31 
2 2 68 67 
0 1 43 
0 1 81 
0 1 45 
0 1 22 
0 1 39 
0 1 41 
0 1 51 
0 1 68 
1 2 36 8 
2 2 68 67 
2 2 39 38 
2 2 64 61 
0 1 59 
3 3 32 28 4 
0 1 65 
0 1 45 
0 1 56 
1 2 34 9 
0 1 51 
0 1 56 
0 1 67 
3 3 52 55 27 
0 1 70 
0 1 49 
1 4 44 10 9 13 
2 2 63 59 
0 1 47 
0 1 62 
0 1 40 
3 4 48 42 11 12 
0 1 74 
3 5 55 50 19 14 17 
0 1 47 
2 2 60 60 
2 2 41 40 
2 2 50 38 
0 1 55 
0 1 23 
0 1 62 
0 1 67 
3 3 36 32 12 
3 4 60 54 20 16 
2 2 44 38 
2 2 36 33 
2 2 55 53 
1 3 37 16 15 
2 2 43 40 
0 1 38 
2 2 26 22 
2 2 66 65 
0 1 69 
0 1 46 
2 2 54 50 
0 1 63 
3 4 58 54 33 21 
2 2 37 30 
0 1 85 
2 2 54 49 
0 1 43 
0 1 77 
0 1 39 
0 1 77 
0 1 73 
0 1 52 
0 1 57 
0 1 54 
0 1 55 
0 1 25 
1 2 46 12 
2 2 37 36 
2 2 47 41 
2 2 53 61 
2 2 59 56 
0 1 60 
0 1 32 
2 2 55 55 
2 2 56 52 
1 2 34 9 
0 1 27 
2 2 41 35 
2 2 40 40 
0 1 64 
0 1 25 
2 2 68 65 
2 2 66 59 
0 1 42 
3 3 31 31 3 
0 1 57 
2 2 39 37 
0 1 40 
0 1 47 
0 1 72 
0 1 67 
2 2 53 49 
0 1 73 
1 2 43 12 
2 2 78 78 
2 2 56 50 
2 2 63 63 
0 1 66 
3 3 41 38 12 
0 1 89 
0 1 48 
3 3 44 45 16 
2 2 49 47 
2 2 33 33 
0 1 41 
2 2 47 39 
2 2 59 60 
2 2 26 25 
2 2 24 20 
0 1 47 
1 3 33 11 2 
0 1 55 
0 1 27 
2 2 47 41 
0 1 67 
1 2 46 14 
0 1 35 
3 4 50 49 20 10 
0 1 64 
2 2 39 40 
2 2 60 62 
0 1 67 
0 1 51 
1 3 43 10 18 
3 3 40 41 11 
3 3 39 39 4 
1 2 30 3 
3 3 46 45 21 
2 2 78 78 
2 2 36 36 
0 1 28 
0 1 38 
2 2 55 54 
0 1 58 
0 1 70 
2 2 40 40 
0 1 76 
2 2 54 56 
2 2 37 38 
0 1 53 
0 1 71 
3 4 58 54 23 16 
0 1 36 
0 1 40 
2 2 30 31 
0 1 74 
2 2 47 45 
0 1 55 
0 1 30 
1 2 41 11 
2 2 68 67 
3 4 40 34 3 0 
2 2 33 33 
0 1 60 
0 1 46 
2 2 62 60 
2 2 39 33 
0 1 32 
3 3 53 57 24 
0 1 66 
0 1 64 
0 1 25 
2 2 33 29 
0 1 60 
2 2 40 39 
0 1 34 
0 1 33 
1 2 58 25 
0 1 56 
3 3 48 46 21 
2 2 46 43 
0 1 34 
2 2 63 64 
0 1 75 
0 1 72 
0 1 68 
2 2 87 87 
2 2 63 64 
0 1 33 
1 2 43 19 
2 2 44 44 
0 1 44 
2 2 26 26 
2 2 69 66 
0 1 74 
2 2 42 34 
2 2 58 55 
0 1 32 
0 1 34 
2 2 59 55 
1 2 42 15 
2 2 60 59 
2 2 60 56 
0 1 60 
0 1 68 
0 1 58 
0 1 41 
3 3 44 36 9 
0 1 61 
3 3 36 44 13 
0 1 53 
2 2 40 42 
2 2 64 65 
0 1 43 
0 1 46 
2 2 41 35 
0 1 57 
3 3 62 61 29 
0 1 66 
0 1 68 
1 3 39 11 10 
3 3 40 37 9 
0 1 39 
0 1 39 
1 2 29 4 
0 1 37 
0 1 33 
3 3 35 32 12 
2 2 78 74 
0 1 76 
0 1 49 
0 1 47 
0 1 79 
0 1 55 
2 2 41 39 
2 2 44 43 
0 1 39 
2 2 40 39 
0 1 43 
3 4 51 49 18 17 
0 1 34 
2 2 66 65 
3 3 58 55 31 
2 2 35 25 
2 2 33 30 
2 2 46 41 
2 2 61 58 
1 2 42 11 
2 2 51 48 
0 1 55 
0 1 36 
2 2 40 38 
2 2 59 57 
0 1 40 
0 1 54 
3 3 57 55 22 
0 1 43 
2 2 56 52 
0 1 21 
2 2 55 54 
0 1 32 
2 2 50 43 
3 3 33 32 10 
2 2 56 56 
2 2 64 63 
0 1 59 
2 2 48 44 
0 1 36 
0 1 24 
2 2 72 71 
1 2 44 8 
1 2 68 29 
0 1 64 
0 1 50 
3 4 36 37 5 8 
0 1 36 
2 2 43 46 
0 1 67 
2 2 56 55 
0 1 47 
2 2 63 56 
2 2 33 32 
2 2 59 60 
2 2 37 35 
2 2 44 43 
2 2 33 27 
3 3 45 37 7 
0 1 60 
2 2 47 48 
0 1 73 
3 3 51 56 23 
0 1 28 
2 2 42 39 
2 2 26 27 
0 1 61 
0 1 48 
0 1 44 
2 2 76 77 
2 2 67 55 
2 2 55 49 
0 1 71 
2 2 62 54 
0 1 49 
3 3 35 35 3 
0 1 59 
2 2 32 25 
0 1 34 
0 1 34 
0 1 54 
0 1 55 
2 2 50 48 
1 2 39 17 
0 1 40 
1 2 36 5 
0 1 37 
3 3 37 35 6 
0 1 73 
0 1 43 
0 1 49 
2 2 53 49 
0 1 36 
0 1 37 
2 2 47 46 
0 1 37 
2 2 61 58 
2 2 53 50 
1 2 35 9 
0 1 24 
0 1 37 
0 1 48 
2 2 62 62 
1 2 39 9 
0 1 42 
0 1 84 
1 3 27 6 0 
0 1 38 
0 1 79 
0 1 24 
0 1 72 
3 4 35 36 9 12 
0 1 56 
2 2 43 33 
0 1 71 
2 2 33 32 
2 2 35 37 
2 2 61 65 
3 3 58 59 31 
2 2 62 61 
2 2 54 58 
1 2 48 21 
0 1 59 
0 1 74 
2 2 49 43 
0 1 65 
2 2 54 54 
2 2 58 55 
0 1 29 
0 1 37 
0 1 56 
0 1 66 
2 2 63 66 
0 1 68 
0 1 57 
0 1 61 
2 2 51 50 
0 1 43 
2 2 24 23 
3 3 50 46 20 
2 2 47 45 
3 3 46 43 14 
3 3 50 48 15 
2 2 64 63 
0 1 69 
0 1 46 
2 2 33 24 
0 1 76 
2 2 63 62 
2 2 76 69 
0 1 69 
1 2 47 15 
2 2 72 69 
2 2 47 42 
0 1 62 
2 2 45 43 
0 1 37 
0 1 43 
0 1 45 
0 1 72 
1 2 57 17 
3 3 60 52 18 
0 1 35 
0 1 33 
0 1 45 
0 1 38 
0 1 35 
3 4 47 41 16 15 
2 2 27 20 
3 3 39 38 14 
0 1 47 
2 2 45 42 
2 2 51 48 
3 4 44 41 10 8 
0 1 60 
1 2 34 5 
0 1 22 
0 1 34 
0 1 25 
3 4 56 54 24 19 
1 2 44 11 
0 1 35 
2 2 38 33 
0 1 61 
3 6 44 42 7 9 16 8 
2 2 61 53 
0 1 54 
0 1 73 
0 1 76 
0 1 43 
1 2 65 36 
1 2 34 11 
0 1 25 
1 3 46 19 15 
0 1 45 
2 2 50 51 
0 1 34 
2 2 59 58 
0 1 87 
2 2 47 43 
0 1 54 
3 5 47 41 17 7 12 
1 2 39 13 
3 3 41 42 5 
2 2 34 33 
0 1 56 
0 1 50 
1 5 42 21 7 17 15 
0 1 42 
2 2 34 35 
2 2 87 83 
2 2 61 62 
0 1 70 
0 1 78 
2 2 55 54 
3 4 43 43 11 15 
2 2 43 48 
0 1 56 
0 1 72 
2 2 49 46 
2 2 74 71 
0 1 21 
2 2 36 33 
0 1 37 
0 1 38 
2 2 43 43 
3 3 36 34 11 
0 1 39 
2 2 70 63 
2 2 53 51 
0 1 46 
2 2 57 56 
0 1 52 
2 2 60 57 
2 2 41 36 
2 2 57 53 
0 1 70 
0 1 39 
0 1 75 
0 1 42 
0 1 27 
2 2 51 48 
0 1 58 
0 1 63 
2 2 63 61 
1 2 47 20 
0 1 47 
2 2 32 31 
2 2 48 45 
0 1 30 
0 1 48 
0 1 23 
0 1 31 
2 2 45 42 
0 1 67 
1 2 29 2 
2 2 30 28 
0 1 54 
0 1 52 
0 1 56 
2 2 31 27 
0 1 22 
0 1 74 
0 1 29 
2 2 49 47 
2 2 42 41 
0 1 88 
2 2 27 27 
0 1 53 
1 3 39 5 8 
0 1 42 
2 2 48 43 
2 2 51 48 
0 1 35 
0 1 61 
0 1 62 
3 3 38 37 7 
2 2 61 59 
0 1 35 
2 2 44 51 
2 2 67 63 
1 2 72 44 
0 1 74 
2 2 55 52 
1 2 38 6 
2 2 36 33 
0 1 47 
3 3 60 57 27 
0 1 79 
2 2 35 32 
0 1 27 
2 2 58 55 
0 1 72 
2 2 35 30 
3 3 52 51 28 
0 1 42 
0 1 56 
2 2 43 38 
0 1 42 
0 1 31 
0 1 21 
0 1 20 
0 1 62 
0 1 82 
3 3 34 33 6 
0 1 37 
3 5 55 50 23 19 24 
2 2 39 36 
0 1 57 
0 1 52 
1 2 57 23 
2 2 23 23 
0 1 31 
0 1 55 
2 2 61 61 
0 1 86 
3 4 46 42 21 19 
1 2 46 19 
2 2 38 35 
3 3 30 29 3 
0 1 74 
1 3 44 15 17 
3 3 34 30 2 
0 1 39 
0 1 71 
0 1 59 
2 2 32 22 
0 1 44 
0 1 87 
0 1 52 
2 2 52 52 
1 2 36 1 
3 4 53 46 13 21 
2 2 59 45 
0 1 63 
2 2 43 44 
0 1 39 
0 1 42 
0 1 65 
2 2 45 41 
2 2 35 28 
2 2 81 79 
0 1 83 
0 1 77 
2 2 39 36 
2 2 31 29 
2 2 25 24 
0 1 35 
0 1 28 
0 1 70 
0 1 46 
0 1 77 
2 2 45 49 
0 1 60 
0 1 64 
0 1 55 
1 2 43 19 
2 2 32 28 
0 1 52 
2 2 30 26 
3 3 41 39 17 
2 2 32 27 
0 1 67 
2 2 38 38 
0 1 73 
2 2 38 22 
0 1 73 
0 1 64 
0 1 54 
0 1 34 
0 1 34 
2 2 56 55 
2 2 33 23 
3 3 57 57 23 
2 2 41 29 
0 1 70 
1 2 59 23 
0 1 71 
0 1 26 
2 2 36 33 
0 1 48 
3 3 36 33 6 
2 2 28 26 
0 1 37 
1 2 29 3 
1 2 45 20 
0 1 71 
0 1 31 
2 2 56 56 
3 3 46 43 15 
2 2 35 33 
0 1 76 
0 1 44 
0 1 75 
0 1 78 
0 1 42 
2 2 37 37 
0 1 23 
2 2 52 51 
0 1 41 
0 1 56 
0 1 54 
2 2 42 41 
3 3 41 42 13 
3 3 44 44 20 
0 1 71 
0 1 57 
0 1 41 
0 1 51 
2 2 51 50 
0 1 47 
1 2 52 21 
3 3 37 29 2 
0 1 54 
0 1 41 
2 2 74 74 
2 2 45 44 
0 1 61 
0 1 67 
0 1 36 
0 1 48 
0 1 61 
0 1 60 
0 1 62 
0 1 71 
2 2 57 51 
3 3 29 27 9 
0 1 59 
2 2 35 32 
0 1 37 
2 2 63 61 
0 1 73 
0 1 52 
2 2 53 34 
2 2 43 39 
0 1 54 
2 2 35 29 
0 1 32 
0 1 58 
0 1 83 
2 2 50 50 
3 3 49 47 11 
2 2 36 32 
0 1 45 
2 2 45 47 
2 2 76 76 
0 1 59 
0 1 52 
0 1 65 
3 4 34 31 1 3 
3 4 47 43 15 19 
0 1 76 
0 1 54 
0 1 42 
2 2 20 19 
2 2 52 51 
1 2 49 14 
1 2 34 8 
1 2 35 12 
1 3 45 10 16 
1 2 20 0 
3 3 47 42 11 
1 2 62 26 
2 2 36 35 
0 1 79 
0 1 31 
0 1 65 
2 2 31 31 
2 2 47 55 
3 3 27 32 7 
0 1 53 
3 3 44 35 10 
2 2 43 41 
0 1 42 
0 1 31 
2 2 48 47 
1 2 51 13 
0 1 77 
2 2 73 65 
0 1 35 
2 2 44 44 
1 2 39 3 
0 1 36 
0 1 56 
0 1 71 
0 1 36 
3 4 59 56 21 28 
3 3 39 39 11 
2 2 27 21 
0 1 61 
2 2 30 30 
1 3 46 9 19 
2 2 61 63 
2 2 57 57 
2 2 52 50 
0 1 25 
0 1 77 
0 1 74 
0 1 71 
0 1 51 
2 2 29 27 
0 1 77 
0 1 55 
2 2 57 55 
1 2 47 18 
2 2 53 51 
1 2 57 28 
0 1 70 
0 1 57 
2 2 27 19 
0 1 28 
1 2 52 20 
1 2 50 14 
0 1 64 
2 2 70 58 
0 1 43 
0 1 73 
0 1 39 
0 1 79 
2 2 65 64 
0 1 27 
0 1 52 
1 3 29 6 5 
0 1 53 
0 1 65 
0 1 48 
2 2 76 75 
2 2 23 22 
2 2 58 57 
3 3 35 34 5 
0 1 60 
2 2 29 28 
0 1 63 
0 1 32 
1 2 29 4 
2 2 79 78 
2 2 23 21 
2 2 63 63 
2 2 50 48 
1 2 45 15 
2 2 35 26 
2 2 42 39 
2 2 59 60 
2 2 60 58 
2 2 71 71 
2 2 39 37 
2 2 29 23 
2 2 52 53 
0 1 58 
2 2 51 59 
1 2 24 4 
0 1 46 
1 2 46 18 
0 1 52 
0 1 45 
1 2 35 0 
2 2 46 50 
0 1 79 
1 2 37 10 
2 2 61 60 
0 1 70 
0 1 50 
1 2 46 12 
2 2 34 29 
0 1 48 
0 1 34 
1 2 46 11 
1 3 42 15 14 
3 3 28 28 0 
2 2 74 70 
0 1 88 
0 1 63 
1 2 51 22 
0 1 37 
1 3 34 1 11 
0 1 39 
2 2 74 83 
2 2 31 28 
0 1 56 
0 1 77 
1 2 56 21 
0 1 42 
0 1 60 
0 1 64 
0 1 51 
0 1 71 
2 2 49 50 
2 2 55 55 
0 1 50 
0 1 31 
2 2 72 71 
0 1 59 
0 1 51 
2 2 60 59 
0 1 75 
0 1 35 
1 2 28 5 
2 2 54 51 
1 3 22 0 1 
2 2 35 32 
2 2 56 52 
1 3 46 20 14 
0 1 25 
0 1 73 
0 1 60 
0 1 35 
1 2 22 2 
0 1 49 
0 1 19 
1 2 25 0 
3 4 61 52 24 19 
0 1 52 
0 1 70 
2 2 87 82 
2 2 63 59 
0 1 55 
2 2 53 50 
3 4 63 60 29 30 
0 1 78 
2 2 48 48 
0 1 23 
0 1 76 
0 1 52 
0 1 30 
0 1 55 
0 1 58 
0 1 89 
2 2 59 52 
2 2 77 76 
0 1 87 
2 2 58 52 
2 2 52 49 
0 1 55 
0 1 46 
2 2 25 28 
0 1 22 
0 1 63 
2 2 31 30 
0 1 29 
1 2 34 4 
0 1 83 
0 1 62 
0 1 64 
2 2 42 42 
0 1 24 
0 1 27 
0 1 50 
0 1 32 
0 1 63 
0 1 62 
1 2 22 1 
0 1 49 
0 1 55 
0 1 30 
0 1 77 
2 2 63 56 
0 1 77 
2 2 21 18 
1 2 23 5 
3 3 56 55 35 
3 3 37 34 18 
2 2 46 45 
0 1 27 
0 1 63 
2 2 23 19 
1 2 31 4 
0 1 20 
0 1 42 
2 2 57 57 
2 2 64 64 
0 1 61 
2 2 61 58 
2 2 54 52 
0 1 32 
0 1 73 
0 1 57 
2 2 55 52 
1 2 30 3 
3 3 46 45 7 
0 1 27 
0 1 62 
1 3 49 11 22 
2 2 32 31 
2 2 59 52 
0 1 53 
0 1 48 
3 3 58 59 24 
0 1 60 
0 1 50 
0 1 42 
0 1 35 
0 1 32 
0 1 79 
1 2 54 21 
0 1 53 
0 1 79 
1 3 39 8 11 
0 1 54 
0 1 81 
0 1 63 
3 3 54 54 24 
2 2 27 27 
3 3 59 57 20 
0 1 35 
2 2 73 70 
0 1 50 
0 1 17 
0 1 46 
2 2 54 62 
0 1 26 
2 2 58 58 
2 2 31 21 
1 2 55 23 
2 2 25 23 
0 1 53 
0 1 42 
0 1 28 
0 1 59 
2 2 63 59 
2 2 72 72 
1 2 29 8 
2 2 55 51 
0 1 45 
2 2 61 61 
0 1 32 
0 1 51 
3 4 59 57 31 19 
0 1 30 
0 1 72 
0 1 63 
2 2 48 49 
2 2 77 72 
0 1 51 
2 2 55 55 
0 1 25 
1 3 37 7 6 
0 1 42 
3 4 42 42 10 7 
0 1 26 
0 1 73 
0 1 52 
0 1 55 
2 2 60 61 
3 3 50 52 22 
2 2 61 61 
0 1 55 
0 1 50 
0 1 55 
0 1 42 
1 2 52 22 
0 1 48 
2 2 54 49 
2 2 89 85 
0 1 48 
0 1 17 
1 2 42 15 
0 1 30 
0 1 25 
0 1 31 
0 1 60 
0 1 86 
2 2 51 53 
2 2 49 45 
0 1 52 
1 3 32 6 1 
0 1 55 
3 3 35 29 9 
0 1 88 
0 1 46 
0 1 50 
2 2 20 27 
0 1 35 
1 2 30 0 
2 2 58 58 
0 1 28 
0 1 25 
0 1 21 
0 1 75 
0 1 64 
0 1 31 
2 2 58 55 
0 1 50 
3 3 51 49 25 
0 1 78 
2 2 62 59 
1 3 32 1 9 
2 2 25 27 
0 1 58 
0 1 27 
0 1 70 
3 3 49 50 16 
0 1 79 
0 1 86 
2 2 57 52 
2 2 30 26 
0 1 51 
0 1 57 
2 2 81 79 
0 1 58 
0 1 80 
1 3 32 13 6 
1 2 37 4 
0 1 27 
3 3 50 51 32 
0 1 28 
0 1 37 
2 2 76 80 
0 1 37 
0 1 48 
2 2 55 52 
0 1 21 
0 1 70 
0 1 23 
0 1 49 
0 1 24 
0 1 57 
0 1 32 
2 2 37 32 
0 1 59 
0 1 64 
0 1 60 
0 1 29 
2 2 45 45 
0 1 63 
0 1 63 
0 1 55 
2 2 28 27 
2 2 35 31 
2 2 60 55 
0 1 55 
0 1 81 
0 1 45 
0 1 64 
0 1 62 
2 2 80 81 
0 1 25 
1 3 55 24 28 
2 2 64 63 
0 1 29 
2 2 30 28 
0 1 60 
2 2 32 26 
0 1 50 
0 1 27 
2 2 63 49 
0 1 60 
3 3 37 37 5 
1 5 35 13 5 4 7 
0 1 24 
1 3 35 10 0 
3 3 49 50 26 
0 1 21 
0 1 28 
0 1 57 
0 1 59 
0 1 62 
2 2 60 57 
0 1 20 
0 1 52 
0 1 26 
1 2 45 15 
0 1 49 
0 1 62 
2 2 35 31 
2 2 23 20 
0 1 72 
0 1 20 
2 2 62 62 
2 2 52 49 
0 1 21 
0 1 57 
0 1 70 
0 1 84 
0 1 78 
0 1 60 
2 2 52 52 
0 1 79 
2 2 26 25 
0 1 70 
0 1 60 
0 1 63 
0 1 64 
0 1 57 
0 1 26 
0 1 58 
0 1 63 
0 1 63 
0 1 59 
2 2 60 59 
0 1 31 
0 1 28 
0 1 64 
3 3 31 32 3 
2 2 58 63 
2 2 31 31 
0 1 59 
0 1 64 
0 1 63 
0 1 75 
0 1 25 
1 3 32 10 3 
0 1 89 
0 1 64 
0 1 60 
0 1 32 
2 2 32 25 
0 1 62 
0 1 58 
0 1 35 
0 1 37 
0 1 62 
2 2 63 59 
0 1 52 
0 1 57 
0 1 35 
0 1 79 
0 1 30 
0 1 72 
2 2 31 31 
2 2 28 17 
0 1 62 
0 1 32 
3 3 35 37 7 
0 1 32 
0 1 76 
1 3 45 16 12 
1 2 37 14 
0 1 49 
1 3 32 4 1 
2 2 29 26 
2 2 25 25 
0 1 85 
0 1 32 
0 1 57 
1 2 75 52 
2 2 22 24 
0 1 63 
1 2 52 20 
0 1 20 
0 1 63 
0 1 31 
3 3 49 45 23 
2 2 21 18 
0 1 82 
0 1 37 
0 1 58 
0 1 75 
0 1 79 
2 2 49 49 
0 1 89 
0 1 32 
0 1 32 
1 2 37 6 
1 3 37 3 5 
0 1 32 
2 2 64 64 
2 2 57 57 
0 1 57 
0 1 89 
0 1 60 
2 2 64 64 
0 1 79 
2 2 32 25 
0 1 22 
2 2 64 58 
0 1 18 
0 1 78 
0 1 49 
0 1 86 
0 1 49 
0 1 57 
0 1 86 
2 2 60 57 
0 1 49 
1 2 37 7 
2 2 57 49 
0 1 64 
1 2 64 24 
0 1 59 
2 2 23 25 
0 1 84 
1 2 28 2 
0 1 59 
2 2 29 28 
0 1 30 
0 1 62 
0 1 80 
0 1 63 
2 2 30 28 
2 2 32 31 
0 1 21 
0 1 82 
0 1 26 
0 1 29 
0 1 60 
0 1 57 
0 1 83 
2 2 30 28 
0 1 60 
0 1 63 
0 1 31 
3 3 32 30 6 
0 1 59 
1 2 28 0 
0 1 31 
0 1 59 
2 2 24 24 
0 1 32 
0 1 24 
0 1 63 
0 1 86 
0 1 31 
2 2 24 24 
0 1 59 
0 1 64 
0 1 62 
2 2 30 28 
0 1 63 
0 1 30 
0 1 87 
0 1 57 
0 1 25 
0 1 27 
0 1 79 
0 1 21 
0 1 29 
2 2 49 49 
0 1 86 
2 2 49 49 
0 1 20 
0 1 26 
2 2 59 60 
0 1 63 
0 1 20 
0 1 26 
0 1 29 
0 1 86 
2 2 57 57 
0 1 31 
0 1 26 
0 1 25 
0 1 57 
1 2 29 1 
0 1 62 
1 3 30 11 4 
0 1 63 
0 1 82 
2 2 26 23 
0 1 57 
0 1 62 
3 3 37 30 12 
0 1 59 
2 2 28 25 
2 2 25 17 
2 2 27 21 
0 1 63 
2 2 25 19 
0 1 63 
0 1 37 
0 1 81 
0 1 37 
0 1 89 
0 1 21 
0 1 72 
0 1 72 
0 1 20 
0 1 31 
2 2 22 18 
0 1 31 
0 1 31 
0 1 22 
0 1 59 
0 1 57 
0 1 81 
0 1 62 
0 1 31 
0 1 23 
0 1 63 
0 1 84 
3 3 31 29 8 
0 1 64 
0 1 72 
1 2 28 3 
2 2 30 30 
2 2 30 27 
0 1 37 
2 2 27 30 
0 1 37 
2 2 86 80 
0 1 59 
2 2 31 28 
0 1 87 
0 1 30 
1 3 27 5 6 
0 1 84 
2 2 28 26 
0 1 80 
0 1 62 
0 1 22 
0 1 27 
0 1 59 
0 1 31 
1 2 25 0 
0 1 72 
0 1 64 
0 1 59 
0 1 57 
0 1 87 
0 1 27 
0 1 81 
2 2 37 28 
0 1 59 
0 1 19 
0 1 63 
1 2 30 0 
0 1 24 
0 1 59 
0 1 37 
0 1 62 
2 2 29 25 
0 1 26 
0 1 28 
0 1 31 
0 1 37 
0 1 62 
2 2 21 17 
0 1 22 
0 1 20 
0 1 30 
0 1 63 
2 2 27 23 
2 2 64 64 
0 1 62 
1 2 20 3 
0 1 64 
2 2 75 75 
0 1 63 
0 1 85 
0 1 62 
2 2 23 21 
0 1 75 
0 1 22 
0 1 84 
0 1 62 
3 4 30 30 3 0 
0 1 87 
0 1 30 
1 2 28 7 
0 1 26 
0 1 27 
0 1 26 
2 2 85 82 
1 2 29 11 
0 1 64 
3 3 30 29 2 
0 1 81 
0 1 28 
0 1 80 
2 2 21 19 
0 1 63 
0 1 29 
0 1 87 
0 1 81 
0 1 87 
0 1 62 
0 1 87 
0 1 29 
0 1 30 
0 1 89 
0 1 80 
2 2 89 90 
0 1 86 
0 1 28 
2 2 25 24 
0 1 28 
0 1 30 
1 2 29 3 
2 2 26 19 
0 1 30 
2 2 25 24 
0 1 62 
0 1 84 
0 1 26 
1 2 29 6 
1 2 28 1 
0 1 72 
0 1 25 
2 2 25 25 
0 1 80 
0 1 62 
0 1 75 
2 2 26 25 
2 2 28 26 
0 1 26 
0 1 26 
0 1 20 
2 2 83 83 
0 1 25 
0 1 26 
0 1 24 
0 1 27 
2 2 26 24 
0 1 89 
0 1 72 
0 1 26 
0 1 21 
0 1 84 
0 1 29 
0 1 22 
0 1 23 
0 1 28 
0 1 25 
0 1 81 
0 1 22 
0 1 25 
0 1 27 
2 2 29 26 
0 1 89 
0 1 28 
1 2 29 1 
0 1 28 
2 2 27 27 
0 1 23 
0 1 88 
0 1 28 
0 1 86 
2 2 81 80 
0 1 20 
1 2 29 0 
2 2 80 82 
2 2 29 25 
0 1 75 
2 2 20 20 
0 1 27 
2 2 23 25 
0 1 28 
0 1 26 
0 1 25 
0 1 29 
0 1 23 
0 1 21 
0 1 29 
0 1 25 
0 1 84 
0 1 24 
0 1 26 
0 1 75 
0 1 83 
0 1 29 
0 1 27 
0 1 28 
0 1 28 
0 1 89 
0 1 21 
0 1 24 
2 2 29 28 
0 1 28 
0 1 80 
0 1 89 
0 1 26 
0 1 83 
0 1 28 
2 2 25 19 
0 1 75 
0 1 21 
0 1 28 
2 2 29 24 
2 2 28 25 
0 1 26 
0 1 25 
0 1 26 
0 1 85 
0 1 28 
2 2 21 17 
0 1 87 
0 1 20 
0 1 18 
0 1 82 
0 1 27 
2 2 26 24 
0 1 82 
0 1 26 
2 2 22 19 
0 1 75 
0 1 28 
0 1 26 
2 2 22 20 
0 1 27 
0 1 21 
2 2 85 80 
0 1 20 
0 1 29 
2 2 21 23 
0 1 21 
0 1 22 
0 1 25 
2 2 87 80 
0 1 27 
0 1 83 
0 1 82 
2 2 26 23 
2 2 28 29 
2 2 84 84 
0 1 28 
0 1 81 
0 1 80 
0 1 83 
0 1 27 
0 1 86 
2 2 27 28 
2 2 87 85 
2 2 26 23 
2 2 29 29 
0 1 24 
0 1 23 
0 1 89 
0 1 85 
0 1 83 
0 1 26 
0 1 83 
0 1 24 
0 1 80 
0 1 20 
0 1 87 
0 1 83 
2 2 29 29 
0 1 82 
1 3 26 0 2 
2 2 29 29 
0 1 23 
0 1 88 
0 1 88 
0 1 22 
0 1 27 
0 1 87 
2 2 83 82 
0 1 81 
0 1 87 
0 1 21 
0 1 21 
0 1 86 
0 1 89 
0 1 24 
0 1 20 
2 2 25 22 
0 1 20 
2 2 24 22 
2 2 24 17 
2 2 26 24 
0 1 23 
0 1 81 
0 1 88 
0 1 21 
2 2 83 81 
0 1 89 
0 1 87 
2 2 75 75 
0 1 21 
0 1 23 
0 1 80 
2 2 86 83 
2 2 28 25 
0 1 24 
0 1 20 
0 1 75 
0 1 27 
2 2 27 26 
0 1 75 
0 1 23 
0 1 21 
0 1 24 
0 1 27 
0 1 24 
0 1 82 
0 1 75 
2 2 25 21 
3 3 26 24 3 
2 2 83 86 
0 1 84 
0 1 24 
2 2 26 22 
2 2 81 83 
2 2 20 20 
0 1 83 
0 1 25 
0 1 27 
0 1 27 
0 1 22 
0 1 22 
2 2 80 80 
2 2 20 18 
0 1 87 
0 1 26 
0 1 81 
0 1 80 
0 1 21 
0 1 83 
0 1 89 
0 1 24 
0 1 83 
2 2 82 88 
0 1 26 
0 1 25 
0 1 17 
0 1 89 
0 1 26 
0 1 82 
2 2 24 23 
0 1 86 
0 1 25 
0 1 89 
0 1 80 
0 1 21 
0 1 80 
2 2 24 21 
0 1 21 
0 1 83 
0 1 81 
0 1 87 
0 1 22 
0 1 26 
0 1 24 
0 1 89 
0 1 85 
0 1 80 
3 3 23 25 1 
2 2 25 23 
1 2 26 0 
0 1 24 
0 1 84 
0 1 24 
2 2 23 20 
0 1 89 
0 1 80 
0 1 81 
0 1 88 
0 1 20 
0 1 84 
0 1 21 
2 2 22 22 
0 1 83 
0 1 25 
0 1 24 
0 1 85 
2 2 89 86 
2 2 84 92 
2 2 25 22 
0 1 20 
2 2 83 86 
0 1 20 
0 1 24 
0 1 86 
0 1 88 
2 2 88 81 
0 1 23 
2 2 85 85 
0 1 84 
2 2 25 25 
0 1 18 
2 2 86 85 
0 1 84 
0 1 22 
0 1 19 
0 1 83 
0 1 23 
2 2 20 17 
0 1 83 
0 1 25 
0 1 25 
0 1 82 
0 1 83 
0 1 83 
2 2 86 85 
2 2 21 17 
2 2 20 20 
0 1 23 
0 1 86 
0 1 23 
2 2 22 21 
0 1 22 
0 1 83 
0 1 84 
0 1 25 
0 1 88 
0 1 88 
0 1 25 
0 1 85 
2 2 20 19 
0 1 19 
0 1 82 
0 1 89 
0 1 82 
0 1 85 
0 1 21 
0 1 88 
0 1 89 
0 1 22 
0 1 82 
0 1 85 
2 2 23 19 
0 1 89 
0 1 19 
0 1 23 
0 1 88 
2 2 23 18 
0 1 85 
0 1 85 
0 1 21 
0 1 18 
0 1 22 
0 1 88 
0 1 88 
0 1 82 
0 1 84 
0 1 22 
1 2 21 1 
0 1 85 
0 1 17 
2 2 85 84 
0 1 83 
2 2 23 19 
0 1 21 
0 1 82 
0 1 22 
0 1 82 
0 1 83 
0 1 83 
1 2 22 0 
0 1 18 
0 1 85 
0 1 22 
0 1 88 
2 2 23 23 
0 1 83 
0 1 88 
0 1 84 
0 1 84 
0 1 21 
0 1 22 
0 1 88 
0 1 88 
0 1 85 
0 1 21 
0 1 21 
0 1 88 
2 2 21 21 
0 1 19 
0 1 84 
0 1 88 
0 1 85 
1 2 22 3 
0 1 84 
0 1 23 
0 1 23 
0 1 84 
0 1 22 
0 1 84 
0 1 22 
0 1 82 
0 1 19 
0 1 22 
2 2 22 18 
0 1 18 
0 1 82 
0 1 84 
0 1 88 
0 1 88 
0 1 18 
0 1 84 
1 2 23 2 
0 1 88 
0 1 82 
0 1 23 
0 1 23 
0 1 88 
0 1 88 
0 1 17 
0 1 88 
0 1 23 
0 1 23 
0 1 23 
0 1 23 
0 1 17 
0 1 88 
1 2 23 2 
0 1 18 
0 1 23 
0 1 18 
0 1 23 
0 1 19 
0 1 17 
0 1 17 
0 1 18 
0 1 17 
0 1 17 
0 1 18 
0 1 18 
0 1 17 
0 1 19 
0 1 17 
0 1 17 
0 1 19 
0 1 19 
0 1 18 
0 1 19 
0 1 19 
0 1 18 
0 1 18 
0 1 18 
0 1 17 
2 2 19 17 
1 2 18 0 
0 1 18 
0 1 19 
0 1 17 
0 1 19 
0 1 19 
0 1 18 
0 1 19 
0 1 18 
0 1 18 
2 2 18 17 
0 1 17 
0 1 17 
0 1 17 
0 1 18 
0 1 19 
0 1 19 
0 1 17 
0 1 18 
0 1 17 
0 1 18 
0 1 18 
0 1 17 
0 1 17 
0 1 18 
0 1 18 
0 1 17 
2 2 17 17 
0 1 18 
0 1 18 
0 1 17 
0 1 18 
0 1 17 
0 1 17 
0 1 18 
0 1 18 
0 1 18 
0 1 18 
0 1 17 
0 1 17 
0 1 17 
0 1 17 
0 1 17 
0 1 17 
0 1 17 
0 1 17 
0 1 17 
0 1 17 
0 1 17 
0 1 17 
0 1 17 
0 1 17 
0 1 17 
0 1 17 
0 1 17 
0 1 17 
0 1 17 
0 1 17 
0 1 17 
4 2 13 5 
4 5 12 10 10 5 0 
4 2 11 10 
4 6 92 90 12 12 10 0 
4 2 10 2 
4 3 93 15 14 
4 5 94 90 13 10 5 
4 1 12 
4 6 94 93 90 14 7 4 
4 6 93 16 15 15 13 4 
4 1 2 
4 1 92 
4 5 93 15 14 10 7 
4 3 16 15 11 
4 2 93 12 
4 5 15 15 14 12 11 
4 4 14 13 5 0 
4 6 92 90 12 11 4 1 
4 4 14 7 5 2 
4 3 94 14 1 
4 6 94 92 90 16 11 10 
4 5 92 13 13 12 5 
4 6 15 15 14 10 10 9 
4 5 93 93 14 10 0 
4 4 92 90 15 1 
4 3 15 15 3 
4 3 94 93 14 
4 3 90 15 15 
4 2 93 14 
4 6 93 92 14 14 5 0 
4 3 16 16 13 
4 5 93 16 15 13 2 
4 2 92 13 
4 5 13 12 12 10 4 
4 5 94 16 10 10 10 
4 6 93 90 14 10 4 0 
4 1 91 
4 3 16 13 3 
4 6 93 92 16 12 11 2 
4 3 15 12 12 
4 4 94 91 14 12 
4 5 92 14 13 12 2 
4 6 94 92 91 91 90 13 
4 4 93 14 13 8 
4 1 4 
4 6 91 91 16 15 10 4 
4 6 92 10 10 9 6 5 
4 5 94 92 16 11 8 
4 2 16 1 
4 5 90 14 13 10 5 
4 4 93 92 90 16 
4 6 93 16 15 15 12 5 
4 6 94 13 13 12 11 5 
4 4 10 10 4 0 
4 3 16 16 0 
4 1 13 
4 6 16 13 11 11 10 1 
4 6 93 15 15 14 11 5 
4 6 14 14 13 12 12 12 
4 1 8 
4 1 5 
4 5 15 13 12 11 10 
4 2 11 10 
4 1 92 
4 6 15 14 13 11 10 9 
4 2 93 16 
4 4 94 13 10 4 
4 1 13 
4 1 11 
4 6 91 15 13 12 11 8 
4 1 93 
4 3 14 11 1 
4 2 14 12 
4 2 11 10 
4 4 16 13 13 0 
4 1 9 
4 6 94 15 15 12 9 0 
4 5 92 16 16 10 2 
4 5 16 14 13 11 2 
4 6 90 15 15 14 12 4 
4 2 15 10 
4 4 16 13 12 11 
4 3 90 10 4 
4 3 92 16 15 
4 4 91 16 15 15 
4 6 94 93 92 16 14 8 
4 5 92 91 90 90 13 
4 6 94 93 15 12 12 11 
4 4 92 12 12 3 
4 1 13 
4 5 15 13 12 10 3 
4 2 93 93 
4 5 92 16 11 9 3 
4 1 92 
4 3 93 15 12 
4 4 92 16 11 8 
4 4 92 14 10 2 
4 3 10 10 10 
4 1 11 
4 2 91 91 
4 3 16 12 4 
4 2 5 1 
4 2 14 12 
4 5 14 13 13 6 0 
4 4 93 15 14 9 
4 6 92 92 91 15 14 4 
4 5 91 90 14 13 0 
4 2 13 13 
4 4 15 13 9 0 
4 3 94 92 4 
4 4 16 11 11 10 
4 3 16 16 4 
4 4 94 93 14 13 
4 1 14 
4 2 14 12 
4 1 12 
4 4 94 92 12 11 
4 2 14 11 
4 5 94 93 13 3 2 
4 2 15 13 
4 2 10 9 
4 5 16 14 13 11 5 
4 6 94 16 15 15 13 0 
4 6 13 12 10 4 4 1 
4 3 93 15 15 
4 1 94 
4 4 16 10 10 0 
4 3 12 6 1 
4 6 94 14 14 12 10 8 
4 2 92 12 
4 4 93 92 12 3 
4 4 93 92 15 3 
4 2 14 10 
4 5 93 90 90 16 12 
4 2 13 10 
4 4 92 11 10 4 
4 5 92 14 10 2 0 
4 2 11 2 
4 3 14 12 0 
4 6 16 15 10 5 3 2 
4 5 16 15 11 9 3 
4 5 93 14 11 11 10 
4 1 12 
4 2 12 10 
4 1 93 
4 3 16 14 12 
4 5 92 92 91 91 15 
4 4 93 92 92 91 
4 1 92 
4 6 16 15 13 13 2 0 
4 6 92 90 16 14 14 13 
4 4 92 92 11 4 
4 1 10 
4 3 14 12 0 
4 5 94 16 14 12 10 
4 4 92 91 3 2 
4 2 8 4 
4 6 90 90 14 13 12 10 
4 3 91 10 0 
4 2 13 10 
4 2 16 11 
4 5 92 12 12 11 6 
4 6 13 10 10 2 2 0 
4 3 16 14 13 
4 5 16 14 13 12 11 
4 6 91 16 11 9 4 1 
4 5 92 14 10 10 9 
4 1 13 
4 2 11 5 
4 6 15 15 13 10 10 2 
4 4 93 15 10 5 
4 3 4 4 4 
4 4 15 14 13 12 
4 1 11 
