#Year of introduction in the model; Number of Individuals
2001;-0.08725542
2002;-0.08725542
2003;-0.08725542
2004;-0.08725542
2005;-0.08725542
2006;-0.08725542
2007;-0.08725542
2008;-0.08725542
2009;-0.08725542
2010;-0.08725542
