0 1 77 
2 2 51 50 
0 1 68 
0 1 63 
0 1 42 
2 2 37 38 
2 2 38 38 
0 1 62 
3 3 51 44 14 
0 1 38 
0 1 41 
0 1 57 
0 1 41 
0 1 52 
2 2 54 44 
0 1 56 
1 2 37 16 
3 3 42 43 10 
2 2 60 58 
3 4 40 39 10 5 
0 1 57 
0 1 73 
0 1 84 
0 1 36 
0 1 32 
0 1 28 
0 1 25 
0 1 86 
0 1 59 
0 1 69 
0 1 54 
2 2 68 69 
0 1 68 
2 2 37 39 
0 1 61 
2 2 43 42 
0 1 45 
2 2 40 37 
0 1 70 
2 2 64 59 
2 2 31 29 
1 3 41 6 15 
0 1 38 
2 2 75 69 
2 2 31 27 
2 2 60 60 
2 2 65 55 
3 3 46 48 29 
2 2 34 33 
0 1 72 
0 1 62 
0 1 73 
2 2 55 52 
0 1 65 
0 1 68 
0 1 32 
0 1 45 
0 1 79 
0 1 50 
2 2 69 63 
0 1 47 
0 1 61 
2 2 65 59 
0 1 39 
2 2 64 60 
1 2 49 16 
1 2 35 5 
2 2 35 24 
0 1 58 
2 2 40 33 
2 2 32 34 
1 2 57 24 
0 1 37 
0 1 73 
0 1 49 
2 2 61 60 
0 1 35 
0 1 76 
2 2 63 52 
0 1 56 
1 3 32 2 0 
0 1 69 
0 1 54 
0 1 57 
2 2 63 57 
2 2 26 19 
2 2 52 55 
2 2 36 34 
2 2 64 62 
2 2 48 45 
2 2 58 58 
0 1 26 
2 2 52 50 
2 2 79 79 
0 1 48 
0 1 45 
0 1 74 
2 2 27 22 
2 2 35 33 
3 3 57 55 19 
2 2 57 55 
0 1 73 
1 2 33 8 
3 3 56 45 10 
2 2 55 53 
0 1 58 
2 2 59 58 
0 1 61 
2 2 46 47 
2 2 62 63 
2 2 66 61 
0 1 62 
1 2 58 22 
0 1 58 
1 2 43 10 
2 2 75 75 
0 1 35 
0 1 49 
0 1 59 
0 1 25 
1 2 27 3 
2 2 33 27 
0 1 56 
0 1 74 
0 1 47 
0 1 48 
2 2 41 43 
0 1 53 
2 2 59 56 
0 1 78 
0 1 36 
2 2 59 55 
3 4 43 39 16 14 
0 1 75 
0 1 22 
0 1 58 
0 1 71 
2 2 21 20 
0 1 55 
0 1 26 
0 1 56 
0 1 75 
0 1 36 
1 2 30 10 
0 1 58 
0 1 39 
0 1 56 
0 1 47 
2 2 39 39 
0 1 63 
2 2 59 53 
0 1 39 
0 1 21 
3 4 49 47 20 22 
0 1 64 
0 1 64 
0 1 31 
0 1 30 
0 1 46 
0 1 36 
0 1 73 
3 3 46 41 12 
2 2 41 41 
0 1 31 
0 1 56 
0 1 49 
0 1 78 
0 1 89 
0 1 48 
0 1 63 
0 1 30 
0 1 45 
0 1 24 
1 2 46 21 
0 1 36 
0 1 45 
2 2 83 87 
0 1 26 
0 1 86 
0 1 48 
2 2 28 29 
0 1 53 
0 1 28 
2 2 36 36 
0 1 28 
0 1 48 
0 1 48 
0 1 89 
1 3 45 19 18 
0 1 83 
0 1 72 
0 1 48 
0 1 53 
0 1 48 
0 1 29 
0 1 82 
0 1 26 
0 1 53 
0 1 29 
0 1 85 
0 1 29 
0 1 20 
0 1 85 
2 2 83 82 
0 1 72 
2 2 17 17 
0 1 84 
0 1 85 
0 1 23 
0 1 20 
0 1 88 
0 1 88 
0 1 88 
0 1 18 
0 1 88 
0 1 89 
0 1 80 
0 1 18 
0 1 80 
0 1 17 
0 1 81 
0 1 17 
0 1 81 
0 1 81 
0 1 19 
0 1 19 
4 2 94 16 
4 3 12 3 2 
4 4 91 90 11 1 
4 3 15 4 3 
4 4 90 15 13 4 
4 1 90 
4 1 4 
4 3 11 10 0 
4 5 15 14 14 13 4 
4 1 15 
4 6 16 14 10 5 4 4 
4 3 91 90 15 
4 4 91 12 11 9 
4 4 94 15 14 6 
4 2 15 11 
4 3 16 13 3 
4 1 13 
4 3 90 13 0 
