0 1 34 
0 1 72 
0 1 35 
0 1 68 
3 3 40 39 7 
2 2 65 65 
2 2 33 30 
0 1 49 
2 2 29 22 
0 1 33 
1 2 29 1 
3 3 43 37 12 
3 3 36 36 0 
2 2 61 58 
2 2 69 65 
0 1 23 
0 1 43 
2 2 41 40 
2 2 62 58 
2 2 61 69 
0 1 57 
0 1 41 
0 1 52 
2 2 54 44 
0 1 65 
0 1 48 
0 1 27 
0 1 59 
0 1 68 
0 1 64 
2 2 35 31 
0 1 57 
1 2 38 7 
2 2 49 40 
0 1 84 
0 1 36 
0 1 32 
3 3 42 39 4 
2 2 41 39 
2 2 60 60 
0 1 62 
0 1 68 
0 1 43 
0 1 61 
2 2 32 28 
0 1 75 
1 2 42 6 
0 1 41 
0 1 31 
0 1 32 
0 1 53 
2 2 53 54 
2 2 75 71 
1 3 32 9 2 
2 2 39 35 
0 1 77 
0 1 49 
0 1 39 
0 1 63 
3 3 46 48 29 
0 1 72 
0 1 21 
0 1 47 
0 1 60 
0 1 23 
0 1 37 
1 2 49 19 
0 1 50 
2 2 37 35 
0 1 73 
1 2 39 10 
0 1 87 
0 1 59 
0 1 53 
0 1 27 
0 1 45 
1 2 57 24 
0 1 73 
0 1 58 
2 2 20 18 
1 3 43 8 15 
0 1 70 
0 1 38 
0 1 56 
0 1 57 
1 2 59 30 
0 1 74 
3 4 53 46 13 19 
0 1 76 
0 1 46 
0 1 73 
0 1 45 
0 1 59 
0 1 61 
0 1 21 
0 1 23 
2 2 27 27 
0 1 73 
0 1 53 
0 1 26 
0 1 29 
0 1 20 
1 2 46 14 
0 1 61 
0 1 56 
0 1 38 
0 1 46 
0 1 85 
0 1 72 
1 2 31 8 
1 2 31 2 
1 2 48 21 
0 1 39 
0 1 22 
1 2 48 20 
0 1 20 
1 2 36 4 
0 1 45 
0 1 58 
2 2 20 20 
1 2 22 2 
0 1 78 
0 1 26 
2 2 22 18 
0 1 28 
0 1 57 
0 1 56 
0 1 19 
0 1 26 
0 1 78 
0 1 22 
0 1 30 
0 1 22 
0 1 81 
0 1 58 
2 2 56 56 
0 1 86 
0 1 57 
0 1 82 
0 1 87 
0 1 86 
0 1 24 
2 2 24 18 
0 1 17 
0 1 19 
0 1 18 
0 1 19 
0 1 19 
0 1 17 
4 4 16 13 5 4 
4 4 16 15 9 4 
4 3 14 3 3 
4 3 93 14 9 
4 1 10 
4 1 11 
4 5 5 5 3 0 0 
4 4 94 16 7 7 
4 5 15 15 15 9 4 
4 2 12 10 
4 4 14 10 4 3 
4 1 14 
4 3 11 3 0 
4 1 16 
4 1 10 
4 4 94 13 10 8 
