2 3
2 4
1 15090535 4 3
1 15090535 5 6
4
3
1 15090535 5 3
1 15090535 4 6
2 1
0
1 15090535 3 3
1 15090535 3 7
1 15090535 0 0
1 15090535 2 6
1 15090535 3 7
4
1 15090535 4 6
1 15090535 5 1
1 15090535 3 7
1 15090535 6 6
1 15090535 2 6
1 15090535 5 6
2 4
1 15090535 5 6
1 15090535 5 6
1 15090535 0 6
1 15090535 3 1
4
1 15090535 5 7
0
1 15090535 4 4
1 15090535 4 6
0
4
4
1 15090535 4 4
1 15090535 5 4
0
0
1 15090535 5 6
1 15090535 5 2
1 15090535 5 1
2 7
4
2 6
1 15090535 5 5
1 15090535 0 6
1 15090535 4 6
1 15090535 2 4
1 15090535 3 4
2 0
1 15090535 3 6
1 15090535 5 7
2 6
3
1 15090535 1 4
3
2 5
1 15090535 5 3
1 15090535 4 3
1 15090535 2 4
2 5
2 5
2 1
2 1
1 15090535 5 4
1 15090535 5 5
2 6
0
0
1 15090535 4 4
1 15090535 5 6
2 4
1 15090535 2 1
1 15090535 2 1
1 15090535 4 0
0
1 15090535 4 3
1 15090535 2 4
2 6
0
4
2 3
1 15090535 5 1
1 15090535 4 5
4
3
2 5
1 15090535 3 4
3
1 15090535 1 0
1 15090535 5 0
0
0
1 15090535 4 5
0
0
1 15090535 2 6
1 15090535 4 6
3
1 15090535 4 6
2 1
2 6
1 15090535 4 1
4
0
1 15090535 5 3
1 15090535 4 4
3
1 15090535 4 5
2 1
2 4
2 6
1 15090535 5 6
1 15090535 3 1
0
3
4
4
1 15090535 5 3
0
1 15090535 5 1
0
1 15090535 2 4
2 2
1 15090535 3 3
2 6
4
3
4
3
1 15090535 1 7
1 15090535 4 6
0
1 15090535 2 6
3
1 15090535 4 4
1 15090535 5 3
1 15090535 4 3
2 1
1 15090535 3 4
0
1 15090535 1 6
3
3
3
1 15090535 4 4
0
2 1
2 6
0
1 15090535 4 6
2 5
1 15090535 4 6
2 4
2 6
1 15090535 2 7
1 15090535 2 0
2 6
2 0
2 6
1 15090535 0 1
2 6
4
1 15090535 4 6
3
1 15090535 5 1
3
3
1 15090535 4 4
1 15090535 4 2
1 15090535 2 5
0
2 3
1 15090535 1 1
2 6
0
2 6
1 15090535 5 3
1 15090535 0 6
4
3
3
1 15090535 5 6
2 3
1 15090535 4 4
2 3
4
1 15090535 4 6
1 15090535 3 6
1 15090535 3 4
1 15090535 4 6
1 15090535 4 6
3
1 15090535 4 4
0
1 15090535 4 6
1 15090535 5 1
1 15090535 4 6
2 1
4
4
0
2 5
1 15090535 1 1
1 15090535 5 0
1 15090535 2 4
4
1 15090535 4 4
3
3
1 15090535 3 1
0
1 15090535 2 6
0
3
0
1 15090535 5 6
2 4
1 15090535 2 4
3
3
1 15090535 2 5
3
3
1 15090535 3 1
4
1 15090535 3 1
0
0
1 15090535 0 6
1 15090535 5 3
1 15090535 4 3
1 15090535 5 5
4
0
3
3
4
1 15090535 5 2
1 15090535 4 1
1 15090535 4 6
1 15090535 0 4
3
1 15090535 5 4
1 15090535 5 6
1 15090535 2 4
0
2 6
1 15090535 5 4
1 15090535 2 4
3
1 15090535 5 6
3
3
1 15090535 4 4
0
0
0
0
0
0
0
0
0
0
0
0
0
3
3
0
0
0
0
0
0
0
0
3
3
3
0
0
0
0
0
0
3
0
0
0
0
0
