1 2 45 15 
0 1 47 
0 1 61 
2 2 65 59 
0 1 39 
0 1 38 
2 2 64 60 
1 2 49 16 
1 2 35 5 
2 2 48 47 
0 1 31 
2 2 46 46 
0 1 59 
0 1 73 
0 1 49 
1 3 35 10 7 
0 1 37 
2 2 61 60 
2 2 38 33 
1 3 43 8 15 
1 2 37 20 
0 1 22 
3 3 36 32 8 
3 4 49 44 23 12 
2 2 54 61 
2 2 69 68 
0 1 58 
0 1 48 
1 2 40 15 
0 1 42 
2 2 36 34 
2 2 40 39 
0 1 68 
0 1 76 
0 1 69 
3 3 34 31 10 
2 2 45 42 
2 2 37 37 
2 2 40 35 
0 1 45 
0 1 44 
0 1 34 
0 1 72 
0 1 44 
0 1 74 
3 3 45 43 18 
2 2 38 31 
0 1 62 
0 1 52 
2 2 21 19 
1 2 55 19 
2 2 23 22 
0 1 55 
1 4 43 13 19 7 
2 2 71 72 
2 2 55 53 
0 1 34 
0 1 47 
0 1 61 
3 3 42 39 17 
0 1 56 
0 1 41 
0 1 40 
0 1 56 
0 1 58 
3 3 50 49 13 
0 1 27 
0 1 43 
0 1 55 
0 1 67 
0 1 28 
2 2 45 44 
0 1 66 
0 1 58 
0 1 54 
0 1 73 
0 1 52 
3 3 58 52 23 
0 1 48 
0 1 86 
2 2 65 61 
2 2 24 23 
0 1 62 
0 1 65 
0 1 29 
2 2 55 50 
0 1 49 
0 1 59 
0 1 42 
0 1 33 
1 4 38 10 6 8 
0 1 60 
3 3 31 24 1 
1 2 34 4 
0 1 30 
0 1 72 
2 2 55 56 
0 1 48 
3 3 30 22 1 
3 3 66 59 35 
0 1 56 
2 2 47 44 
3 3 52 45 18 
0 1 67 
0 1 61 
0 1 56 
2 2 60 61 
0 1 74 
1 2 44 14 
2 2 41 43 
0 1 32 
2 2 37 35 
0 1 36 
0 1 38 
2 2 58 60 
0 1 74 
0 1 63 
1 2 38 8 
0 1 27 
2 2 29 31 
0 1 23 
0 1 33 
0 1 71 
1 2 47 10 
0 1 65 
0 1 71 
0 1 61 
2 2 64 60 
0 1 62 
2 2 67 68 
2 2 50 48 
3 3 32 30 1 
0 1 73 
2 2 61 58 
0 1 89 
0 1 61 
2 2 52 53 
2 2 46 44 
1 2 34 10 
2 2 59 53 
1 3 44 14 15 
1 2 31 9 
0 1 60 
2 2 28 26 
2 2 39 47 
0 1 49 
0 1 73 
2 2 36 33 
2 2 37 37 
0 1 57 
2 2 21 18 
0 1 35 
2 2 41 37 
2 2 38 34 
2 2 35 34 
0 1 54 
0 1 62 
1 2 45 14 
0 1 22 
0 1 62 
2 2 53 47 
1 2 32 6 
1 4 49 14 17 15 
2 2 49 46 
0 1 31 
0 1 52 
3 3 51 46 20 
0 1 59 
2 2 64 63 
0 1 37 
2 2 63 59 
0 1 43 
0 1 38 
0 1 30 
0 1 46 
0 1 57 
0 1 36 
0 1 55 
2 2 31 27 
0 1 51 
0 1 37 
0 1 39 
2 2 68 69 
1 2 25 5 
2 2 42 39 
0 1 77 
2 2 55 52 
0 1 38 
2 2 65 61 
2 2 44 45 
0 1 49 
0 1 34 
1 2 46 17 
2 2 67 63 
0 1 60 
3 3 63 60 26 
2 2 27 21 
1 3 52 24 20 
0 1 49 
0 1 59 
2 2 52 38 
1 2 46 15 
0 1 55 
0 1 43 
2 2 51 48 
1 2 40 13 
2 2 49 47 
0 1 76 
0 1 63 
0 1 45 
0 1 42 
0 1 29 
3 3 40 36 13 
2 2 47 48 
0 1 50 
3 4 63 55 26 23 
0 1 68 
2 2 55 56 
1 2 43 15 
2 2 55 59 
0 1 52 
0 1 30 
0 1 64 
1 3 35 8 3 
2 2 40 38 
2 2 59 60 
0 1 58 
0 1 60 
2 2 47 48 
0 1 36 
3 3 54 52 19 
0 1 30 
2 2 36 31 
2 2 33 32 
1 2 49 19 
2 2 54 54 
2 2 35 29 
2 2 39 43 
0 1 47 
0 1 69 
2 2 48 43 
0 1 54 
1 3 53 19 16 
2 2 54 51 
0 1 50 
2 2 59 55 
2 2 68 69 
0 1 26 
0 1 48 
2 2 78 64 
2 2 38 33 
0 1 47 
0 1 47 
0 1 68 
0 1 58 
0 1 51 
0 1 87 
0 1 43 
1 2 36 7 
1 2 71 37 
0 1 32 
0 1 86 
0 1 48 
0 1 63 
0 1 31 
1 3 34 2 1 
2 2 42 43 
0 1 52 
3 3 41 38 7 
0 1 22 
2 2 50 49 
0 1 64 
0 1 53 
0 1 31 
0 1 41 
0 1 47 
0 1 47 
2 2 46 47 
3 3 36 32 2 
0 1 62 
3 3 34 33 8 
0 1 74 
1 2 33 8 
2 2 37 40 
0 1 70 
2 2 35 33 
2 2 34 32 
0 1 84 
1 2 39 8 
2 2 42 41 
2 2 43 42 
2 2 34 33 
0 1 73 
0 1 40 
0 1 76 
2 2 62 61 
0 1 22 
2 2 41 40 
2 2 37 36 
2 2 30 33 
2 2 63 61 
0 1 30 
2 2 58 57 
2 2 77 74 
0 1 76 
1 2 27 7 
2 2 85 81 
0 1 39 
0 1 32 
0 1 81 
2 2 39 35 
1 3 32 10 6 
0 1 50 
1 2 30 13 
0 1 64 
0 1 53 
2 2 56 59 
0 1 38 
0 1 28 
2 2 53 48 
2 2 60 60 
3 3 48 36 6 
0 1 37 
2 2 26 29 
0 1 75 
0 1 71 
0 1 60 
0 1 76 
0 1 71 
2 2 45 44 
2 2 36 33 
0 1 31 
0 1 44 
0 1 64 
0 1 38 
0 1 32 
0 1 56 
0 1 43 
2 2 39 40 
2 2 31 27 
2 2 44 41 
0 1 50 
0 1 50 
0 1 61 
2 2 25 21 
0 1 64 
0 1 75 
1 2 45 11 
2 2 51 45 
3 3 30 31 5 
2 2 50 50 
3 3 35 36 8 
0 1 54 
1 2 61 28 
0 1 61 
3 3 40 32 9 
0 1 77 
2 2 31 28 
3 3 48 48 19 
0 1 77 
0 1 33 
3 3 57 54 19 
0 1 69 
2 2 35 33 
0 1 51 
0 1 70 
2 2 53 50 
0 1 62 
1 2 29 5 
0 1 89 
0 1 54 
2 2 51 48 
1 3 32 1 5 
2 2 30 31 
0 1 58 
3 3 70 69 39 
2 2 50 51 
0 1 26 
0 1 89 
0 1 58 
0 1 48 
0 1 67 
1 2 36 11 
0 1 53 
2 2 67 67 
0 1 37 
2 2 48 41 
2 2 43 36 
3 3 44 43 19 
0 1 66 
0 1 63 
0 1 64 
0 1 64 
0 1 32 
0 1 67 
2 2 21 17 
2 2 53 46 
2 2 73 71 
3 3 63 60 22 
2 2 40 34 
0 1 62 
0 1 54 
0 1 79 
0 1 67 
0 1 44 
2 2 59 59 
0 1 59 
0 1 40 
2 2 46 48 
2 2 67 67 
0 1 57 
0 1 82 
2 2 57 53 
0 1 46 
2 2 50 46 
0 1 22 
0 1 33 
2 2 44 43 
2 2 53 53 
0 1 37 
0 1 59 
0 1 76 
0 1 20 
0 1 35 
1 2 37 14 
0 1 85 
0 1 21 
0 1 55 
2 2 37 32 
1 4 44 17 11 18 
0 1 32 
0 1 27 
0 1 74 
0 1 70 
0 1 56 
0 1 73 
2 2 25 24 
2 2 62 62 
0 1 57 
0 1 73 
0 1 35 
0 1 46 
1 2 41 13 
2 2 58 53 
0 1 85 
2 2 20 21 
0 1 19 
1 2 35 5 
0 1 28 
0 1 35 
0 1 37 
0 1 62 
0 1 66 
0 1 21 
0 1 41 
0 1 56 
2 2 58 58 
1 3 33 0 1 
0 1 25 
0 1 50 
0 1 75 
2 2 46 44 
0 1 62 
0 1 57 
2 2 60 57 
0 1 63 
0 1 57 
0 1 79 
0 1 34 
0 1 88 
0 1 22 
0 1 41 
1 2 57 24 
0 1 37 
0 1 73 
0 1 83 
1 2 34 14 
0 1 35 
0 1 26 
2 2 44 41 
0 1 73 
2 2 32 32 
0 1 83 
0 1 66 
0 1 46 
0 1 78 
0 1 78 
0 1 34 
3 3 41 35 7 
0 1 56 
1 2 32 11 
2 2 66 63 
2 2 79 77 
0 1 27 
1 2 41 17 
0 1 41 
0 1 78 
0 1 44 
1 2 44 12 
2 2 82 77 
1 2 41 11 
0 1 79 
2 2 74 75 
2 2 27 27 
0 1 34 
0 1 46 
0 1 74 
0 1 28 
2 2 62 56 
2 2 85 87 
0 1 73 
0 1 56 
2 2 21 19 
2 2 56 50 
0 1 24 
2 2 33 32 
0 1 44 
0 1 44 
2 2 27 17 
0 1 82 
0 1 34 
0 1 86 
2 2 32 25 
0 1 75 
0 1 77 
0 1 83 
0 1 28 
0 1 80 
0 1 25 
0 1 50 
1 2 32 2 
0 1 34 
0 1 84 
0 1 77 
0 1 86 
0 1 89 
0 1 79 
0 1 50 
2 2 25 25 
2 2 56 50 
3 3 62 50 12 
0 1 41 
0 1 32 
2 2 25 18 
1 2 33 5 
0 1 25 
0 1 41 
0 1 85 
0 1 62 
0 1 78 
0 1 34 
0 1 26 
1 2 32 0 
2 2 33 28 
0 1 51 
1 3 41 11 7 
0 1 29 
0 1 41 
2 2 26 26 
0 1 34 
2 2 21 23 
0 1 28 
0 1 62 
2 2 74 82 
2 2 26 24 
0 1 87 
0 1 28 
0 1 80 
2 2 81 80 
0 1 23 
2 2 27 19 
2 2 28 25 
0 1 22 
0 1 29 
0 1 86 
0 1 25 
2 2 44 34 
0 1 20 
0 1 34 
0 1 24 
0 1 34 
0 1 51 
0 1 87 
0 1 29 
0 1 21 
2 2 28 26 
0 1 28 
0 1 44 
2 2 26 20 
3 3 27 29 2 
0 1 25 
0 1 26 
0 1 21 
0 1 26 
0 1 34 
0 1 87 
2 2 24 17 
2 2 24 23 
0 1 23 
2 2 23 22 
0 1 28 
0 1 24 
2 2 25 29 
0 1 51 
0 1 75 
0 1 22 
0 1 25 
0 1 51 
0 1 28 
2 2 28 25 
0 1 77 
0 1 27 
2 2 29 22 
0 1 89 
0 1 84 
2 2 24 20 
0 1 22 
0 1 83 
0 1 82 
1 2 28 5 
0 1 82 
2 2 87 87 
0 1 83 
1 2 29 4 
0 1 23 
0 1 20 
0 1 25 
0 1 81 
0 1 27 
0 1 22 
0 1 27 
0 1 28 
2 2 29 25 
0 1 29 
0 1 51 
0 1 88 
2 2 23 23 
0 1 24 
0 1 24 
0 1 82 
0 1 82 
0 1 23 
0 1 25 
0 1 17 
0 1 27 
0 1 23 
2 2 24 18 
0 1 84 
0 1 84 
2 2 29 24 
0 1 80 
1 2 29 0 
0 1 82 
0 1 29 
0 1 24 
0 1 88 
2 2 17 18 
0 1 81 
0 1 89 
0 1 81 
0 1 20 
0 1 29 
0 1 87 
0 1 24 
2 2 20 20 
0 1 89 
0 1 85 
0 1 83 
2 2 80 80 
2 2 84 84 
0 1 84 
0 1 84 
0 1 85 
0 1 88 
0 1 20 
0 1 20 
0 1 89 
0 1 83 
0 1 20 
0 1 88 
0 1 87 
2 2 20 19 
0 1 87 
0 1 20 
0 1 81 
2 2 88 90 
0 1 17 
0 1 20 
0 1 20 
0 1 20 
2 2 20 18 
0 1 81 
0 1 81 
0 1 20 
0 1 20 
0 1 20 
0 1 19 
0 1 20 
0 1 18 
0 1 18 
0 1 18 
0 1 17 
0 1 17 
0 1 17 
0 1 17 
0 1 17 
4 3 16 15 0 
4 2 94 0 
4 6 92 14 14 14 13 12 
4 1 14 
4 1 15 
4 6 93 91 12 12 3 3 
4 1 8 
4 6 91 16 13 12 10 2 
4 3 16 16 12 
4 5 16 13 12 11 0 
4 2 90 11 
4 2 7 2 
4 5 90 16 10 10 2 
4 4 11 8 4 4 
4 6 94 14 11 5 3 0 
4 3 92 16 14 
4 2 90 14 
4 3 92 16 15 
4 3 14 11 0 
4 3 14 13 11 
4 3 92 10 4 
4 4 16 12 10 4 
4 1 13 
4 4 92 15 13 10 
4 1 15 
4 4 91 14 13 4 
4 2 12 10 
4 2 16 11 
4 4 16 16 14 14 
4 2 16 4 
4 3 93 13 11 
4 3 16 10 4 
4 4 90 16 11 3 
4 3 94 90 4 
4 2 12 3 
4 3 94 13 7 
4 3 16 3 2 
4 1 0 
4 1 13 
4 4 13 12 4 3 
4 5 92 16 12 11 5 
4 2 11 10 
4 3 14 12 11 
4 4 92 15 14 4 
4 3 16 16 3 
4 2 15 3 
4 4 14 13 10 0 
4 6 16 16 16 14 12 5 
4 5 91 90 16 13 10 
4 3 91 10 8 
4 3 13 10 3 
4 4 15 11 5 0 
