0 1 34 
3 3 55 53 21 
0 1 63 
0 1 74 
0 1 32 
3 4 53 43 22 18 
2 2 39 34 
2 2 49 46 
0 1 60 
2 2 47 44 
2 2 52 49 
0 1 43 
0 1 43 
2 2 41 40 
2 2 62 58 
0 1 33 
0 1 58 
0 1 57 
0 1 41 
0 1 52 
0 1 56 
1 2 37 16 
3 3 42 43 10 
2 2 60 58 
3 4 40 39 10 5 
0 1 57 
0 1 33 
3 4 41 41 9 5 
2 2 56 55 
0 1 32 
0 1 28 
2 2 51 41 
2 2 49 57 
0 1 69 
0 1 54 
2 2 68 69 
0 1 59 
0 1 77 
1 4 33 4 0 6 
0 1 33 
0 1 45 
2 2 40 37 
0 1 70 
2 2 64 59 
2 2 31 29 
1 3 41 6 15 
0 1 38 
2 2 75 69 
2 2 31 27 
2 2 42 41 
2 2 55 51 
2 2 70 70 
2 2 42 37 
0 1 26 
0 1 31 
2 2 30 31 
0 1 77 
0 1 78 
2 2 24 20 
0 1 63 
0 1 38 
0 1 35 
3 4 40 42 18 14 
0 1 45 
0 1 79 
2 2 38 37 
0 1 39 
0 1 38 
0 1 28 
2 2 35 35 
3 3 49 45 12 
0 1 72 
0 1 41 
2 2 30 27 
3 3 54 53 24 
2 2 57 55 
0 1 35 
2 2 36 40 
0 1 75 
0 1 63 
0 1 41 
0 1 28 
2 2 24 24 
0 1 54 
0 1 33 
0 1 39 
0 1 23 
2 2 58 56 
2 2 46 47 
0 1 65 
0 1 45 
0 1 25 
0 1 30 
0 1 26 
0 1 47 
2 2 79 80 
0 1 73 
0 1 48 
0 1 45 
3 3 45 43 18 
3 3 36 36 1 
0 1 62 
0 1 58 
2 2 63 65 
0 1 36 
0 1 38 
0 1 62 
2 2 48 45 
0 1 36 
0 1 65 
0 1 32 
0 1 23 
1 2 36 13 
0 1 25 
0 1 29 
1 2 37 12 
2 2 27 27 
2 2 30 29 
0 1 26 
0 1 29 
0 1 20 
2 2 73 73 
0 1 56 
0 1 48 
2 2 79 81 
0 1 46 
0 1 39 
0 1 71 
0 1 71 
0 1 26 
0 1 37 
2 2 28 26 
0 1 23 
0 1 75 
0 1 57 
0 1 56 
0 1 73 
1 3 48 22 19 
0 1 88 
2 2 23 23 
0 1 64 
0 1 39 
0 1 83 
0 1 73 
0 1 26 
1 2 36 9 
2 2 29 22 
2 2 22 18 
0 1 28 
0 1 39 
0 1 56 
2 2 78 64 
0 1 87 
0 1 56 
0 1 39 
0 1 64 
0 1 82 
0 1 52 
0 1 56 
0 1 48 
0 1 48 
2 2 20 18 
1 2 29 0 
0 1 20 
0 1 21 
0 1 89 
0 1 88 
0 1 22 
0 1 20 
0 1 24 
0 1 19 
0 1 19 
0 1 88 
0 1 22 
2 2 23 21 
0 1 22 
2 2 89 88 
0 1 20 
0 1 21 
0 1 88 
0 1 87 
0 1 23 
0 1 23 
0 1 88 
0 1 89 
0 1 19 
0 1 19 
0 1 19 
0 1 19 
4 5 9 8 7 4 0 
4 4 93 15 10 2 
4 6 92 10 7 5 3 0 
4 6 93 91 10 7 6 2 
4 3 15 7 4 
4 4 4 4 3 0 
4 5 92 91 7 7 4 
4 3 91 9 3 
4 6 16 15 7 5 3 3 
4 4 13 9 8 2 
