2 4
1 15303 4 4
1 15090415 4 3
1 15303 2 2
1 15090415 4 6
2 6
0
4
1 15090550 2 0
2 6
1 15090155 3 0
1 15081240 3 7
0
2 0
3
3
4
2 5
4
1 15090415 4 2
1 15090415 4 6
2 1
1 15090520 3 7
1 15090415 6 4
1 15090415 2 6
0
1 15090415 5 6
2 4
0
4
1 3 2 1
1 15303 4 1
1 12 5 1
2 6
2 1
2 6
4
1 15090415 3 7
0
4
4
2 6
0
2 6
4
4
1 11 2 6
2 4
2 6
3
1 15090415 2 6
0
0
1 3 5 6
1 15090535 4 6
0
0
1 15090415 4 4
1 15090415 2 6
2 1
2 4
0
3
1 15090415 0 1
2 3
2 5
1 15090415 5 1
2 4
4
1 15090415 4 0
3
3
3
3
3
2 6
1 15090535 3 2
4
2 3
2 1
2 6
3
3
1 15090155 4 4
1 3 4 2
1 15081135 5 4
1 15090535 5 4
2 6
1 15090415 4 6
1 15090535 5 6
2 3
1 15090415 2 0
1 3 2 1
0
3
3
3
1 15090520 3 1
1 15090415 5 4
1 15090535 4 7
1 15081030 5 3
1 15090415 3 6
2 6
2 5
0
1 15090535 3 6
1 15090520 0 4
0
1 15090415 4 1
0
3
3
1 15090415 1 1
4
1 15090415 4 4
1 15090415 3 4
2 4
2 1
4
1 15090415 2 6
1 15090415 2 0
2 6
4
2 3
1 15090415 2 6
1 15090415 4 5
2 1
0
3
3
4
2 1
2 1
1 15081135 2 6
1 15090550 5 4
1 5 5 4
0
1 15081135 5 2
3
1 15090415 4 4
1 15081135 2 6
0
1 15090535 4 4
4
1 15090535 5 6
4
4
1 15090535 5 3
1 15090415 5 6
1 15090415 0 6
1 15090415 2 3
1 3 2 3
1 15090520 4 4
2 5
1 15090415 0 3
3
1 12 0 2
2 1
1 15090415 4 6
3
2 4
1 15090415 4 5
3
3
1 15090535 3 6
1 15090415 5 4
2 0
2 0
3
4
3
3
1 15090415 4 6
1 11 5 1
0
1 15090520 3 1
0
1 15090415 0 1
0
2 4
2 0
3
3
1 15090415 5 4
0
4
2 3
3
3
4
1 15090535 4 1
1 15081135 2 5
0
2 4
1 15090535 1 1
2 6
2 6
1 15090415 5 2
1 15090520 0 6
1 15081135 5 6
2 4
1 15090535 4 6
1 15090535 3 5
2 4
3
1 15090535 4 0
0
0
1 15090415 4 7
1 3 5 1
0
1 15090535 4 3
1 15090535 2 1
1 15090415 1 5
1 15090415 5 3
1 15090535 2 4
1 15090415 4 1
2 7
1 15090535 1 3
0
0
2 4
1 15090415 1 3
1 15090415 5 1
0
1 15090415 2 3
3
1 15090550 4 4
1 15090415 4 6
1 15090535 3 3
1 15090415 5 2
1 15090535 2 3
1 15090415 4 6
1 15090415 5 3
1 15090415 4 4
1 15090415 2 4
1 15090415 3 1
1 15090415 3 6
2 6
3
3
3
1 15090535 4 6
0
0
1 15090520 2 4
1 3 3 3
2 6
1 15090415 1 5
0
2 6
1 15090415 4 3
3
3
3
1 15081135 2 6
1 15090415 2 6
1 15090535 1 7
2 6
4
1 3 4 1
1 15202 4 4
1 15090520 5 4
1 11 2 4
2 6
2 6
3
1 15090415 1 4
1 15090415 2 6
4
4
2 6
1 15090415 4 4
1 15090535 2 2
1 3 3 6
1 15090535 0 4
2 3
3
2 2
1 15090415 1 1
1 15090535 2 6
1 15090415 4 7
3
1 15090535 2 4
1 15090535 3 4
1 12 4 3
1 14 2 3
3
3
2 6
2 4
3
3
1 13 4 6
3
1 15090415 1 0
0
0
3
2 0
4
4
1 15090415 5 4
0
1 15090415 2 3
2 1
1 15090535 5 5
3
1 15090415 2 6
1 15081135 3 1
3
1 15090415 3 5
4
2 2
0
1 15090415 3 3
1 15090415 5 6
0
2 3
4
4
4
4
1 15090535 4 5
2 6
1 15090535 2 5
1 15090415 5 6
1 15090520 4 3
3
2 4
2 4
2 6
1 5 4 1
1 15090415 1 6
1 15090415 3 6
1 15090535 4 6
4
2 3
1 15090155 5 4
1 3 3 6
2 3
2 6
1 15081135 3 7
1 15090090 5 6
3
3
3
2 6
1 15090415 2 7
2 1
3
1 15090415 5 2
2 3
1 15081135 0 1
1 3 5 4
1 15090415 2 1
0
1 15090535 3 4
4
1 15090535 5 0
2 3
2 4
1 15090520 0 4
1 15090415 5 6
2 0
2 6
3
3
0
1 15090535 3 3
1 15090415 5 3
1 15090155 3 5
3
1 15090415 4 4
2 7
2 6
1 15090090 5 6
1 15090155 4 1
4
1 12 0 0
2 6
1 15090155 6 5
1 15090415 4 6
1 15303 3 6
1 15090090 2 1
4
4
1 15090415 5 6
3
1 15090520 2 7
1 9 4 6
4
2 3
2 6
4
1 15090240 4 6
3
3
1 15090415 2 7
1 15090520 4 3
1 15090090 2 4
1 15090415 4 6
3
1 15090155 5 6
1 15090520 4 1
1 9 4 1
1 15090415 6 6
1 15090415 4 6
4
1 15090415 1 6
1 15090535 5 2
2 3
1 15090415 4 6
1 15303 5 5
3
1 15090535 2 6
2 6
0
2 3
1 15090415 4 7
2 7
0
3
3
1 15090415 2 6
1 15090415 1 1
1 9 5 5
3
3
3
1 15090415 2 7
3
3
3
3
4
1 15090415 4 1
2 3
1 15090535 2 1
1 15090415 4 4
4
4
1 15090535 4 2
2 6
0
3
2 2
4
1 15090535 4 6
1 15090415 0 1
0
2 6
0
4
1 15090415 2 1
1 15090415 0 6
0
3
3
1 15090415 5 6
1 15090520 3 4
2 6
1 15090535 2 6
1 15090415 4 3
2 1
3
1 3 5 3
2 3
1 15090415 1 6
2 3
1 15090415 2 4
2 6
1 15303 5 1
4
2 5
1 15090415 2 1
2 0
0
0
4
2 3
3
4
1 15090415 4 6
2 4
1 15090415 1 6
1 12 4 3
1 15090535 1 4
0
0
0
4
1 15081135 5 6
0
1 15090415 2 1
1 15090415 4 1
4
1 15090415 4 4
1 5 5 0
4
1 15202 3 6
2 5
3
2 6
3
1 3 1 4
0
1 15090520 3 6
2 1
1 15090415 4 4
1 15081135 1 6
1 13 5 1
0
1 15090535 4 1
1 15090415 6 6
0
2 1
4
2 4
1 15090535 3 3
4
3
1 3 1 7
1 15081135 4 6
1 15090415 0 1
1 15090535 4 6
4
1 15090415 2 3
1 15081135 3 7
2 3
2 1
1 15090415 4 6
1 3 4 4
2 7
3
3
1 15090535 2 7
3
3
3
2 3
4
2 1
0
3
3
2 1
1 15081270 5 4
1 15090415 2 6
2 7
1 15090415 3 1
0
1 15090415 5 4
3
1 15090535 4 4
1 15081455 5 6
2 2
1 11 3 7
1 15090415 2 4
1 15090415 4 1
3
2 2
1 15090535 5 0
1 15090415 0 4
1 15090535 1 6
0
1 15362 4 2
1 15090415 5 6
2 6
0
4
2 3
1 15090520 5 1
1 15090535 3 3
3
4
1 15090270 2 4
1 15090415 4 6
1 15090535 3 4
1 15090415 1 3
1 15090415 1 2
0
1 15090550 4 4
3
3
2 4
1 15090415 4 1
1 15090415 4 1
1 15090415 4 1
2 4
1 15090415 1 1
1 15090415 4 3
1 15090535 4 6
2 3
0
0
4
4
4
3
1 15090415 4 1
1 12 4 3
1 15090415 4 2
2 6
1 3 4 6
2 6
4
1 15090535 4 4
1 15090415 3 2
2 2
1 15090415 2 7
1 15090535 1 3
1 15090415 3 3
3
2 1
1 15090415 4 4
1 15090535 5 6
1 12 2 6
3
1 15090415 2 1
1 15081135 5 1
0
3
4
2 6
3
1 15090535 4 3
3
3
3
2 0
1 15090415 5 6
1 15090535 2 4
4
4
4
4
1 15090535 5 6
3
3
3
3
3
1 15090415 1 6
1 15090535 4 4
2 4
3
4
1 15090520 5 1
1 15090535 2 2
0
1 15090415 5 4
1 15090520 4 4
4
2 3
0
1 15090415 5 6
1 15081135 4 1
2 6
2 7
1 15090415 1 6
0
2 6
0
3
2 6
1 15090535 2 1
1 15090415 3 6
3
2 1
0
0
2 1
1 15090535 3 6
0
0
0
1 15090180 4 1
2 3
2 5
3
3
1 14 5 3
3
1 15090535 5 0
2 0
1 15090415 5 4
0
1 15090535 5 7
1 15090415 5 6
3
3
1 15090535 2 1
1 15090535 4 6
1 15090415 4 5
0
1 15090415 5 4
2 6
1 15090520 4 4
0
4
3
4
2 4
4
3
2 2
2 6
4
3
1 15090415 2 4
1 15090415 4 1
1 15090415 0 5
3
3
1 15081455 5 6
0
1 15090415 1 1
1 15090415 4 1
1 15090415 5 6
3
4
4
3
3
2 6
1 15090535 3 6
1 15303 2 6
1 15090415 4 1
1 15090415 1 3
0
1 15090535 3 6
2 1
1 15090415 1 1
0
1 15090535 5 4
3
1 15090535 5 6
1 15081135 4 4
1 2 4 6
0
0
1 15090415 5 6
2 4
1 15090535 4 1
1 15090535 4 4
1 15090415 5 7
4
0
2 1
4
1 3 4 4
0
3
1 15090535 5 4
4
4
3
2 4
1 15090415 1 1
0
2 5
2 0
1 12 1 4
3
3
1 15090535 2 6
0
0
4
2 5
1 15090520 4 4
1 15090415 3 4
1 15090520 5 1
4
4
2 6
2 2
1 15090415 3 6
3
3
1 15090535 4 7
3
1 15090415 2 1
4
1 15090415 5 4
1 15081135 4 4
2 6
4
1 9 5 1
0
3
3
1 15090535 5 1
2 6
4
4
1 5 4 2
1 15090535 2 6
1 15303 2 4
0
4
1 15090535 4 7
1 15081135 5 1
1 14 3 3
0
2 4
2 3
3
1 15081135 2 3
2 1
2 4
3
1 15090535 5 3
2 4
0
0
0
4
2 1
1 15090415 4 4
4
2 6
1 15090415 5 6
1 15090415 5 4
0
0
3
2 2
2 6
1 15090415 5 1
0
0
1 15090415 5 6
2 1
4
2 6
2 7
4
1 15090415 3 1
2 2
4
4
3
2 1
1 15081270 4 4
0
4
1 3 5 0
0
0
1 3 3 1
1 15090415 4 1
1 3 3 7
1 15090415 2 4
2 6
1 15081135 3 0
1 15090415 4 1
2 4
0
2 4
1 15081135 2 6
1 15081455 2 6
1 15090415 2 4
0
3
4
3
1 15090240 4 6
1 15090415 5 1
2 3
2 2
1 15090415 4 5
2 2
1 15090415 0 6
4
1 15090415 4 1
1 15090415 5 0
3
4
4
1 15090415 5 6
3
4
3
3
2 4
4
1 15090520 4 6
4
1 15090520 3 6
1 14 5 7
0
2 0
1 15090415 4 1
1 15090535 3 6
1 15090535 4 6
2 4
4
2 0
2 7
2 3
1 15090535 2 6
2 2
4
2 6
2 1
1 12 0 4
0
1 15090520 5 6
1 15090415 4 2
2 4
2 1
1 15081135 3 3
4
2 6
3
4
3
2 3
1 15090415 0 6
2 6
1 15090535 3 5
0
2 3
1 15090535 3 1
1 15090415 5 3
1 15090415 2 6
2 4
3
3
1 15090155 5 6
1 15081240 5 6
3
1 5 4 7
0
3
3
2 2
4
4
4
3
1 15303 4 4
1 15090415 2 3
0
3
1 11 5 5
1 15090535 4 3
1 15090415 2 1
0
1 15090155 0 0
1 15081135 5 6
1 15090415 5 6
1 15090535 3 6
1 3 4 0
1 15090155 3 0
1 15090535 2 5
4
4
1 15090415 4 6
2 4
0
1 15081240 5 6
4
1 3 5 6
0
0
4
1 15090535 2 1
4
1 15090535 4 3
3
2 6
0
1 15090415 4 6
2 6
1 15090535 4 3
1 15303 4 1
0
4
1 15090535 3 1
1 3 2 6
4
4
3
1 15090415 4 3
1 15090415 2 4
0
0
1 15090415 5 3
1 3 5 7
0
1 15090415 1 5
2 1
0
1 15090415 2 4
0
1 15090535 3 6
1 15090155 5 6
1 15090415 4 2
3
3
1 15090415 4 1
1 15090520 3 1
1 15090535 2 3
1 15090535 5 7
1 15090415 0 3
1 15081270 4 6
1 15303 3 1
3
2 4
1 15081135 3 6
3
1 15090270 4 6
2 1
2 6
1 15090270 5 4
2 6
3
1 15090415 2 6
2 4
1 15090415 4 6
2 3
2 5
2 3
1 15081135 2 6
2 6
3
1 15090535 3 6
2 1
2 6
2 6
2 1
0
3
3
1 15090415 3 1
1 15090415 2 3
0
0
2 1
1 15090415 1 6
2 2
1 15090415 3 6
4
4
1 15090415 4 1
1 13 4 3
1 15303 3 2
1 15090415 5 3
1 15090535 2 1
1 15090415 5 3
3
4
1 15090535 2 6
2 4
1 15090415 2 4
4
1 15090535 3 7
1 15090535 0 1
2 4
1 15090535 1 6
1 15090415 4 6
2 6
2 1
1 15081135 1 6
1 15303 2 4
1 15081240 3 6
1 15090535 4 6
2 4
1 15090415 5 4
4
2 5
3
3
3
3
3
4
4
1 15081135 4 1
1 5 5 3
2 6
1 15090535 2 6
1 15090415 3 1
2 4
1 15090415 5 6
1 15090550 3 3
3
3
3
2 3
1 15090535 4 4
2 1
4
1 2 2 2
1 15303 4 6
2 6
2 3
1 15090415 4 6
0
4
2 7
4
1 15303 4 1
4
3
4
1 15090415 4 6
1 15090535 2 4
1 15090535 5 3
0
4
1 3 3 2
1 15090415 1 6
0
2 1
1 15090415 3 3
1 15090415 4 6
4
4
1 3 3 3
2 1
1 15081135 3 6
1 15090520 1 1
4
4
4
1 3 2 7
3
3
1 15081455 2 7
0
0
2 6
1 15090535 5 3
0
1 15090415 4 3
1 3 4 1
1 15090415 1 6
0
2 1
2 5
1 15090270 0 0
2 3
0
3
3
3
1 15090415 5 6
1 15090415 5 6
3
2 4
1 15090535 4 7
1 15090415 1 1
1 3 5 2
2 4
2 6
1 5 5 1
1 15090535 5 7
1 15090535 2 7
2 6
2 6
0
1 15090535 3 4
1 9 3 4
3
2 1
1 15090415 5 6
2 4
2 6
2 1
2 6
2 4
1 15090535 5 4
4
1 15090535 5 6
4
1 15090520 4 4
1 15090535 2 7
0
2 4
1 15090415 2 7
1 15090415 0 5
2 4
1 15090415 4 7
1 15090535 4 4
1 15090415 2 4
2 3
1 15202 3 4
2 4
2 1
1 3 5 4
1 15090415 0 6
1 15090520 1 6
2 3
4
1 12 3 6
4
1 15090415 5 0
1 15090535 3 4
2 4
1 15090535 4 3
1 15090415 1 3
1 15303 5 6
0
2 6
4
4
4
2 3
2 6
1 15081135 6 3
1 15090415 2 5
1 15090535 2 1
3
3
1 5 4 4
0
3
2 2
4
2 3
1 15081135 4 3
1 15081455 5 1
0
0
1 13 4 1
1 15090415 4 4
2 6
3
1 15090535 4 6
2 1
1 15090415 0 1
4
1 15303 3 6
1 3 5 4
1 3 2 1
2 6
4
2 6
1 15090415 2 0
1 15090415 6 4
1 15090535 4 2
1 15090535 3 6
1 15081240 4 6
1 15090415 5 1
1 15090535 2 4
0
4
4
1 15090415 4 6
3
2 4
2 4
2 2
2 3
1 15090415 2 1
1 15090415 4 5
1 15090535 3 6
1 15090535 1 6
4
1 15090520 5 4
1 15090415 4 5
3
3
3
2 3
2 1
1 15090415 4 5
3
2 3
1 15090090 5 1
1 15090415 6 3
1 15090535 4 6
1 15090415 4 7
0
2 3
2 3
2 6
1 15090415 5 6
1 15090415 2 6
1 2 4 1
1 15090520 4 0
1 15090415 4 7
2 5
1 15090415 4 6
1 11 5 4
1 15081135 3 7
2 6
0
1 12 3 5
1 12 0 0
1 15090535 0 1
0
3
2 1
1 15090415 3 6
4
1 15090520 4 1
1 15090415 5 1
1 15090415 4 0
1 15090520 5 5
0
1 15090535 4 4
4
1 15090535 1 4
2 5
2 4
2 3
1 15090155 4 3
2 4
0
0
1 15081135 0 5
1 15090415 5 7
4
4
1 15090520 3 1
0
1 9 1 6
3
2 6
0
0
1 15090535 2 1
1 15090535 2 7
2 1
4
2 6
0
0
0
0
2 4
3
4
1 15090415 2 6
1 15090415 2 6
1 15090535 4 2
4
4
2 4
3
4
1 15090415 4 6
1 3 1 7
3
3
1 15090415 4 4
1 15090415 5 5
2 5
1 15090415 2 4
2 6
1 15090535 1 7
1 15090415 2 6
0
2 4
3
1 15090535 5 1
2 3
1 15090270 3 6
1 15090415 5 6
1 3 2 3
2 3
1 15090415 3 4
2 6
3
3
3
3
1 3 4 1
1 15090415 3 4
1 15090535 2 1
2 1
1 15090415 2 6
0
4
3
4
1 15090415 5 3
2 5
1 15090535 2 4
1 15090535 5 4
3
2 7
1 3 2 4
4
1 15090520 5 4
1 15090550 5 6
4
3
3
3
4
3
3
2 2
1 15090415 4 2
4
1 15081135 2 5
3
1 15090415 4 2
2 3
0
1 15303 3 6
2 4
0
0
0
2 4
1 15090415 5 7
0
1 15090535 3 3
4
1 15090415 0 6
4
2 6
1 15090535 4 1
1 3 5 6
3
2 6
0
4
1 15081135 5 0
2 4
2 5
1 15090550 5 1
1 15090415 4 4
1 15303 1 6
2 6
2 4
2 4
0
0
1 15090415 3 6
0
2 4
1 15090535 5 6
0
2 7
2 7
2 6
2 4
1 15090270 2 0
1 15090535 5 6
1 15090535 5 2
0
0
4
1 15090535 2 5
0
1 15090415 4 6
4
1 15303 5 6
1 15090535 5 2
2 1
1 15090415 4 3
0
1 15090535 4 6
0
1 15090415 2 6
3
1 15362 3 6
1 15090415 1 6
0
4
1 15090535 2 3
1 15090415 4 3
3
3
3
1 15090535 4 1
1 15090240 4 3
0
0
1 15090415 2 6
2 1
1 15090535 2 6
2 1
2 4
4
4
1 15090415 5 6
0
1 15090415 4 6
1 15090535 1 1
0
0
0
2 4
0
1 15090415 3 1
2 6
0
1 15090535 2 1
2 3
3
2 2
3
1 15090415 4 6
1 15090415 5 3
1 15090535 5 3
0
0
0
1 15090415 4 4
1 15303 4 6
1 3 2 5
3
3
4
4
3
3
1 15090535 5 5
1 9 3 3
2 1
1 15090415 4 6
0
0
2 6
1 15090535 6 1
4
3
1 15090415 5 1
2 5
3
3
1 15090415 4 6
1 15081455 2 6
2 3
1 15090535 0 6
2 3
2 1
1 15090415 4 2
1 15090415 5 6
2 5
0
1 15362 5 6
3
3
2 1
1 15090415 4 3
3
3
3
1 2 4 4
2 6
1 15090415 3 4
2 4
1 15090415 2 1
1 15090415 3 6
1 15090415 2 6
1 15090415 3 3
1 15090415 5 3
1 15090535 5 6
2 1
1 3 5 5
4
2 5
2 0
2 1
3
1 15090415 5 6
1 15090415 0 5
1 15090535 4 1
4
1 15090535 2 6
1 15090535 4 6
1 15090535 3 2
1 14 5 6
2 6
1 15090415 5 7
2 4
1 15090415 5 6
4
1 15090415 3 5
1 15090415 4 6
2 6
3
1 15090415 4 6
0
1 15090535 5 3
2 5
2 3
1 15090535 2 6
1 15303 2 5
1 15090180 2 1
3
1 15090535 0 1
1 15090535 2 6
3
1 15090415 4 3
1 15090535 5 3
0
1 15081030 4 4
1 15090415 4 7
1 15090155 5 7
0
4
1 15090535 1 6
3
3
3
1 3 4 2
1 15090520 0 6
0
1 15090415 5 6
0
0
1 15090535 4 5
1 15090415 4 4
1 15090415 2 1
1 15090415 5 2
1 15090415 4 4
1 15090415 1 7
1 15090520 4 6
1 3 4 3
1 15090535 3 6
2 7
1 15090415 5 2
0
2 1
4
1 15090535 3 6
1 15090415 5 6
1 15090415 0 6
1 15090415 5 4
1 14 2 5
1 15362 5 7
1 15090415 1 4
3
3
3
2 1
2 6
1 15081270 2 4
3
2 6
2 3
3
2 5
3
3
1 15090415 5 6
3
3
1 12 1 5
4
3
3
2 7
4
4
3
1 15090415 2 1
1 15090090 0 3
1 15090415 2 2
0
0
4
1 3 2 0
1 15090535 4 2
1 15090535 5 3
1 15303 4 6
2 1
1 15090415 2 1
3
4
3
1 15081240 3 6
2 5
1 15090415 2 4
1 15090535 3 6
1 15090415 5 3
2 3
1 15090415 5 6
2 6
4
3
1 15090415 2 3
1 15090415 2 6
0
1 15090090 5 5
1 15090415 5 5
1 15090415 5 1
0
1 3 2 4
1 15081135 2 1
1 15090535 4 4
1 15090520 4 0
1 15090415 1 2
1 15090415 4 4
2 4
1 15081135 4 6
1 15090415 4 7
2 7
2 4
1 3 2 4
4
4
3
1 15090415 4 7
1 15081455 2 6
4
1 15090415 4 7
1 15090415 2 5
0
2 6
1 15090415 1 6
1 15090535 2 6
1 3 5 6
0
3
2 6
0
1 15090415 1 4
2 2
1 15090535 4 4
0
1 15090010 2 4
3
3
1 15081135 4 1
1 15090415 5 2
1 3 1 1
1 15090520 5 6
3
1 13 5 3
4
2 6
1 15090415 5 1
0
1 15090415 4 2
2 6
0
2 4
2 4
2 1
2 3
3
3
1 15090535 4 4
2 2
2 0
1 15090415 4 4
0
2 6
2 6
3
1 15090535 5 6
2 4
2 1
4
1 15081240 3 6
0
4
3
1 15090415 5 3
1 15081135 4 6
2 3
1 15090415 4 3
3
1 15090535 4 1
3
1 15090415 4 6
1 15090535 2 0
4
4
2 2
1 15090535 1 1
1 15090535 5 4
1 15362 3 4
1 12 0 6
1 15090535 1 3
2 6
1 15090535 3 7
1 15090415 6 1
1 3 2 5
1 15081030 0 5
1 15090240 4 6
2 3
3
1 15090535 4 4
1 15090415 3 1
3
2 3
2 4
3
1 15090535 2 1
3
2 5
2 6
0
0
2 6
2 4
1 15090415 4 4
2 6
4
2 3
1 12 4 4
1 15090415 4 1
0
4
1 15090535 3 4
1 15090415 3 1
3
1 9 4 6
3
2 6
3
3
2 6
1 15090415 4 4
1 15090535 3 6
1 3 5 5
1 15090535 5 3
0
1 15090415 5 6
1 15090520 4 4
2 0
1 15090415 3 6
0
1 12 4 5
2 7
3
2 4
3
1 3 0 4
2 1
1 15090520 3 6
1 13 2 5
0
1 15090415 5 1
1 15090090 4 3
3
1 15090520 4 2
3
3
1 15090415 5 1
3
3
3
3
1 12 4 4
2 6
1 15090535 1 6
2 6
1 15303 5 7
1 15090535 1 6
1 15090415 4 6
2 6
1 15090415 5 4
1 15090520 4 6
2 7
0
1 3 6 6
1 15090535 4 3
1 15090240 2 4
3
3
2 6
2 6
2 6
1 15090520 4 6
1 15090415 4 2
0
2 6
3
2 2
1 15090520 5 4
1 3 4 4
1 15090535 4 1
1 15090415 2 6
0
3
2 1
1 15090415 4 4
1 15090415 0 0
2 6
1 15090535 4 4
3
3
1 15090520 6 6
4
3
1 15303 4 6
0
4
3
3
1 15090535 5 4
1 15303 4 1
4
4
3
3
2 5
2 7
1 15090155 1 6
1 15090415 4 7
0
2 5
2 1
1 15090415 5 6
2 4
4
4
3
2 3
4
4
3
3
4
1 15090415 4 6
1 15090415 2 2
1 15090415 2 1
1 15081135 3 3
3
2 1
1 15090415 1 0
3
4
1 15090415 3 2
0
2 6
2 0
2 6
1 2 5 6
2 3
4
2 1
4
3
2 2
2 5
1 15090535 5 3
4
1 15090415 5 4
1 3 4 1
0
0
1 2 5 6
2 3
0
0
1 15303 0 2
0
3
3
1 13 3 3
2 3
4
2 6
1 15090415 2 4
4
4
2 6
1 12 5 4
2 3
2 1
1 15090415 2 6
0
2 4
1 15090535 6 6
1 15090520 5 6
0
2 1
0
1 15090415 5 5
0
0
1 15090270 5 1
0
1 15090415 5 4
0
2 4
1 15090535 4 3
3
2 4
1 15090520 2 3
1 15090535 2 7
2 7
1 15090415 6 3
0
1 15090415 5 6
0
3
1 15081135 1 1
1 15090415 0 6
1 15090270 4 4
0
1 15090415 0 3
1 15303 4 1
1 15090535 2 1
0
1 15090415 2 0
1 15081455 6 6
1 15090415 2 2
1 15090535 1 4
1 15090415 3 6
2 4
0
2 3
4
2 4
3
1 15090535 3 6
1 15090415 2 6
4
4
2 1
1 3 1 6
1 15090535 5 1
2 0
2 4
1 15090415 5 6
3
2 0
1 13 3 4
2 6
1 15090415 2 6
0
1 5 4 6
1 15081135 5 6
4
1 15090270 4 6
2 1
1 15303 4 1
1 15090535 5 6
2 1
0
1 15090415 3 5
2 2
3
1 15303 2 1
1 15090415 2 0
1 15090415 1 6
1 5 4 0
2 1
1 15090415 3 4
1 15090535 4 4
1 15090415 2 6
1 15090535 2 6
1 15090535 1 6
1 15090535 5 1
0
1 15090090 2 6
1 15090415 3 6
2 1
1 15090535 4 6
1 15090520 4 4
1 15090415 4 5
0
1 15090535 0 6
2 6
1 15090535 5 3
1 15090010 4 1
0
0
0
4
2 0
1 3 5 6
1 15090535 4 6
1 15090535 5 4
1 15081455 5 3
4
1 15202 2 6
1 15090415 2 6
0
1 15090550 4 4
3
3
3
1 15090415 5 4
1 15090520 2 1
2 5
0
1 2 3 6
1 15090415 4 5
3
1 15090415 3 1
2 6
1 15081135 3 0
0
1 15090520 4 1
1 15090415 4 6
1 15090415 5 4
1 15090535 3 4
1 15081135 4 6
3
1 15090415 0 4
1 15090535 5 6
1 15303 4 6
1 15090415 3 7
3
2 1
3
1 15090535 1 2
1 15090415 3 5
1 15090415 5 6
1 3 4 6
2 3
2 3
4
0
4
1 15090535 5 6
0
1 15090535 5 4
1 15090415 4 1
1 9 4 3
1 15090155 4 1
4
1 15090415 2 4
3
4
2 5
1 15090535 1 3
1 15090415 4 7
0
0
4
4
2 1
1 15090520 4 2
1 15090415 5 4
1 15081135 3 6
1 15090535 3 6
0
1 15090415 5 3
1 3 4 7
1 15090535 3 6
1 15090535 5 1
3
3
0
0
4
1 15090535 2 1
4
2 1
1 15090415 4 6
0
4
1 15090415 3 6
4
1 15090415 4 4
1 3 4 1
1 15090535 2 1
1 15090415 2 5
1 15090415 4 4
1 15090415 0 0
2 4
4
1 15081135 5 4
1 15090415 3 6
1 5 0 6
4
4
1 15090520 4 1
2 6
1 15090415 2 0
0
1 5 0 5
2 3
1 15081135 5 3
1 15090415 0 6
1 15090415 3 3
1 3 5 4
1 15081135 5 1
1 15090415 5 1
4
1 15090520 4 6
1 15090415 3 4
1 15090415 4 4
0
0
1 5 4 3
1 11 3 6
3
4
4
1 3 5 6
4
4
1 15090415 4 5
1 15090415 5 7
2 6
2 3
1 15081135 3 3
1 15090520 2 4
0
0
0
3
2 1
0
2 6
1 15090415 5 6
3
2 6
0
1 15090415 4 4
2 4
1 15090535 4 1
4
3
1 15090415 5 1
1 15090415 3 1
0
1 15090270 2 3
1 15090415 5 1
3
3
2 1
1 15362 1 6
1 15090415 5 3
0
3
3
1 15090415 3 4
1 15090155 4 1
0
2 6
1 15090415 4 1
1 15090415 2 4
3
4
3
3
1 11 4 7
1 3 0 4
1 3 5 6
3
1 14 3 4
1 15090415 4 2
1 15090415 0 3
1 15090520 0 6
1 15090415 4 4
2 4
2 3
3
1 12 6 4
3
1 15090520 4 1
1 15090535 5 2
2 1
1 15090535 4 6
0
0
0
0
0
2 5
1 15090415 5 1
2 6
1 15081455 3 7
2 1
1 15090535 5 6
2 5
3
2 6
4
1 15090415 5 7
2 3
4
3
2 5
1 12 0 3
2 1
1 15303 2 4
3
2 6
1 15090415 4 1
1 15090535 5 6
1 15090415 5 1
1 15090535 2 6
0
4
4
2 1
1 15090415 2 6
0
0
1 15090535 5 1
1 15081135 5 4
1 15090535 5 5
0
1 11 1 6
1 15090415 4 6
0
1 15081135 4 2
2 5
0
1 15090535 5 6
1 15090520 3 2
1 15090415 4 3
0
0
2 0
1 15090535 2 4
4
1 15081135 3 1
1 15090535 4 7
1 15090520 4 7
4
1 15090415 5 6
1 3 5 7
0
1 15090535 5 6
3
3
1 15090415 5 1
2 5
1 15090415 4 0
1 15090415 0 6
1 15090520 5 4
0
2 6
1 15090535 2 4
1 15090535 4 7
1 15090415 2 4
1 15090415 5 4
0
1 15090535 0 1
2 3
2 4
3
4
4
2 2
4
4
3
1 15090535 5 6
1 15090415 0 0
1 15090415 5 6
0
1 15090415 4 6
0
2 6
1 15090535 4 6
0
4
2 6
1 15090415 4 0
1 15090535 2 1
0
3
2 0
1 15090535 6 4
1 15090520 4 4
2 1
1 15090535 5 6
0
0
1 15303 5 6
1 3 3 6
3
1 15090415 1 6
1 15362 4 1
0
0
1 15090550 2 3
1 15090535 4 4
1 15090415 4 6
1 15090415 5 3
2 1
2 2
1 15090415 2 1
3
1 15090520 4 2
1 15090415 5 6
1 15090415 5 6
1 15303 4 6
2 3
0
1 15090535 6 6
1 2 4 1
4
1 15202 4 3
2 6
1 15090415 4 6
2 3
2 6
0
1 13 4 4
4
4
1 15081135 5 4
2 3
4
2 2
1 15090415 4 4
2 1
0
3
1 15090520 4 6
1 3 4 4
3
3
1 3 2 6
0
1 15081135 5 4
3
2 4
4
1 15090520 4 6
1 15090415 2 6
1 15090270 4 6
2 6
4
3
3
3
1 15090535 4 4
4
3
3
3
4
2 3
1 15081135 5 6
3
2 5
1 15090415 5 6
1 9 5 6
1 15090520 5 3
3
1 15090535 3 2
1 15090415 5 2
0
0
0
2 6
4
2 6
1 15090535 5 4
1 15090415 1 6
1 15090415 5 4
2 1
4
3
3
3
1 15090415 2 6
1 15081240 5 4
2 6
2 4
3
0
1 15090415 5 6
1 15090415 2 4
3
3
3
2 2
1 15090535 1 6
1 15090415 3 6
1 15090155 3 5
2 6
0
2 4
0
0
2 6
1 15090535 1 2
0
3
4
1 15090415 2 3
1 15081135 4 7
3
3
3
1 15090550 3 4
1 12 4 6
1 15090550 1 6
0
2 6
3
3
2 4
4
1 15090535 4 6
2 2
0
2 6
1 15081135 3 3
2 1
4
1 15090535 4 6
3
1 15090415 1 6
4
1 15090415 3 1
2 0
0
1 14 2 4
1 14 5 4
1 15090535 3 1
2 6
0
0
1 15090415 2 4
1 15081135 4 4
1 15081135 2 1
2 5
3
1 15090415 4 5
0
0
0
1 15090535 4 4
0
0
1 15090415 0 3
3
3
1 15090535 3 6
1 15081240 5 0
3
3
1 15081135 4 3
1 15090270 4 1
1 12 0 6
1 15090415 2 3
1 15090535 2 6
3
1 3 4 3
1 15090415 5 4
2 5
2 4
3
1 15090090 5 3
0
1 15090415 5 6
1 15090415 2 6
4
3
4
2 1
2 2
1 15090415 2 4
2 4
2 4
1 15090535 5 0
1 15090415 5 1
1 15090415 5 1
2 6
1 15090415 4 4
1 15090415 1 2
4
2 4
2 3
2 6
1 15090415 4 3
0
3
4
1 11 3 6
2 4
1 15090535 4 4
1 15090535 3 1
2 3
2 6
0
0
3
3
3
4
1 15090415 2 5
1 9 5 4
2 6
2 2
1 15090535 4 6
2 3
1 15090535 4 6
0
2 4
2 2
1 15090415 2 1
1 15090415 4 3
1 15090520 4 7
0
1 15090535 5 7
2 4
2 6
4
3
1 15090415 5 6
4
1 15090415 5 4
1 15090415 3 3
1 15081135 2 4
4
1 15090415 5 3
1 15303 5 1
1 15090415 3 4
1 15090415 4 6
1 15090415 5 6
0
3
1 15090415 2 2
1 15090535 4 1
2 1
2 4
3
3
2 3
0
1 15090415 1 6
1 15090415 5 4
1 15090415 0 4
3
1 9 2 3
0
1 15090520 1 6
3
3
2 3
2 7
1 15090415 4 5
3
1 15090415 2 7
4
1 15090415 4 3
2 6
2 4
1 15081240 5 6
1 2 0 6
1 15081135 4 6
3
3
3
2 7
1 15090535 0 6
2 7
2 6
2 2
1 15090535 5 6
3
3
2 6
2 4
1 15090535 5 4
2 6
2 3
2 2
4
4
2 2
1 9 1 3
1 15090415 4 4
4
2 3
1 15090415 3 6
1 15090535 5 5
2 4
1 15090415 2 6
0
1 15090415 4 5
1 15090415 2 6
1 15081135 5 7
1 15090415 2 4
2 4
2 1
1 15090415 3 1
1 15090535 5 4
1 15090520 2 3
0
2 2
2 3
1 15090415 2 1
1 15090415 4 4
0
1 15090535 1 4
2 4
1 15081270 3 6
1 15303 4 6
1 15090415 5 6
1 3 0 6
1 15081135 3 4
1 15090415 3 1
3
1 3 4 6
1 15090535 0 7
4
1 3 4 2
1 15090535 4 6
2 6
2 4
2 3
2 6
1 15090415 2 6
1 15090415 4 3
1 15090415 2 7
1 15090535 4 4
1 12 2 0
1 15090415 0 6
4
1 15090415 4 6
2 2
4
1 15081135 3 4
1 15090535 5 1
0
0
0
4
4
0
1 15090010 0 7
1 15090415 5 6
2 6
3
1 15090180 4 1
1 15090535 4 4
0
3
2 1
4
4
2 1
1 15090520 2 6
1 15090535 5 6
3
2 1
2 1
3
1 15090535 0 1
1 15090535 4 6
0
3
2 4
1 15081135 3 4
1 15090535 5 2
2 1
2 3
1 15090415 0 7
1 15081135 0 3
1 15090415 4 2
4
1 15090415 4 6
1 15090535 2 6
1 3 2 1
3
1 15090415 2 4
1 3 0 1
2 6
1 15090535 4 6
3
1 15081135 6 6
3
1 15090415 2 5
1 3 4 0
1 15362 2 6
1 15090415 0 4
1 15090415 0 6
2 3
1 15090415 0 6
3
1 15090520 1 1
2 4
2 6
0
1 15090535 5 6
3
1 9 4 6
1 15090535 2 6
1 9 5 6
2 6
1 15090415 5 7
2 5
1 15090535 4 6
2 5
0
2 1
1 15090535 5 3
1 15090415 1 4
1 15090415 4 0
0
4
1 15090415 2 6
2 3
4
3
3
1 15090535 4 4
3
1 15090535 4 5
1 15090415 4 5
1 15090535 0 6
0
0
1 14 0 4
1 15303 5 1
1 12 2 6
0
1 15090415 5 7
1 15090535 1 3
3
3
1 15090415 0 0
1 15090415 4 3
1 15090415 5 6
2 5
1 3 5 6
4
4
1 15081135 4 5
1 15090520 0 6
3
4
1 15090535 4 3
2 6
1 15090240 1 1
0
1 15090180 4 2
2 6
1 15090535 5 4
1 15090415 5 3
4
1 15090535 2 3
1 15090415 4 4
1 15090535 4 4
1 15090270 0 7
1 15090535 5 6
1 3 4 4
2 5
1 15303 1 6
1 15090415 5 4
0
2 3
1 3 0 1
2 1
1 15081030 3 4
1 15090535 2 2
2 6
1 15090415 2 1
1 15090535 4 7
1 15090415 5 4
1 3 0 6
1 15362 4 3
4
3
3
1 15090415 2 6
2 2
4
1 15090415 5 7
2 3
2 3
2 1
1 15090415 2 4
1 3 5 4
3
2 7
2 6
1 15090535 5 6
1 15090415 4 7
1 15090415 2 7
1 15090535 4 4
0
2 3
0
2 6
2 6
1 15090415 2 6
4
3
2 6
2 6
2 4
1 15303 0 4
2 6
1 15081270 0 1
1 15090415 5 6
4
1 15090415 5 1
1 3 4 6
1 15090415 2 4
4
1 15090415 2 4
0
2 6
1 13 1 6
1 15090415 2 6
1 15090415 4 1
1 15090415 4 6
0
0
1 15090415 6 5
2 6
1 15090415 4 1
4
1 15090415 4 4
4
4
2 6
1 15090520 1 1
2 3
2 1
1 13 1 7
1 15090415 4 6
2 1
0
3
1 15090535 3 2
0
1 15090415 0 4
4
1 12 4 4
0
3
4
1 15362 1 3
1 15090520 4 1
1 15090535 5 6
1 15090415 4 3
1 15090415 1 3
1 15090415 4 0
0
0
1 15090415 1 1
4
4
3
2 0
1 15090535 4 5
2 5
2 4
1 12 2 4
0
0
1 15090415 2 1
1 3 4 4
2 4
0
2 6
1 15090535 3 3
1 15090535 5 4
1 15090535 4 6
1 3 0 6
2 4
1 15090415 4 7
1 15090415 5 3
3
1 15090535 2 1
2 4
2 6
4
1 15090415 2 3
1 15090415 2 6
1 13 1 4
4
1 15303 5 4
3
3
2 5
1 15090535 5 4
4
2 4
2 4
3
1 15090535 5 6
0
0
0
0
1 15090415 5 4
3
4
1 15090520 5 6
1 15090535 5 4
0
2 4
1 15090415 5 2
1 15090415 1 6
1 14 5 6
1 12 2 6
1 15090415 5 6
2 7
1 12 3 6
1 15090415 4 6
1 15090270 3 4
1 15202 2 6
0
0
3
1 15090535 1 5
4
1 15090415 4 6
3
2 5
1 3 5 5
1 15081135 3 4
2 1
2 0
3
4
1 12 4 6
1 15090415 4 6
4
1 15090415 4 4
1 15090415 5 6
2 6
2 6
3
1 15090535 3 7
4
3
2 1
1 15090415 5 3
2 1
2 5
1 15090010 5 2
3
4
1 15090550 3 1
1 15303 2 6
1 15081135 3 6
1 15081135 3 4
4
2 1
1 15090415 2 6
2 3
1 15090550 0 6
3
3
1 15090415 4 7
2 6
2 6
1 13 5 6
1 15081135 2 1
1 15090535 3 4
2 0
1 15090415 5 7
1 3 4 5
1 15090415 4 6
3
1 15090155 4 6
1 15090535 4 6
0
0
2 2
1 15090535 2 4
0
2 6
1 15090415 0 2
0
3
2 4
4
2 3
2 6
1 15090535 5 6
3
4
4
2 2
1 15081030 0 6
0
1 15081135 4 7
2 1
0
2 6
1 15081455 5 5
1 15090270 5 1
2 4
0
1 15090415 3 1
1 15090415 2 1
3
2 5
2 3
3
1 15090415 2 1
1 15090415 4 6
2 6
0
1 12 5 4
1 12 5 6
2 6
2 7
1 15090535 3 6
1 15090535 5 6
0
2 3
2 3
2 1
1 15090415 3 7
1 15090535 5 4
0
1 3 5 6
1 15090415 4 3
2 6
1 15090415 3 3
0
2 6
1 15090415 2 5
2 6
1 15090535 5 1
0
3
1 15090415 4 6
1 15081135 2 5
1 15090415 3 6
4
1 11 2 4
1 12 6 6
1 15090415 5 4
1 3 4 1
1 15090415 0 6
1 15081135 5 7
2 6
1 15090520 4 3
2 4
1 15090415 4 2
1 15090415 0 2
1 2 5 6
1 15090535 2 6
3
4
4
2 6
2 6
0
0
1 15090415 5 6
1 15090415 5 3
1 15090415 3 7
1 15090535 3 7
3
4
2 0
1 15090415 4 1
1 15090415 5 5
2 2
0
2 6
4
4
2 6
1 15081455 4 6
1 15090415 4 6
3
3
1 15090415 5 7
1 15090415 6 5
3
1 15081270 2 4
1 15090415 5 4
0
1 15090535 4 7
1 15090415 4 6
2 6
1 3 4 1
3
3
3
1 15090415 2 4
3
3
1 15090415 3 4
1 15090010 4 4
1 3 5 6
1 15090535 5 6
1 3 4 3
2 4
3
1 15090535 3 3
4
1 15090415 5 6
1 15090415 5 1
2 1
1 15090415 4 4
1 15090415 2 7
0
0
1 9 2 2
3
1 15090415 1 6
1 15090415 3 1
2 4
3
3
3
1 15303 4 4
4
4
1 15081135 5 6
4
1 15090535 2 4
1 15090270 5 4
0
0
1 15081135 4 3
2 2
1 15090520 3 3
0
2 5
4
1 15090415 1 7
1 15090535 3 2
1 15090520 4 4
1 15090270 0 4
3
3
3
4
3
3
2 3
2 6
1 15090415 2 1
3
3
3
1 15090415 3 6
1 12 4 4
3
1 15090520 5 6
2 4
0
4
1 15202 5 1
1 15090535 0 4
2 1
2 2
1 15090240 5 5
1 15090535 0 3
1 15303 5 6
2 5
4
1 15090535 2 7
3
1 15090415 1 6
4
0
0
4
1 15090415 2 3
2 7
2 4
1 15090415 2 6
1 15090535 5 6
1 15090415 5 6
1 3 1 4
3
1 15090520 4 4
1 15090415 1 6
1 15090535 5 3
1 15090415 0 1
0
1 2 4 6
1 15090415 5 6
1 15090415 5 1
3
4
4
1 15090415 5 3
2 1
0
1 15090535 4 4
1 15090415 2 4
0
1 15090415 4 6
0
0
4
3
3
1 15090415 2 4
1 3 4 5
1 15090535 3 6
1 15090415 5 4
2 4
1 15090415 5 6
2 1
1 15090535 5 4
2 6
1 15090535 4 4
1 15090535 4 6
1 5 2 3
1 3 0 4
1 15090415 4 6
1 15090415 5 3
2 4
0
0
0
0
1 15303 2 3
3
3
3
1 15090415 4 2
1 15090535 5 4
0
2 1
1 15090535 4 6
3
2 4
4
1 15090415 3 4
0
1 15090415 5 6
4
2 6
3
1 15090535 4 7
3
2 6
3
3
2 1
1 15090520 2 6
0
0
1 15303 4 5
1 15090415 2 6
3
3
1 15090535 2 4
1 15303 4 1
1 15090415 5 3
2 5
1 15090415 5 6
2 6
1 15090535 4 6
0
4
1 15090415 0 6
1 15090535 4 4
1 15090535 4 5
1 15081270 3 6
1 15090535 0 6
1 15090535 3 6
1 15081135 4 4
0
2 4
2 1
1 15090415 4 4
1 15081135 4 6
1 15090415 2 6
2 0
1 15081270 5 1
3
3
1 15090535 3 7
2 6
1 15090520 5 4
1 15090415 3 6
2 1
2 6
1 15090520 2 4
3
1 3 5 4
0
4
4
3
4
2 1
4
1 12 3 1
2 1
0
2 7
3
1 15090415 4 6
4
2 6
2 6
1 15303 6 6
0
2 6
1 15090535 5 6
2 5
0
4
4
1 12 3 3
1 15090415 5 7
1 3 0 0
1 15090415 5 6
2 2
1 15090415 2 4
1 15303 4 6
0
1 15090415 5 6
1 15090415 2 2
4
1 15090415 4 0
2 6
1 15090415 4 7
0
1 15090415 4 2
4
1 15090415 4 1
2 7
1 15090535 4 2
1 15090415 2 3
2 4
3
2 1
2 0
3
3
3
3
2 4
1 15090535 5 3
2 6
1 15090415 3 4
3
3
4
4
4
1 3 5 6
4
1 15090415 5 2
1 15081270 4 3
0
0
4
3
4
1 15081135 4 3
4
1 15090520 3 1
2 6
1 3 4 7
1 2 4 4
3
1 15090415 4 0
1 9 5 1
1 15090180 4 6
1 3 5 1
2 3
2 6
4
2 3
2 1
3
1 15090535 1 6
1 15090535 3 3
2 6
1 15090415 2 4
1 15090415 2 1
1 15090415 4 2
1 3 4 3
1 15090415 0 4
3
1 15303 5 4
1 15090415 2 4
1 15081135 2 6
1 15090415 5 1
1 3 5 5
2 6
3
3
1 3 5 7
4
3
1 15090415 1 6
1 15090415 0 4
1 15090415 4 6
0
3
3
2 6
3
4
4
4
1 15090155 2 1
1 15090415 3 4
2 4
1 15090415 3 4
2 4
0
2 6
1 15090415 4 2
2 1
1 15090415 6 4
1 15090415 3 6
2 6
1 3 3 6
3
4
2 3
1 15081455 1 4
1 15090415 1 4
3
3
1 15090535 5 6
1 15090535 4 1
4
4
3
3
1 3 5 4
1 15090520 3 3
1 15090415 4 4
3
3
2 6
1 15090415 2 1
1 15090550 3 5
0
2 4
2 4
1 15090415 4 4
1 15090415 4 4
3
1 15090535 5 4
1 15090415 0 3
3
3
1 15090415 4 7
0
0
2 6
1 15090415 5 5
1 15303 4 6
2 4
1 15090535 2 2
1 15090415 0 4
4
1 15081135 3 3
1 15090415 5 1
1 3 5 4
1 15090535 3 1
4
2 1
4
4
1 13 5 6
1 15090520 4 6
3
4
2 1
2 6
0
1 13 5 4
1 15090415 4 6
2 4
0
1 15090535 4 4
1 15090535 5 4
1 15090415 4 6
0
1 15090415 2 7
1 15090535 2 6
2 5
0
0
4
1 15090535 4 4
2 3
1 15090415 1 1
1 3 2 3
1 15090240 4 6
2 3
0
1 15090535 1 5
2 6
1 15090535 4 6
0
1 15202 5 2
3
2 3
1 15090415 4 2
1 15090180 6 2
3
1 2 4 1
0
0
4
4
1 15090415 5 0
1 15090535 5 6
4
2 4
4
2 6
2 2
4
2 4
1 15090535 3 6
1 15090415 4 2
2 6
1 15090535 5 4
3
1 15081135 4 6
3
4
1 15090520 3 6
1 15090535 4 3
1 15303 4 1
1 15090415 4 1
1 15090180 5 6
1 3 4 0
2 6
0
3
2 4
0
1 15090415 5 6
1 15090180 6 0
4
4
2 3
2 5
1 15081135 4 1
1 3 3 6
0
0
0
3
2 1
2 4
1 15090535 3 2
3
2 7
1 15303 4 6
1 15303 4 1
1 15303 4 4
1 15090415 4 4
2 0
1 15090415 5 4
2 6
1 15090415 2 3
2 6
4
3
2 6
1 15090415 2 3
1 15090415 2 4
3
1 15362 1 6
1 15090240 2 2
0
0
1 15081135 5 4
1 15090520 5 0
2 6
2 6
1 15090415 5 4
1 15090415 0 6
1 15090415 5 1
0
2 3
2 1
1 15090415 4 6
2 1
1 15090415 4 6
1 15090415 3 7
1 15090415 5 4
1 15090535 4 6
0
2 4
1 15303 4 4
3
1 15090415 4 1
3
1 15081135 4 7
3
3
1 15090415 2 1
3
0
1 15090155 4 6
0
1 15090535 3 5
1 15090415 5 6
2 4
1 15081135 5 3
1 15090415 4 7
1 15090520 5 7
2 4
1 15090415 3 7
2 3
1 15090415 2 4
1 15090535 5 6
1 15090415 1 6
2 0
0
0
1 15090535 5 6
1 15090415 4 6
0
1 15090535 2 1
1 15090520 4 4
2 4
1 15090415 4 4
1 15090535 5 6
3
3
2 5
0
2 1
0
2 4
4
1 15090535 4 6
4
1 15090415 4 3
1 15090415 2 1
1 15090520 4 5
1 3 4 1
4
2 4
2 6
1 15090415 4 6
1 3 1 6
3
1 15090415 1 6
1 15090415 1 6
2 6
4
2 2
4
1 15090415 4 5
0
2 7
4
2 6
2 5
1 15090415 5 1
2 4
1 15090415 0 3
2 1
2 6
3
2 3
1 15090415 3 6
2 4
1 15303 0 6
1 15303 5 1
1 15090180 5 2
1 15090415 4 1
1 15090415 4 2
2 4
0
4
2 7
1 15090155 3 4
4
1 3 1 4
0
1 15090415 1 6
1 15090415 1 7
0
4
1 15090415 2 4
0
4
1 15090415 4 3
0
2 6
2 1
0
0
0
4
1 15090415 4 4
1 15303 5 3
1 15090520 4 3
2 1
1 15090535 5 6
4
1 15090535 5 4
2 6
4
2 6
1 15090535 4 6
1 15090415 1 0
1 15090415 2 6
1 15081135 4 1
3
1 15090535 5 6
4
2 6
1 15090520 1 4
3
0
3
1 15090535 5 3
1 15090535 2 6
1 15081135 5 3
0
3
4
2 3
1 15090535 0 7
3
2 5
2 6
3
3
3
1 5 3 6
1 15081240 2 4
0
1 15090535 3 6
2 2
1 15090535 5 2
1 15090180 2 6
1 3 1 7
0
3
4
1 15090415 4 4
1 15090520 3 4
1 15090520 5 3
1 15090415 2 4
1 15090535 2 6
1 15090415 4 6
1 15090535 4 6
4
4
1 12 5 3
1 15090415 4 6
1 15090535 5 2
0
1 15090535 4 6
1 15090415 5 4
3
2 1
4
2 1
1 15090520 5 3
1 15090415 2 6
1 15090415 4 4
1 15081135 5 4
1 15090415 1 1
2 6
4
1 15090535 5 2
1 15090415 4 3
1 15090415 3 0
1 15081135 1 1
3
4
1 14 2 6
4
1 15090415 5 6
4
4
3
1 15303 5 4
1 15090415 2 6
0
1 15090415 4 6
1 15362 4 6
2 1
1 15303 0 2
2 3
0
2 4
1 15090415 5 6
0
4
1 15090535 3 1
1 13 2 4
0
0
0
0
1 15090415 0 3
1 15090415 4 1
0
3
4
1 15090535 0 2
1 15090535 5 7
2 6
1 15090535 4 6
3
2 5
2 6
1 15303 4 5
2 4
1 15090535 5 7
1 15090240 3 7
1 15090415 4 6
2 0
4
1 15090415 2 6
1 15090415 4 6
3
1 15090415 5 1
1 15090535 0 3
0
0
3
2 4
4
2 4
2 3
2 4
0
1 15090180 4 7
3
1 15090415 2 6
1 15090415 5 6
2 4
1 15303 5 1
1 15090415 5 1
1 15090535 2 4
2 5
2 6
1 15090415 5 3
0
0
0
2 4
0
0
2 6
1 15090415 2 6
4
1 15090535 2 1
2 0
1 15081030 4 3
1 12 4 6
1 15090415 3 4
1 15090415 4 4
4
2 0
1 2 2 1
2 2
1 15090415 1 3
1 15090535 4 6
1 15090415 6 3
2 1
2 4
0
2 6
3
3
3
1 15090535 3 1
1 15090415 0 0
1 15090415 5 7
1 15090415 5 4
2 7
1 15090535 2 6
1 15090415 4 6
2 6
2 1
3
3
2 6
2 0
0
1 15081270 2 6
1 15081270 3 4
1 15090535 5 6
2 3
1 15090520 1 1
4
4
3
1 15081135 5 2
1 15090535 3 1
1 15090415 4 6
4
2 4
3
1 15090415 3 6
3
3
4
1 15090535 4 3
4
1 15090415 5 2
1 15090415 2 6
3
3
3
2 5
1 15090415 2 1
1 15090180 1 4
1 15090415 4 3
1 14 0 6
1 15090520 0 2
1 15090415 5 1
1 15090415 2 3
1 15090535 4 7
0
0
1 12 6 2
1 15090535 5 1
1 15090415 2 6
1 15090415 5 4
3
1 11 5 6
0
1 15090415 5 3
1 15090415 4 4
1 15090415 4 4
1 15090535 5 6
4
1 15090535 5 6
1 15090535 0 4
2 5
2 1
1 15090415 5 4
1 15090535 4 7
0
3
2 2
1 15090180 3 6
0
1 15303 4 6
1 15090535 0 6
2 3
1 15303 4 2
1 5 5 1
1 15090240 5 4
1 15081135 3 4
1 15202 3 4
1 15090415 2 1
1 15090535 4 3
3
2 2
0
1 15081135 2 4
2 3
1 15090415 5 0
1 15090535 3 3
0
2 6
1 15090535 0 4
1 5 4 0
1 15090415 4 4
2 6
4
4
1 15090415 5 3
1 15090535 0 2
1 15303 4 7
1 15090415 6 6
3
3
3
1 15090535 4 2
3
1 15090535 5 3
2 5
4
0
0
3
2 6
1 15090415 5 6
1 15090415 3 6
1 15090415 0 4
0
4
2 6
0
1 15081030 6 3
4
1 15090535 5 3
1 3 4 6
1 15090535 3 6
1 15090535 4 6
3
2 6
2 1
0
0
2 0
4
4
2 6
4
2 3
1 3 4 6
1 15090415 4 6
2 6
1 3 5 1
0
2 4
3
4
1 15090415 2 2
2 2
1 15090535 4 7
1 15090535 4 1
1 15081135 2 3
2 1
2 2
4
1 15090535 3 2
1 15090415 4 0
1 15090415 4 6
2 6
2 6
1 15303 4 3
4
4
1 15090415 1 4
4
2 1
4
4
3
1 15081455 0 6
1 15090535 0 4
2 7
0
2 4
2 1
2 4
1 15362 2 4
4
4
3
1 15090415 2 5
2 1
1 15090535 2 6
1 15090520 4 7
0
1 15090415 3 3
2 6
4
1 15090415 3 3
2 6
4
4
2 4
1 15090535 5 4
2 3
4
2 6
1 15090535 4 0
1 15090415 2 1
1 15090415 1 4
1 15090415 5 6
3
1 15090415 2 4
4
1 15090415 4 6
3
3
3
1 15090415 5 4
4
2 3
3
3
1 15090520 0 0
4
3
4
4
1 15090535 4 4
2 6
0
3
3
1 15303 2 7
1 15090415 5 4
2 4
4
4
3
3
3
3
1 15090415 5 6
2 6
3
4
1 15081135 5 7
1 15090415 2 6
1 15090415 5 6
2 6
1 15090415 2 4
2 1
2 1
2 3
3
2 1
1 15090415 5 6
3
3
4
1 15090415 2 5
4
2 7
1 15090415 5 6
1 15090415 3 0
2 6
2 3
1 15090415 3 6
1 3 5 4
3
1 3 3 3
1 15090520 2 3
1 15090415 4 5
1 15090520 0 2
1 15090535 3 2
0
3
1 9 1 3
4
2 6
1 15090415 5 6
3
1 15090415 5 1
4
1 15090415 2 5
1 3 4 4
2 6
0
2 4
1 13 2 4
0
1 15090535 3 3
0
4
2 6
2 1
1 15090415 1 4
0
2 1
0
1 15090520 0 6
2 4
2 6
1 15081135 5 6
1 15090415 4 7
1 15090090 3 6
3
1 3 5 6
2 6
1 15090415 4 1
1 12 4 4
3
1 15090415 4 4
0
1 15090415 0 1
1 15090415 5 0
1 15090415 4 6
1 15090535 2 6
2 2
1 3 1 4
1 15090535 1 7
1 15081135 5 6
1 15090415 0 4
2 6
1 13 2 4
3
4
2 4
1 15090520 2 5
0
0
3
1 15090520 2 1
3
1 15090415 3 4
0
1 15090535 5 6
1 15090535 2 7
4
1 15081135 5 7
3
2 4
3
1 15090535 4 4
1 15362 2 0
0
3
4
4
3
3
2 0
1 15090535 0 6
1 15090415 5 6
0
2 4
4
1 15090415 2 6
1 15090535 4 6
1 3 4 3
1 15090415 4 0
0
2 6
1 15090535 2 6
1 3 3 1
1 15090535 4 4
1 15303 3 4
2 6
1 15090535 4 3
3
2 3
2 4
3
4
1 15090535 4 3
4
1 15090415 3 4
4
4
2 6
2 6
1 15090415 3 6
1 15090415 3 1
1 15090415 4 4
4
1 15090415 4 3
0
2 1
1 3 5 4
0
4
1 15090535 5 4
2 2
3
1 15090415 5 3
1 15090520 5 6
0
1 15090535 3 6
1 15090415 5 6
1 15081135 5 4
1 15090520 4 4
3
4
3
1 2 4 1
1 15090535 4 1
2 6
1 14 4 4
4
3
1 15090415 6 1
1 15090535 3 4
0
3
4
1 15090415 1 2
4
1 3 4 4
2 1
4
1 15090180 2 1
1 15090520 3 6
1 15090415 2 5
1 15090415 0 1
1 15090415 3 3
2 4
2 6
1 15090415 5 0
2 4
4
2 4
1 15090415 3 4
3
4
1 15090415 4 6
1 3 5 6
3
3
3
2 6
1 15090415 2 7
1 15090415 2 4
0
0
2 5
1 15090415 2 6
1 15090415 4 6
2 4
2 6
0
2 6
1 15090415 5 1
4
4
1 15090415 3 3
1 15090535 2 7
1 15090415 1 5
1 15090535 5 7
3
3
1 15090415 6 1
1 15090535 3 6
0
2 6
4
1 15090415 2 3
1 15090535 5 6
1 3 5 6
1 15090550 5 1
2 6
1 15090520 3 3
1 15090415 2 1
4
2 3
1 15090415 5 3
1 15090155 2 4
3
2 5
0
0
0
1 15081135 2 4
2 1
1 15090155 4 7
1 15081270 3 1
1 15090415 4 6
2 0
1 15090550 4 6
0
1 12 4 3
1 15090415 6 6
1 15081240 2 3
1 15090535 3 4
2 4
2 3
1 15090415 5 4
1 15090535 3 1
1 15090415 4 6
0
2 2
1 15090415 5 1
2 1
1 15090535 5 6
1 15090415 5 5
1 15081135 4 1
1 15090535 2 4
0
2 1
2 6
3
1 13 3 5
1 15090535 4 6
1 15090415 5 4
2 1
1 9 1 6
3
4
1 15090415 5 6
1 15090240 0 3
1 15090155 5 6
1 15090415 2 6
1 15090535 5 6
2 1
2 4
1 15090415 2 1
2 4
1 15090415 1 5
2 3
2 2
1 15090415 5 4
2 4
1 15090415 5 7
1 15090415 3 7
2 4
1 15090415 2 1
2 1
1 15090415 4 4
1 15090415 5 6
1 3 5 7
0
1 15090535 5 7
1 15303 3 6
0
0
0
2 6
1 15090535 4 5
2 6
1 15090415 2 4
2 6
0
0
1 15090415 5 6
1 15090415 4 6
1 5 5 6
2 1
1 15090535 5 4
1 15090415 4 6
1 15090415 4 6
1 15081135 4 6
3
1 15090415 4 4
2 7
4
1 15090415 4 6
3
4
4
2 3
2 5
4
3
2 6
1 15090520 4 7
1 15090535 2 6
3
1 15090415 2 1
1 15090520 3 6
1 15090535 3 4
2 6
0
1 15090415 2 1
2 4
1 5 3 6
4
3
1 15303 5 4
3
3
4
4
1 15303 4 6
1 15090415 1 1
3
1 15090415 2 6
1 13 5 7
1 15303 4 1
2 1
4
2 3
2 3
0
1 5 1 6
1 15303 2 6
0
0
1 3 6 6
0
0
3
3
4
2 1
3
3
1 3 4 2
1 15090415 4 6
1 15090415 5 4
4
4
1 15090535 4 6
1 15090415 5 6
1 14 3 6
1 15081030 4 0
0
4
2 6
4
2 5
1 15090415 4 6
3
2 6
2 2
2 1
1 15090415 4 1
0
0
4
2 3
2 7
3
3
2 6
2 6
1 15090415 0 4
1 15081455 4 6
2 4
0
0
3
1 15081030 2 1
1 15090535 4 5
4
3
1 15090415 5 3
1 3 2 4
1 15090415 4 6
1 15090415 5 4
1 15090415 4 3
1 15303 5 3
3
4
4
1 15090535 5 6
0
1 15303 4 6
0
0
4
1 12 2 3
2 1
2 4
0
1 2 4 4
2 6
1 15303 5 6
1 15090535 5 6
1 15090535 3 2
1 15081135 2 3
2 1
1 15090535 3 4
1 15090535 4 4
1 13 3 3
2 6
3
4
1 15303 4 5
3
2 3
3
3
1 15090535 4 4
4
3
2 3
0
3
4
2 3
4
3
1 15090415 2 4
2 6
1 15090535 2 1
2 1
1 15090415 0 1
1 15090415 2 4
1 15090535 4 4
1 15303 5 6
0
1 15090520 5 5
4
2 3
1 15081455 4 1
3
1 15090535 4 4
2 1
2 4
1 15090415 0 6
4
4
4
1 15090415 0 4
2 4
0
0
4
1 15090415 2 0
1 15081135 5 4
2 3
1 14 5 5
1 15081135 1 6
1 3 5 6
2 1
1 15090415 1 5
1 12 1 4
4
2 4
2 4
1 15090535 5 6
2 6
1 12 3 3
1 15090535 2 0
1 15090415 3 6
1 15090415 5 7
2 1
3
3
3
1 15090415 6 3
3
1 15090415 3 1
2 1
2 4
4
4
2 6
1 15090415 5 7
1 15090415 5 6
3
2 1
2 0
4
4
3
3
4
4
3
3
3
1 15090090 6 2
1 15090415 4 6
2 4
1 15090415 4 6
3
4
1 15303 6 7
1 15081135 3 4
0
1 15090535 3 1
4
1 15090415 2 6
1 12 2 3
2 5
2 4
2 7
2 4
1 15090535 4 7
1 15090415 3 6
1 15090415 5 4
2 3
2 1
1 15090415 4 0
1 15090535 0 2
2 6
2 1
2 6
1 15090415 2 1
4
4
4
2 1
1 15090535 3 1
1 15090415 3 4
2 6
0
1 15090415 4 0
1 15081135 0 3
1 15090415 5 6
3
1 15090415 3 1
1 15090520 5 3
4
3
1 15090415 5 6
1 15090415 3 3
2 3
1 15090535 5 3
0
2 4
2 4
3
2 1
1 15090415 4 6
1 15090415 6 7
2 1
1 15081030 6 1
1 3 2 4
1 15090535 5 6
1 15090550 4 1
4
4
1 15090415 4 4
4
1 15090415 4 6
1 15090520 5 1
1 15090535 3 5
3
3
2 5
1 15090535 0 7
2 6
2 6
4
1 14 5 5
2 0
1 15090535 3 7
0
2 6
3
2 4
3
1 3 5 0
1 15090535 5 2
1 15090415 4 1
3
3
1 15090535 4 4
1 15090415 3 6
1 15303 0 4
1 15090415 1 4
1 15090415 4 2
0
3
1 15081455 4 6
1 15362 5 1
2 6
1 15090535 2 4
1 15090535 4 6
1 15090520 4 7
2 2
1 15090415 6 2
2 6
1 15081455 3 4
1 15090415 5 6
4
4
2 7
1 15090155 0 6
2 3
0
3
3
4
2 2
1 2 5 2
1 15090415 1 4
1 15090535 3 6
0
1 15090535 5 6
1 15090415 2 7
1 5 4 1
1 15090535 5 4
0
1 15081240 4 6
1 15090415 5 3
2 0
1 15303 4 1
3
4
1 15090415 2 0
1 15081135 5 4
1 15090415 4 2
1 15090535 0 6
0
2 6
4
3
1 12 2 1
3
1 15081135 4 4
1 9 5 6
1 15303 2 6
0
3
3
0
1 15090520 5 3
1 15362 2 6
1 15090535 6 4
1 9 4 6
1 15362 4 6
1 12 1 4
1 15090415 2 5
1 15090415 1 2
0
2 4
4
4
1 15090415 1 1
1 15090535 5 1
4
1 15090090 1 4
1 15090415 4 6
1 15090535 4 4
1 15090415 1 3
4
3
4
1 3 5 5
3
2 3
2 6
3
1 15081135 3 4
1 15081135 4 4
1 15090415 1 2
4
1 15090180 5 3
4
4
1 15090535 4 4
0
0
1 15090535 0 3
1 15090535 3 4
0
4
4
4
1 15090415 3 6
0
1 15090415 5 6
2 6
1 15090415 4 7
1 15090415 0 5
1 15090415 4 3
3
1 15090415 2 4
3
4
2 5
1 15090155 1 6
1 3 4 4
2 5
1 15090535 3 2
0
1 3 5 6
1 15090415 2 4
2 1
1 15090535 4 6
1 15090415 4 2
2 6
2 1
1 15303 4 6
1 15090535 4 6
1 15090415 5 6
1 15090535 3 6
1 15081135 5 6
1 11 5 6
1 15090415 1 1
1 15090535 2 3
3
1 15090535 5 3
1 15090415 4 3
3
3
2 7
1 15090415 4 6
1 15090415 4 1
4
2 6
2 3
1 15090535 2 6
1 15303 3 6
1 15090415 2 6
2 1
1 15090535 4 1
1 15090535 4 4
1 15090415 4 1
2 5
1 15090415 2 1
4
1 15303 2 0
1 15090535 4 4
1 15303 3 2
3
3
2 6
1 15090415 4 6
3
3
1 15090415 5 6
1 15090270 5 4
3
1 15090520 5 3
1 15090415 4 1
4
4
1 15090415 1 6
4
1 15090535 4 6
1 15081135 5 4
1 15090415 4 7
2 4
1 15090535 5 6
1 15090535 4 3
0
1 15090520 2 4
0
0
1 15090010 5 1
1 15090415 1 3
1 15081135 2 1
4
4
3
1 15090535 2 4
1 15090535 2 1
1 15090535 4 4
3
3
3
3
1 15303 5 1
1 15090415 0 6
1 15090415 5 2
1 15090415 6 1
2 2
1 15090415 3 2
1 15090550 3 4
1 5 2 5
1 3 2 6
4
1 15090535 4 4
1 15090415 2 6
1 15090415 4 3
1 15090415 5 2
1 15090415 5 1
4
4
3
1 15090535 5 6
1 15090415 3 6
2 1
1 15090415 4 2
1 15090535 5 6
3
4
1 15090415 3 6
1 15090535 5 3
0
1 15090535 6 7
0
4
4
1 15090415 5 4
0
1 15081455 5 6
4
4
1 14 2 6
2 4
2 6
1 15090415 5 6
3
1 15090415 4 1
1 15090415 5 6
1 15303 4 6
1 3 5 6
1 12 4 6
4
4
4
1 15090415 1 6
2 6
2 7
2 7
1 15090415 5 6
4
1 15090415 1 1
1 15081030 3 6
1 15090415 5 4
3
4
2 5
4
2 4
4
2 4
4
2 1
2 6
1 15090520 5 6
4
1 3 4 3
2 4
1 15090535 4 3
1 12 2 6
0
0
0
2 2
2 6
2 1
2 6
1 15090535 5 1
4
1 15090535 4 6
0
1 15090415 0 4
1 9 2 6
1 15090415 4 5
4
1 15303 5 6
1 15090415 5 6
1 15090415 5 6
1 15090415 5 5
2 3
3
3
1 15090415 4 4
2 6
2 1
1 15090270 4 1
3
3
4
4
1 15090520 5 3
1 15090535 5 2
1 15090415 0 6
1 13 3 4
0
0
1 9 4 1
1 15090415 4 3
1 15090415 3 1
1 15090415 4 1
4
1 3 5 3
3
4
1 15081135 6 1
4
1 15090520 5 2
1 15090415 4 6
2 3
2 5
4
3
1 15090415 5 6
2 7
4
1 15081135 1 6
3
4
2 6
1 3 4 4
4
2 1
1 15090415 5 5
2 1
0
2 2
2 4
2 3
1 3 5 3
1 15090520 5 3
3
4
1 15090535 4 6
1 15090415 2 5
1 15090415 5 1
0
2 7
2 4
3
3
1 15090415 5 5
1 15081135 2 6
1 15362 3 6
1 15090535 5 6
1 3 2 6
1 15090415 5 6
4
1 15090415 5 4
1 15090535 4 6
4
2 4
2 1
1 15090415 2 4
2 3
2 1
2 5
1 15090415 5 4
2 6
1 15090415 4 4
1 15090415 4 6
1 15090535 0 6
0
0
4
3
4
1 15090535 4 1
1 15081135 5 6
1 15081135 2 7
2 4
2 6
1 15090415 3 6
2 0
1 15090415 5 2
1 15090415 5 3
2 1
1 15081135 3 6
2 6
3
2 5
2 0
1 3 3 3
1 15090415 5 3
1 15090415 1 7
1 15202 5 3
4
1 15090415 5 6
1 15090415 2 6
1 15090415 3 6
3
3
2 3
1 15090415 4 6
1 15090535 2 6
3
1 15090535 1 5
1 15090415 5 3
4
2 2
0
1 15081135 1 4
2 1
1 15090415 1 1
2 6
1 15090415 5 4
1 15090415 4 4
1 15090520 2 6
2 6
1 15090415 2 6
4
1 15090415 4 4
0
2 3
2 6
1 15090415 5 6
2 6
4
4
1 15090415 4 6
1 15090415 5 1
2 0
2 6
4
4
2 5
1 15090415 5 6
2 6
2 3
2 2
4
2 2
1 15090535 3 3
1 2 2 6
1 15081135 4 4
4
4
1 15090415 4 2
2 4
1 15090155 5 1
2 5
0
1 15090270 5 6
4
1 15090415 5 6
2 6
1 15090415 2 3
1 15090270 3 1
1 15090520 3 6
0
1 15081240 3 6
1 15090415 4 6
2 7
2 6
1 3 4 7
2 1
2 6
3
1 15081135 4 4
1 15090415 5 4
4
4
4
3
2 5
1 15090415 2 3
2 3
1 15090415 5 4
1 15090550 4 3
1 13 5 3
1 15090535 6 1
2 7
3
3
2 3
1 15090415 4 5
0
2 7
1 15090415 4 6
4
1 15090535 1 1
0
2 1
4
3
3
1 12 4 4
0
0
3
3
4
4
1 3 4 4
3
3
4
4
1 15303 5 2
1 15090520 4 4
2 4
2 3
2 5
1 3 3 7
0
1 15081135 4 6
1 15090415 1 6
4
2 4
1 15090415 2 3
4
4
1 15090535 3 6
4
1 15090415 4 6
4
4
3
3
1 15090415 3 6
1 15090415 3 3
3
2 1
1 3 5 3
3
3
1 15090535 5 6
1 15090415 2 3
0
4
1 15090415 5 4
2 6
4
1 15090535 4 3
1 15090535 3 6
0
0
1 15090155 5 1
4
4
1 15090415 4 6
2 1
2 2
1 15090415 2 1
2 6
1 15090415 5 6
1 15081135 4 4
1 5 1 6
3
1 15081455 5 3
2 6
4
2 3
4
4
2 1
2 0
1 15090520 2 0
0
4
3
3
1 15081135 6 3
2 3
2 5
3
4
1 15090550 2 6
2 6
2 3
4
4
4
0
1 15090415 1 7
1 5 3 4
1 15081030 4 1
1 15090415 3 0
4
1 15090415 4 6
1 15090415 5 4
1 15081135 2 6
1 15090535 3 7
1 15090415 4 6
1 15090535 5 6
4
4
1 15090415 4 2
1 15090535 4 4
1 15090535 4 6
4
4
3
1 15081135 0 4
4
4
4
1 15090415 4 3
1 3 5 4
1 15090415 5 6
1 15090415 3 4
2 6
4
3
1 15090415 4 6
1 15090415 3 0
1 15090415 3 1
0
0
1 15090520 3 6
0
4
1 15090520 1 4
2 3
1 15090535 0 4
2 1
4
3
2 1
2 6
2 7
3
4
1 3 4 3
1 15090415 5 1
2 5
1 15090415 4 6
4
1 15090520 5 1
3
1 15090415 5 6
1 15090415 1 5
2 6
2 4
1 15090415 5 3
3
2 4
0
0
1 15090520 4 6
1 14 5 3
1 15090535 0 6
3
4
1 15303 2 3
2 4
2 7
1 15090535 5 3
1 15090535 4 2
3
1 15303 2 4
1 15090520 2 5
1 15090415 2 1
0
1 15090415 4 3
1 15090415 3 2
1 15090415 4 6
1 15090415 2 5
4
4
4
1 3 3 5
4
2 7
1 15090415 5 6
2 5
1 15090415 4 3
1 15090535 2 5
1 15090415 4 0
2 3
1 15090520 0 4
2 3
4
4
1 15090415 3 6
4
2 4
1 15303 3 3
1 15090535 5 6
2 3
1 5 3 5
1 15090155 6 4
1 15090415 4 1
0
1 15362 3 6
2 6
4
3
1 5 0 4
1 15090415 4 7
4
4
4
1 15090535 5 5
3
3
1 15090520 5 0
0
2 4
0
4
4
4
1 15090415 4 4
1 15362 3 4
3
1 15090535 5 1
0
1 15090415 5 3
1 15090415 3 4
1 15090520 5 1
1 15090535 2 5
1 15090415 5 1
1 15081135 5 3
1 15090535 3 6
4
1 15090415 4 6
2 4
1 15081135 5 2
1 15090415 4 4
3
3
2 5
1 15081455 0 3
1 15090415 2 6
4
4
2 5
1 15090155 2 5
4
2 6
1 15090415 2 4
1 15090415 2 0
2 6
1 15090415 4 6
3
3
1 5 1 3
1 15090535 2 7
3
1 15090535 4 6
4
2 6
3
1 15090415 0 2
4
2 6
2 4
3
2 1
1 15090415 4 4
0
1 15090535 6 6
3
1 15090550 0 6
1 15081135 5 6
1 15090535 4 3
1 15090415 5 7
4
1 15303 5 7
1 3 4 5
1 15090520 4 6
2 3
1 15090415 2 6
2 6
1 15303 4 4
0
4
2 1
2 4
2 3
0
3
1 15090415 4 3
4
3
3
3
4
1 15090535 4 1
1 15090535 4 6
0
1 15090520 2 1
1 15081135 3 6
1 9 5 6
0
1 15090535 2 1
1 15090415 5 5
1 15090415 1 3
1 15090535 0 2
0
4
2 6
4
1 3 3 4
1 15303 5 4
2 7
4
4
1 15090415 4 1
3
1 15303 0 6
1 15090535 4 2
1 15090415 3 4
1 15090415 4 6
2 6
2 4
2 6
0
4
1 15081270 3 0
1 15090415 3 5
4
2 4
1 15090415 4 4
1 3 5 5
2 4
2 0
3
1 15090520 0 6
1 15081135 4 6
2 1
1 3 4 3
2 1
0
1 3 2 1
1 15090535 5 4
1 15090415 1 4
3
3
3
1 15090415 3 3
0
4
4
4
2 1
3
3
1 15090415 1 4
2 4
1 15090415 0 4
3
2 3
3
2 0
4
4
1 15090535 4 6
2 4
1 15090415 4 1
1 15090415 3 7
1 5 4 6
3
1 15090520 5 5
1 15090010 4 7
3
3
3
2 3
2 1
0
1 15090520 6 3
2 7
0
2 7
0
1 15090415 4 6
1 15090415 4 4
1 15081135 2 3
3
1 15090535 0 2
1 15090415 2 6
3
1 15090535 3 6
2 3
1 15090415 4 4
1 15081135 5 4
2 6
0
4
3
1 15081455 5 6
1 15090415 4 7
1 15090415 5 4
1 12 4 4
1 15090535 6 6
4
0
1 15090535 5 4
1 15090520 4 1
4
2 4
2 6
1 15090535 3 6
2 6
1 13 4 7
1 3 3 4
3
4
1 15090415 5 6
3
3
1 15303 3 1
1 15081270 5 1
0
4
1 15081030 0 4
4
2 6
4
2 7
2 6
3
3
1 15090535 1 6
0
1 15081135 4 6
2 4
1 15090415 5 6
0
4
2 4
3
1 15090415 5 4
1 15090535 0 1
4
4
3
3
2 6
1 15090520 5 4
1 15090010 0 6
1 15090415 5 3
3
2 6
3
1 15090415 1 6
1 15090415 3 6
0
2 4
2 6
2 4
3
2 3
1 15090415 4 6
1 15090520 4 6
2 6
3
4
4
1 15081030 4 1
1 15090270 2 6
1 15090535 4 1
1 15090415 3 6
3
2 4
2 5
3
3
2 3
1 15090520 5 3
1 12 5 1
1 15090415 4 6
2 6
1 15090535 2 6
2 6
1 15090415 4 4
1 15090535 4 2
3
1 15303 5 4
4
2 4
1 15090415 5 3
0
1 15090415 5 2
4
1 15303 5 3
1 15090415 4 3
1 3 5 6
1 15090415 4 6
2 6
0
4
1 15090535 0 6
4
1 15090535 1 6
1 12 4 7
1 15090415 2 6
4
1 15090535 0 6
0
2 6
4
1 15090415 4 6
0
2 3
2 6
1 15090535 4 1
1 15090415 5 6
1 15090415 0 4
3
1 15303 5 6
3
1 15090415 6 1
3
3
3
1 15090415 2 6
0
4
2 6
4
1 15090415 4 4
3
2 5
1 15090415 3 6
1 15090535 4 4
3
3
1 15090415 0 3
0
1 15090415 2 6
0
0
3
1 15090415 4 6
1 15090535 2 1
1 15090415 1 6
1 3 1 6
2 4
2 6
2 6
1 15090415 5 6
3
4
1 15090010 3 6
1 15090415 3 2
1 15090415 2 4
1 15090520 4 4
2 3
1 15090520 1 3
1 15362 0 3
0
3
1 15090415 3 6
2 2
1 15090415 4 6
2 4
4
1 15090535 2 6
3
2 6
0
4
3
3
2 6
3
1 15090415 4 4
3
3
1 15090415 0 2
0
0
3
1 15090520 2 6
2 2
4
0
1 15090535 4 5
4
1 11 5 2
4
3
2 6
3
3
1 15303 0 6
0
4
1 15090520 4 6
1 15090415 4 1
1 15090415 0 6
3
4
3
1 15090415 4 7
0
1 15090520 1 4
0
1 15090415 2 6
1 15090415 0 6
3
2 3
1 12 5 4
1 15090520 2 3
3
3
3
2 4
3
3
3
2 5
2 3
0
1 15090520 4 4
1 15090535 3 6
4
0
1 15090415 1 4
1 15090415 1 4
1 15090535 3 6
1 3 5 7
4
3
3
3
1 15090415 3 1
0
3
1 15090415 5 4
1 12 2 3
2 6
3
4
3
3
3
2 1
1 15090535 4 6
0
1 15090520 3 6
0
3
1 15090415 1 4
1 15303 5 1
1 15090535 3 6
3
4
3
3
3
1 15090535 5 1
1 15090415 5 2
1 15090535 4 1
1 15090415 5 6
3
1 15090010 3 6
0
3
3
4
1 15090415 2 4
3
3
2 5
1 15090520 5 3
2 6
0
1 15090535 5 4
1 15090535 0 4
1 15090415 4 1
0
1 15090415 0 4
1 15090415 4 7
3
1 15090415 4 3
1 12 2 6
3
4
1 15090535 0 7
1 15090535 4 4
1 15090520 4 4
1 15090550 4 6
0
1 15090535 4 6
2 6
1 15090415 2 4
1 15090415 1 6
1 15090415 2 5
2 4
1 15081030 4 2
4
1 15081135 5 3
2 6
0
1 15090415 5 6
2 4
3
3
1 15090415 5 4
2 6
2 6
3
0
1 15090415 2 6
0
1 15081135 5 5
1 15081455 2 2
4
3
2 3
3
3
2 4
1 15090535 1 6
4
1 15090415 5 7
2 4
3
1 5 6 6
3
1 15081030 1 4
3
3
2 3
1 15090415 5 3
1 15090535 4 6
1 15090155 2 6
0
3
3
1 15090415 4 6
4
1 15090415 4 4
0
0
2 4
1 15090415 5 1
1 15081135 4 4
3
1 15090520 4 5
2 4
3
4
1 15090535 2 6
2 6
1 15090535 5 2
0
1 15090415 4 6
1 15090535 4 6
0
3
3
1 15090520 4 6
1 15090535 5 6
3
2 4
0
2 3
1 15090535 5 4
0
3
3
3
1 15081135 2 3
2 6
3
3
1 15090415 5 7
2 3
1 15090415 3 3
1 15090520 5 6
1 15090535 4 6
1 15090415 1 6
2 4
0
2 6
1 5 1 6
1 15090520 3 3
0
1 15090415 0 7
1 3 4 1
4
3
2 6
1 15090415 2 6
3
4
3
3
2 5
4
1 15090415 5 4
2 6
4
1 15090415 2 6
1 15090415 1 6
3
3
4
3
1 15303 1 6
3
3
1 15090520 5 6
3
1 15303 3 3
2 4
1 15090415 5 4
2 4
1 15090415 4 3
0
3
1 3 5 6
1 15090415 2 3
1 15090535 3 7
4
1 3 5 4
1 15090415 2 4
0
2 1
4
1 15090535 2 6
3
2 3
1 15090415 4 6
1 15081135 2 1
1 3 3 6
0
3
1 15090535 2 6
3
1 13 5 4
3
1 15090535 4 4
1 15090415 4 4
2 4
0
3
1 15090415 4 4
1 15090415 3 6
3
1 15090415 4 4
1 15090520 1 6
0
3
3
1 15090415 4 5
0
1 15090415 4 4
1 15090415 3 4
3
2 3
2 1
1 15090535 3 5
2 4
3
0
0
1 15090415 1 6
2 7
2 4
3
1 15090535 6 4
3
2 3
3
3
1 11 6 7
1 15090520 4 7
1 15090520 5 3
1 15090415 2 1
0
2 4
2 2
1 3 2 4
1 15090415 4 6
1 15090535 4 6
3
3
3
3
1 15090415 1 6
2 4
1 15090535 2 6
1 15303 5 1
1 15090415 2 4
1 15081135 1 6
0
3
1 15090415 2 7
4
2 6
3
3
1 15090535 3 7
1 15090415 3 4
1 15090535 4 2
1 9 4 7
2 6
3
3
1 14 4 2
2 4
2 2
1 15090415 5 1
0
3
3
1 15090415 4 3
3
2 6
0
1 15090415 4 4
1 15090535 5 6
1 5 5 6
0
3
0
3
1 15090535 0 3
1 15090415 5 4
0
3
1 15090090 5 6
1 15090415 5 3
3
0
2 7
1 15090415 5 4
3
1 15303 4 7
0
0
0
3
1 15090415 4 6
1 15090415 5 6
3
0
1 15090535 4 3
3
1 5 2 4
2 4
3
2 4
3
1 15090415 2 7
1 15090535 2 6
2 6
2 4
3
1 3 4 7
1 15090520 4 4
3
2 6
1 15090415 4 6
3
3
3
3
3
1 15090535 3 6
1 15090415 5 3
1 15081135 2 3
1 3 4 4
0
1 15081030 0 3
3
3
1 15090415 4 7
3
1 15303 0 4
0
3
3
3
2 6
3
1 15090415 4 3
1 15090415 1 1
1 15090415 2 2
3
1 14 4 5
3
3
3
1 15090520 2 2
2 6
0
0
1 15090535 3 6
1 15090415 3 6
2 6
3
0
0
3
1 15090415 4 1
1 12 1 6
3
1 3 2 4
0
1 15081240 2 6
3
3
1 15090520 4 2
3
3
3
3
3
2 1
1 15090520 5 6
1 15081455 5 1
1 15090415 4 6
1 15090415 5 6
1 15090415 4 3
1 15090415 5 7
3
3
1 15090415 4 6
1 15090415 3 6
1 15090535 2 7
1 15090520 4 4
0
1 15090520 1 3
3
4
3
1 15090415 4 3
2 4
1 15090270 4 3
3
3
3
1 2 4 4
1 15090415 3 4
0
3
3
2 3
3
1 15362 4 6
3
3
1 15090520 5 6
1 15081135 5 6
1 15090415 5 1
3
3
2 3
3
3
3
3
2 6
3
1 15081455 5 6
2 6
1 15090535 4 6
2 4
0
0
1 15090535 4 6
1 15090415 2 6
1 15090240 6 1
0
0
0
2 6
1 15090535 4 6
0
3
3
3
1 15090415 4 4
3
2 6
3
3
3
3
1 15303 2 2
1 2 4 2
3
1 15090520 4 6
1 15081135 2 3
0
3
1 3 2 6
0
2 6
1 15090535 5 7
0
1 15090415 5 2
3
3
1 5 4 4
3
3
3
3
1 15090535 4 6
3
1 15090520 2 6
3
3
1 15090535 0 3
4
0
1 15090415 3 4
2 4
3
3
3
3
3
3
3
3
1 15090535 4 6
0
1 15081135 1 6
3
3
1 11 5 4
3
1 15090415 4 5
2 6
1 15090415 4 3
3
1 15303 4 6
3
3
3
2 6
1 3 5 6
3
3
3
1 3 0 3
3
3
1 15081135 3 4
3
3
2 6
3
3
2 4
3
1 15090415 5 4
3
1 15090550 4 4
1 15303 1 4
0
3
1 15090415 2 7
3
3
3
1 15090415 2 4
1 15090535 4 6
1 15090535 5 3
1 15081455 5 4
1 15090535 4 6
3
1 15090535 5 6
1 15090415 1 7
1 15090155 5 6
3
1 15090415 4 6
3
3
1 15090535 5 4
1 15090415 3 1
1 15081135 5 1
1 15090415 5 4
1 15090415 2 6
1 3 3 7
2 6
2 6
3
3
3
3
3
1 3 5 4
3
1 15090415 2 6
0
1 15090535 4 1
1 3 5 4
3
0
1 15090415 5 6
0
0
1 15090520 2 7
2 6
2 2
1 15090415 3 3
3
3
3
3
0
1 15090415 5 4
3
1 15090415 4 4
1 15090520 4 3
1 15303 5 4
1 15090520 2 4
3
3
3
3
2 7
3
3
2 7
1 15090535 3 6
0
3
1 15090535 4 4
3
0
0
3
3
2 1
3
3
3
3
3
2 4
2 6
3
3
3
1 15090415 2 4
3
3
3
3
1 15090535 1 3
3
3
1 15090415 1 7
3
3
3
1 15090415 4 4
1 15090415 4 7
1 15090415 4 6
3
0
3
3
1 15081455 3 4
3
1 5 2 4
3
0
2 4
3
3
3
3
0
3
1 15081030 3 3
1 11 2 6
3
3
3
3
3
3
2 4
3
3
3
3
3
3
2 6
1 15090415 2 4
3
3
3
3
1 15090415 5 6
3
3
2 4
3
3
1 15090415 5 6
3
3
3
3
3
3
4
0
1 15090415 4 5
3
3
3
0
0
1 15090415 0 4
1 15303 3 4
1 15090535 4 6
3
1 15090415 3 3
3
3
0
3
2 4
3
3
0
3
0
3
1 9 4 4
0
1 15090415 2 7
0
0
3
1 15081135 4 6
1 15090415 4 4
0
1 15090415 2 7
1 15303 3 6
2 6
0
1 15090415 4 6
1 15090415 5 6
2 6
0
1 15090415 0 7
0
0
0
1 15090415 4 6
1 15090415 3 6
0
0
0
2 7
0
0
0
0
0
0
0
0
0
0
0
0
0
0
0
1 3 0 6
1 15090415 5 6
2 3
2 6
0
1 15090535 5 4
1 15090535 0 4
1 15090415 4 1
0
0
0
0
1 15090415 2 4
4
0
1 13 4 6
1 15090415 2 6
2 4
1 15090535 0 7
0
1 15090535 2 6
0
2 4
0
0
0
1 15090535 4 7
0
0
0
1 15090535 4 4
0
1 15081135 4 7
0
4
1 15090415 3 6
1 3 2 6
4
1 15090415 5 7
1 15090520 5 6
1 15081135 2 6
0
0
0
0
1 5 3 5
1 15090415 5 4
0
2 6
1 15090415 4 4
1 11 0 4
0
2 6
1 15090415 4 6
0
0
1 15090535 0 4
0
0
1 15090180 5 6
1 15081135 4 4
4
1 15303 5 4
0
0
0
1 15090535 3 6
0
1 13 3 6
0
1 15090415 1 7
1 15090415 3 3
0
1 15090535 4 6
2 4
1 15090415 5 6
0
0
0
1 15090415 3 4
0
1 15090415 5 7
0
0
0
1 15090535 0 7
0
0
0
0
1 12 4 6
0
0
0
1 15090415 0 4
4
0
0
1 15090535 0 3
1 15090535 4 4
0
0
0
1 15090415 4 6
1 15090415 2 4
0
2 4
1 15090415 5 7
2 7
2 6
1 15090415 2 6
0
1 15090415 4 7
1 15090415 5 4
0
1 15303 0 6
4
1 15090535 1 6
0
1 15090535 6 4
4
1 15090415 2 4
2 7
2 6
0
2 6
1 15090415 3 1
0
0
1 15090155 4 4
0
1 15090415 2 6
0
0
0
1 15090415 2 3
0
0
3
0
0
0
0
0
0
0
3
0
0
0
0
0
3
3
3
3
3
3
3
0
0
0
3
3
0
0
0
0
0
3
1 15090415 4 6
3
3
0
0
3
3
0
0
3
3
0
0
0
0
3
3
0
0
0
0
0
0
0
0
0
0
3
0
0
3
1 15090535 5 7
0
0
0
0
0
0
0
0
0
3
0
0
0
0
3
0
0
3
0
0
0
0
0
3
0
0
0
0
0
3
0
0
3
0
0
0
3
1 15090415 3 4
0
0
0
0
3
0
3
3
3
1 15090415 3 6
0
3
3
0
0
0
0
0
3
0
0
0
0
0
0
0
0
3
0
0
0
3
3
3
3
0
0
0
0
0
3
3
0
0
0
3
0
0
0
3
0
3
3
0
0
0
0
3
0
0
0
0
0
0
0
0
0
0
0
0
0
0
0
0
0
0
3
0
0
0
0
0
0
0
0
0
0
3
3
0
4
3
0
0
0
3
0
0
0
1 15090415 4 3
0
0
3
3
2 6
0
0
3
3
0
0
0
0
0
3
0
3
3
0
0
3
3
3
2 6
0
0
3
0
0
0
0
3
3
0
0
0
0
0
0
0
3
0
0
0
0
3
3
0
0
0
0
3
0
0
0
0
3
0
3
3
3
3
1 15090535 2 6
0
3
3
1 15090415 2 7
0
3
3
3
0
0
0
3
3
0
0
0
0
3
3
0
0
0
0
0
0
0
0
0
0
0
3
0
0
0
0
0
0
0
0
0
3
3
1 15090535 5 5
0
0
3
3
0
0
0
3
0
0
0
0
0
0
3
3
0
0
0
3
0
0
0
0
0
3
3
3
0
3
0
0
0
3
0
0
0
3
3
0
0
0
0
3
0
0
1 15090415 5 5
0
0
0
0
0
0
3
0
0
0
0
0
0
0
0
3
1 15090535 5 4
0
0
0
0
0
3
1 15090415 0 4
0
0
3
0
0
0
0
3
3
3
2 4
3
0
0
0
0
3
1 5 0 6
0
0
0
0
3
0
0
3
0
3
2 3
0
3
0
0
0
0
0
3
3
0
0
0
0
3
0
0
0
0
3
0
0
0
0
0
0
0
0
0
3
0
1 15090415 0 4
0
0
0
0
3
0
0
3
0
0
3
1 15090535 3 6
0
0
0
3
3
0
0
0
1 15090415 5 7
0
3
3
3
2 4
0
0
3
0
0
0
0
0
0
0
3
0
3
3
0
0
0
0
3
0
0
3
0
0
0
0
0
0
0
0
0
3
0
0
0
0
3
0
0
0
0
0
0
0
0
0
0
0
0
3
3
3
0
0
0
3
3
3
3
0
0
3
3
0
3
0
0
0
3
0
0
0
0
0
3
0
0
3
0
0
0
3
3
1 3 4 4
0
0
3
0
3
0
0
0
0
0
3
3
0
0
0
0
0
0
3
1 15090415 3 7
0
0
0
3
3
0
0
3
0
0
0
3
3
0
0
0
0
0
0
0
0
0
0
0
0
0
3
3
0
0
0
0
3
0
0
0
0
0
3
0
0
3
3
0
3
4
0
0
0
0
3
3
3
3
3
0
0
0
1 15090520 5 6
4
0
0
0
0
3
1 15090415 5 6
0
3
0
0
0
3
0
0
0
0
0
0
0
0
3
3
3
3
0
3
0
0
3
1 15090415 2 6
0
0
0
0
3
0
0
0
0
0
0
0
0
3
3
0
0
0
0
3
3
4
0
0
0
0
0
0
3
0
0
0
3
0
0
0
3
3
3
0
0
3
0
0
3
3
3
0
0
0
3
3
0
0
3
3
0
0
0
0
0
0
0
0
0
0
3
3
1 15090535 3 3
0
0
0
3
1 15090415 2 4
0
0
3
0
0
0
0
3
0
0
0
3
0
0
0
0
0
0
0
0
0
3
0
3
1 15090415 4 4
0
0
0
0
0
0
3
3
0
3
0
0
3
0
0
0
0
0
3
0
0
0
0
0
0
0
0
0
3
0
0
3
3
4
0
0
0
3
0
3
0
0
3
3
3
0
3
0
0
3
3
0
0
0
0
0
0
0
3
0
3
0
0
3
3
3
0
0
3
1 15090535 4 7
0
3
0
0
0
3
3
1 15081135 2 7
0
0
0
3
3
4
0
0
3
0
0
0
0
3
0
0
0
0
0
0
3
1 15090415 4 7
0
0
0
0
3
3
3
0
3
0
0
0
0
3
3
0
0
0
0
3
0
0
3
3
0
0
0
0
0
0
3
0
1 15090535 3 7
0
0
0
3
3
0
0
0
0
3
3
3
3
0
3
0
3
0
0
3
3
0
0
0
0
3
3
4
0
3
3
0
3
3
3
0
0
0
3
3
0
0
0
0
3
3
0
0
0
0
0
0
0
0
3
0
0
0
3
0
0
3
0
0
0
0
0
