0 1 51 
2 2 66 66 
0 1 60 
0 1 38 
2 2 60 60 
0 1 62 
0 1 44 
0 1 59 
0 1 77 
1 4 33 4 0 6 
0 1 33 
0 1 66 
0 1 45 
2 2 40 37 
0 1 70 
2 2 64 59 
2 2 31 29 
1 3 41 6 15 
0 1 38 
0 1 47 
2 2 31 27 
2 2 42 41 
2 2 55 51 
1 2 38 12 
2 2 51 50 
3 3 37 37 10 
2 2 64 69 
2 2 30 28 
0 1 31 
2 2 30 31 
0 1 77 
0 1 78 
2 2 24 20 
0 1 63 
0 1 38 
0 1 35 
3 4 40 42 18 14 
0 1 45 
0 1 79 
0 1 50 
2 2 38 37 
0 1 61 
2 2 65 59 
0 1 39 
0 1 38 
2 2 64 60 
1 2 49 16 
1 2 35 5 
2 2 48 47 
0 1 31 
2 2 46 46 
0 1 59 
0 1 40 
0 1 74 
3 4 37 35 11 5 
2 2 36 32 
2 2 61 60 
2 2 38 33 
1 3 43 8 15 
1 2 37 20 
0 1 22 
3 3 36 32 8 
3 4 49 44 23 12 
2 2 37 29 
1 2 51 21 
0 1 66 
2 2 78 77 
3 3 41 42 8 
0 1 23 
2 2 58 56 
2 2 42 39 
2 2 30 30 
0 1 76 
3 3 34 31 10 
2 2 45 42 
3 3 36 29 6 
2 2 26 27 
0 1 26 
2 2 45 44 
1 4 44 7 17 19 
0 1 62 
0 1 65 
0 1 52 
2 2 34 33 
0 1 58 
0 1 34 
2 2 38 32 
2 2 55 53 
0 1 58 
0 1 70 
0 1 32 
2 2 43 41 
0 1 36 
0 1 61 
3 3 42 39 17 
0 1 56 
0 1 41 
0 1 40 
0 1 56 
0 1 58 
3 3 50 49 13 
0 1 27 
0 1 43 
0 1 55 
0 1 67 
0 1 28 
2 2 45 44 
0 1 58 
0 1 54 
0 1 73 
0 1 52 
3 3 58 52 23 
0 1 48 
0 1 86 
1 2 36 13 
0 1 25 
0 1 33 
2 2 75 75 
2 2 77 73 
2 2 55 50 
0 1 59 
2 2 50 46 
1 4 38 10 6 8 
0 1 60 
3 3 31 24 1 
1 2 34 4 
0 1 30 
0 1 72 
2 2 54 54 
0 1 21 
0 1 40 
3 3 30 22 1 
0 1 30 
2 2 64 62 
1 4 48 17 20 15 
0 1 47 
0 1 27 
2 2 54 50 
0 1 43 
2 2 63 59 
0 1 49 
0 1 74 
0 1 49 
2 2 50 46 
3 3 38 34 14 
3 3 39 36 1 
2 2 35 33 
0 1 48 
0 1 51 
3 4 43 39 16 14 
2 2 32 34 
1 2 47 10 
0 1 71 
0 1 61 
0 1 62 
2 2 67 68 
2 2 55 53 
2 2 31 33 
2 2 64 60 
2 2 54 51 
0 1 62 
2 2 62 58 
0 1 56 
3 3 54 53 18 
2 2 45 47 
0 1 89 
0 1 61 
0 1 72 
2 2 52 53 
2 2 46 44 
1 2 34 10 
2 2 59 53 
1 3 44 14 15 
1 2 31 9 
0 1 60 
2 2 28 26 
2 2 39 47 
2 2 60 63 
2 2 62 61 
0 1 60 
0 1 43 
0 1 57 
2 2 21 18 
0 1 35 
2 2 38 34 
0 1 54 
0 1 44 
1 2 42 22 
0 1 63 
1 2 32 6 
1 4 49 14 17 15 
2 2 49 46 
0 1 25 
3 5 47 46 10 16 12 
1 4 40 21 14 5 
0 1 76 
0 1 36 
0 1 54 
2 2 53 52 
0 1 36 
1 2 25 5 
2 2 55 52 
0 1 61 
0 1 38 
0 1 39 
0 1 31 
0 1 54 
0 1 84 
0 1 71 
2 2 79 83 
0 1 64 
0 1 38 
0 1 71 
0 1 27 
0 1 79 
2 2 36 38 
0 1 44 
0 1 79 
2 2 21 23 
2 2 27 23 
0 1 68 
0 1 89 
0 1 55 
1 2 43 15 
0 1 64 
0 1 63 
0 1 41 
0 1 70 
2 2 79 75 
0 1 39 
2 2 54 54 
2 2 35 29 
0 1 25 
1 3 32 6 5 
0 1 49 
0 1 82 
0 1 79 
0 1 88 
3 3 47 49 16 
0 1 87 
0 1 43 
0 1 87 
0 1 43 
1 2 36 7 
0 1 32 
0 1 86 
0 1 56 
1 3 46 21 11 
0 1 40 
0 1 33 
0 1 57 
1 2 64 35 
2 2 32 32 
0 1 52 
0 1 41 
1 2 40 6 
0 1 56 
0 1 53 
1 2 57 25 
0 1 68 
3 3 33 27 7 
0 1 24 
0 1 57 
2 2 57 52 
0 1 70 
2 2 20 17 
0 1 63 
2 2 20 18 
2 2 58 56 
0 1 28 
2 2 35 33 
2 2 41 20 
2 2 85 81 
0 1 32 
0 1 81 
0 1 71 
1 2 53 10 
0 1 61 
0 1 22 
2 2 26 29 
0 1 75 
0 1 71 
0 1 71 
2 2 54 53 
0 1 54 
1 2 61 28 
0 1 61 
2 2 26 27 
0 1 29 
0 1 71 
2 2 56 52 
3 3 57 54 19 
1 2 29 5 
0 1 89 
0 1 54 
0 1 54 
0 1 27 
0 1 82 
0 1 26 
0 1 63 
2 2 57 56 
0 1 27 
0 1 35 
0 1 71 
0 1 56 
0 1 24 
2 2 20 19 
0 1 74 
0 1 74 
0 1 74 
0 1 63 
0 1 64 
0 1 87 
0 1 53 
2 2 26 28 
2 2 21 19 
0 1 64 
0 1 25 
1 4 43 19 18 12 
0 1 29 
0 1 64 
0 1 41 
0 1 64 
0 1 41 
0 1 22 
0 1 86 
0 1 29 
0 1 52 
0 1 57 
2 2 23 29 
0 1 57 
0 1 61 
0 1 85 
0 1 21 
0 1 29 
2 2 35 28 
0 1 63 
2 2 64 61 
2 2 25 24 
2 2 35 35 
0 1 35 
0 1 53 
0 1 88 
2 2 26 24 
1 2 28 9 
0 1 35 
0 1 43 
2 2 52 52 
0 1 21 
0 1 28 
0 1 43 
0 1 52 
0 1 43 
0 1 25 
0 1 28 
0 1 25 
1 3 43 13 11 
0 1 64 
0 1 75 
0 1 61 
0 1 61 
0 1 64 
0 1 57 
0 1 80 
0 1 64 
0 1 64 
0 1 22 
0 1 63 
0 1 85 
0 1 64 
0 1 57 
0 1 35 
0 1 52 
0 1 82 
0 1 84 
0 1 57 
0 1 64 
2 2 29 29 
0 1 57 
0 1 28 
0 1 25 
2 2 28 21 
0 1 28 
0 1 20 
0 1 22 
0 1 63 
0 1 28 
0 1 22 
2 2 24 23 
0 1 20 
0 1 82 
2 2 22 20 
0 1 20 
0 1 28 
1 2 29 4 
0 1 85 
0 1 25 
0 1 28 
0 1 28 
0 1 24 
0 1 22 
0 1 82 
0 1 88 
2 2 22 22 
0 1 25 
0 1 25 
0 1 88 
0 1 28 
0 1 25 
2 2 25 22 
0 1 25 
0 1 81 
0 1 28 
0 1 28 
0 1 17 
0 1 25 
0 1 25 
0 1 85 
0 1 25 
0 1 25 
0 1 25 
0 1 19 
0 1 18 
0 1 19 
0 1 19 
0 1 18 
1 2 19 0 
0 1 19 
0 1 18 
0 1 18 
0 1 18 
0 1 19 
0 1 19 
0 1 19 
0 1 19 
0 1 19 
4 3 15 11 0 
4 2 92 16 
4 3 90 16 13 
4 3 16 13 10 
4 6 93 16 11 9 4 2 
4 1 16 
4 5 15 12 11 3 3 
4 1 12 
4 3 16 15 11 
4 6 16 16 14 13 12 11 
4 6 91 12 12 6 4 2 
4 4 14 13 3 0 
4 1 16 
4 4 16 13 11 3 
4 1 13 
4 1 11 
4 4 92 92 9 3 
4 5 90 13 12 7 0 
4 2 94 12 
4 4 16 15 13 12 
4 2 12 11 
4 1 91 
4 4 91 9 4 2 
4 5 94 16 16 16 0 
4 2 16 15 
4 2 15 13 
4 6 93 91 16 12 3 3 
4 1 90 
4 2 11 2 
4 4 92 92 14 12 
